// 116
//== Everything I Believe Is False
== Розділ 2. Все, у що я вірю, -- хибне

// 117
// #include “stddisclaimer.h”
#include “stddisclaimer.h”

***

// 118
//__“Of course it was my fault. There’s no one else here who could be
//responsible for anything.”__
// hedrok: копія в 090:16280
__-- Звісно, це моя провина. Тут немає більше нікого, хто міг би бути
відповідальним бодай за щось.__

***

// 119
//“Now, just to be clear,” Harry said, “if the professor does levitate you, Dad,
//when you know you haven’t been attached to any wires, that’s going to be
//sufficient evidence. You’re not going to turn around and say that it’s a
//magician’s trick. That wouldn’t be fair play. If you feel that way, you should
//say so __now__, and we can figure out a different experiment instead.”
-- Прояснімо все заздалегідь -- сказав Гаррі. -- Якщо професорка левітуватиме
тебе, тату, і ти знатимеш, що до тебе не під'єднано жодних мотузок, -- це вважатиметься
достатнім доказом. Ти не збираєшся змінювати думку й стверджувати, що це фокус.
Так було б нечесно. Якщо ти відчуваєш, що саме так тобі й захочеться вчинити, -- варто
сказати про це __зараз__, щоб ми могли вигадати натомість інший експеримент.

// 120
//Harry’s father, Professor Michael Verres-Evans, rolled his eyes. “Yes, Harry.”
Батько Гаррі, професор Майкл Веррес-Еванс, закотив очі.

-- Так, Гаррі.

// 121
//“And you, Mum, your theory says that the professor should be able to do this,
//and if that doesn’t happen, you’ll admit you’re mistaken. Nothing about how
//magic doesn’t work when people are sceptical of it, or anything like that.”
-- Тепер ти, мамо. Згідно з твоєю теорією, професорка має бути в змозі це зробити,
і якщо цього не станеться, ти ви{stress}знаєш, що помилялася. Жодних заперечень, ніби магія
не працює на скептично налаштованих людях чи чогось подібного.

// 122
//Deputy Headmistress Minerva McGonagall was watching Harry with a bemused
//expression. She looked quite witchy in her black robes and pointed hat, but
//when she spoke she sounded formal and Scottish, which didn’t go together with
//the look at all. At first glance she looked like someone who ought to cackle
//and put babies into cauldrons, but the whole effect was ruined as soon as she
//opened her mouth. “Is that sufficient, Mr. Potter?” she said. “Shall I go ahead
//and demonstrate?”
Заступниця директора Мінерва Макґонеґел приголомшено спостерігала за Гаррі. Вона
дуже скидалася на відьму у своїй чорній мантії та гостроверхому капелюсі, проте
розмовляла офіційно й із шотландським акцентом, що геть суперечило її вигляду.
На перший погляд видавалося, що вона має ґелґотати й кидати дітей
до казанів, проте весь ефект зникав, щойно вона починала говорити.

-- Цього достатньо, містере Поттер? -- промовила вона. -- Можна розпочинати
демонстрацію?

// 123
//“__Sufficient?__ Probably not,” Harry said. “But at least it will
//__help.__ Go ahead, Deputy Headmistress.”
-- __Достатньо?__ Напевно, ні, -- відповів Гаррі. -- Але __принаймні__ це
допоможе. Прошу, заступнице директора.

// 124
//“Just Professor will do,” said she, and then, “__Wingardium Leviosa__.”
-- Можна просто "`професорка`", -- сказала вона, а потім -- __Вінґардіум Левіоза__.

// 125
//Harry looked at his father.
Гаррі подивився на батька.

// 126
//“Huh,” Harry said.
-- Гм, -- сказав він.

// 127
//His father looked back at him. “Huh,” his father echoed.
Батько поглянув на нього й відгукнувся:

-- Гм.

// 128
//Then Professor Verres-Evans looked back at Professor McGonagall. “All right,
//you can put me down now.”
Професор Веррес-Еванс перевів погляд на професорку Макґонеґел.

-- Гаразд, тепер можете мене спускати.

// 129
//His father was lowered carefully to the ground.
Батька обережно повернули на землю.

// 130
//Harry ruffled a hand through his own hair. Maybe it was just that strange part
//of him which had __already__ been convinced, but… “That’s a bit of an
//anticlimax,” Harry said. “You’d think there’d be some kind of more dramatic
//mental event associated with updating on an observation of infinitesimal
//probability -” Harry stopped himself. Mum, the witch, and even his Dad were
//giving him __that look__ again. “I mean, with finding out that everything
//I believe is false.”
Гаррі скуйовдив рукою волосся. Можливо, річ лише в тій його дивній частині, що __вже__
була переконана, але...

-- Це викликає певний дисонанс, -- сказав Гаррі. -- Я гадав, що спостереження події
нескінченно малої ймовірності мало б спричинити більш драматичну ментальну реакцію...
-- Гаррі затнувся. Мама, відьма й навіть тато знову дивилися на нього
__цим поглядом__. -- Тобто через відкриття, що все, у що я вірив, -- хибне.

// 131
//Seriously, it should have been more dramatic. His brain ought to have been
//flushing its entire current stock of hypotheses about the universe, none of
//which allowed this to happen. But instead his brain just seemed to be going,
//__All right, I saw the Hogwarts Professor wave her wand and make your
//father rise into the air, now what?__
Серйозно, це мало бути ефектнішим. Його мозок мав відкинути весь запас
гіпотез про всесвіт, жодна з яких не допускала того, що тільки-но сталося.
Натомість же його мозок, схоже, думав: __Ну добре, я бачив, як професорка
Гоґвортсу махнула паличкою й змусила батька піднятися в повітря, ну то й що?__

// 132
//The witch-lady was smiling benevolently upon them, looking quite amused. “Would
//you like a further demonstration, Mr. Potter?”
// @ witch-lady
Пані відьма доброзичливо всміхалася до них. Вигляд у неї був цілковито втішений.

-- Чи бажаєте додаткової демонстрації, містере Поттер?

// 133
//“You don’t have to,” Harry said. “We’ve performed a definitive experiment.
//But…” Harry hesitated. He couldn’t help himself. Actually, under the
//circumstances, he __shouldn’t__ be helping himself. It was right and
//proper to be curious. “What else __can__ you do?”

-- Ви не зобовʼязані, -- пролунало у відповідь. -- Ми провели вирішальний дослід.
-- Проте... -- Гаррі завагався. Він не міг себе стримати. Власне, зважаючи на
обставини, він і __не мав__ стримуватися. Цікавість тут була правильною й доречною.
-- Що ще ви __можете__ робити?

// 134
//Professor McGonagall turned into a cat.
Професорка Макґонеґел перетворилася на кицьку.

// 135
//Harry scrambled back unthinkingly, backpedalling so fast that he tripped over a
//stray stack of books and landed hard on his bottom with a __thwack.__ His
//hands came down to catch himself without quite reaching properly, and there was
//a warning twinge in his shoulder as the weight came down unbraced.
Гаррі бездумно відсахнувся, задкуючи настільки швидко, що перечепився через
безпритульний стос книжок і гучно гепнувся. Він випростав руки вниз у безуспішній
спробі за щось вхопитися й пригальмувати падіння, і відчув різкий біль у
плечі{stress}, коли маса його тіла сягнула підлоги так і не зустрівши жодної опори.

// 136
//At once the small tabby cat morphed back up into a robed woman. “I’m sorry, Mr.
//Potter,” said the witch, sounding sincere, though the corners of her lips were
//twitching upwards. “I should have warned you.”
Тієї ж миті маленька смугаста кицька трансформувалася назад у жінку в мантії.

-- Вибачте, містере Поттер, -- голос відьми здавався щирим, але кутики її губ легенько
посіпувалися догори. -- Мені варто було попередити вас.

// 137
//Harry was breathing in short gasps. His voice came out choked. __“You
//can’t DO that!”__
Гаррі уривчасто дихав. Його слова звучали здавлено.

-- __Ви НЕ МОЖЕТЕ РОБИТИ такого!__

// 138
//“It’s only a Transfiguration,” said Professor McGonagall. “An Animagus
//transformation, to be exact.”
-- Це лише трансфігурація, -- сказала професорка Макґонеґел. -- Перевтілення анімага,
якщо точніше.

// 139
//“You turned into a cat! A __SMALL__ cat! You violated Conservation of
//Energy! That’s not just an arbitrary rule, it’s implied by the form of the
//quantum Hamiltonian! Rejecting it destroys unitarity and then you get FTL
//signalling! And cats are __COMPLICATED!__ A human mind can’t just
//visualise a whole cat’s anatomy and, and all the cat biochemistry, and what
//about the __neurology?__ How can you go on __thinking__ using a
//cat-sized brain?”

-- Ви перетворилися на кицьку! __МАЛЕНЬКУ__ кицьку! Ви порушили закон
збереження енергії! А це не просто якесь там умовне правило, воно виводиться із
// @ unitarity -> унітарність.
// Що таке unitarity: https://en.wikipedia.org/wiki/Unitarity_(physics)
// @ FTL signalling -> надсвітлові сигнали
квантового гамільтоніана! Нехтування ним призводить до порушення унітарності, після
чого ми отримаємо поширення сигналів з надсвітловою швидкістю! І коти __СКЛАДНІ!__ Наш розум
просто не в змозі осягнути всю їхню анатомію і, і всю біохімію, а як щодо __неврології?__
Як ви залишилися спроможною __думати__, використовуючи мозок такого розміру?

// 140
//Professor McGonagall’s lips were twitching harder now. “Magic.”
Губи професорки смикалися дедалі помітніше.

-- Магія.

// 141
//“Magic __isn’t enough__ to do that! You’d have to be a god!”
-- Магії __недостатньо__, щоб це зробити! Треба бути богом!

// 142
//Professor McGonagall blinked. “That’s the first time I’ve ever been called
//__that.__”
Професорка Макґонеґел кліпнула.

-- __Так__ мене називають вперше.

// 143
//A blur was coming over Harry’s vision, as his brain started to comprehend what
//had just broken. The whole idea of a unified universe with mathematically
//regular laws, that was what had been flushed down the toilet; the whole notion
//of __physics__. Three thousand years of resolving big complicated things
//into smaller pieces, discovering that the music of the planets was the same
//tune as a falling apple, finding that the true laws were perfectly universal
//and had no exceptions anywhere and took the form of simple maths governing the
//smallest parts, __not to mention __that the mind was the brain and the
//brain was made of neurons, a brain was what a person __was__ -
У Гаррі потемніло в очах, коли його мозок почав усвідомлювати, що саме щойно розбилося
на друзки. Саму ідею уніфікованого всесвіту, в якому діють математично правильні
закони, саме поняття __фізики__ -- усе це просто спустили в унітаз. Три тисячоріччя
членування великих і складних явищ на менші частини, відкриття, що музика планет і
кинутого яблука має однаковий мотив, що істинні закони прекрасні, тому що вони
універсальні, не мають жодних винятків, можуть бути виражені у формі простої
математики та керують найдрібнішими частинками. __Не кажучи__ вже про те, що розум --
це мозок, і що мозок складається з нейронів, і що мозок і __є__ особистістю...

// 144
//And then a woman turned into a cat, so much for all that.
Аж якось жінка перетворюється на кицьку -- та й по всьому.

// 145
//A hundred questions fought for priority over Harry’s lips and the winner poured
//out: “And, and what kind of incantation is __Wingardium Leviosa?__ Who
//invents the words to these spells, nursery schoolers?”
Сотня питань боролися за право першими злетіти з Гарріних губ, з яких переможцем
вирвалося:

-- А що це за заклинання таке -- __Вінґардіум Левіоза__? Хто видумує слова для заклять,
дошкільнята?

// 146
//“That will do, Mr. Potter,” Professor McGonagall said crisply, though her eyes
//shone with suppressed amusement. “If you wish to learn about magic, I suggest
//that we finalise the paperwork so that you can go to Hogwarts.”
-- Годі, містере Поттер, -- твердо промовила професорка Макґонеґел, хай її очі й
виблискували прихованою втіхою. -- Якщо ви бажаєте вивчати магію, я пропоную
завершити паперову роботу, щоб ви змогли піти до Гоґвортсу.

// 147
//“Right,” Harry said, somewhat dazed. He pulled his thoughts together. The March
//of Reason would just have to start over, that was all; they still had the
//experimental method and that was the important thing. “How do I get to
//Hogwarts, then?”
// @ The March of Reason - я знайшов лише якийсь документальний фільм,
// гадаю, малося на увазі щось серйозніше. Переклав як Шлях Розуму
-- Маєте рацію, -- дещо відсторонено сказав Гаррі. Він зібрався з думками. Поступ
Розуму доведеться просто почати спочатку, ось і все; експериментальний метод поки що
ніхто не скасував, і це те, що справді важило. -- Отже, як потрапити до Гоґвортсу?

// 148
//A choked laugh escaped Professor McGonagall, as if extracted from her by
//tweezers.
Професорка Макґонеґел видала здавлений смішок -- так, наче його щипцями видерли.

// 149
//“Hold on a moment, Harry,” his father said. “Remember why you haven’t been
//going to school up until now? What about your condition?”
-- Стривай, Гаррі, -- сказав батько. -- Памʼятаєш, чому ти досі не відвідував школу?
Як бути із твоєю особливістю?

// 150
//Professor McGonagall spun to face Michael. “His condition? What’s this?”
Професорка Макґонеґел різко повернулася до Майкла.

-- Особливістю? Ви про що?

// 151
//“I don’t sleep right,” Harry said. He waved his hands helplessly. “My sleep
//cycle is twenty-six hours long, I always go to sleep two hours later, every
//day. I can’t fall asleep any earlier than that, and then the next day I go to
//sleep two hours later than __that.__ 10PM, 12AM, 2AM, 4AM, until it goes
//around the clock. Even if I try to wake up early, it makes no difference and
//I’m a wreck that whole day. That’s why I haven’t been going to a normal school
//up until now.”
-- У мене проблеми зі сном, -- відповів Гаррі, безпомічно змахнувши руками. -- Мій
цикл сну триває двадцять шість годин, щодня я засинаю на дві години пізніше, ніж
напередодні. Раніше ніяк не вдається, а наступного дня доводиться йти спати __ще
пізніше__. Десята вечора, північ, друга ранку, четверта ранку -- і так далі, доки не
завершиться цикл. Намагання прокинутися раніше нічого не змінюють -- лише
почуваюся розбитим весь день. Ось чому я досі не ходив до звичайної школи.

// 152
//“One of the reasons,” said his mother. Harry shot her a glare.
-- Це одна із причин, -- уточнила мати. Гаррі просвердлив її поглядом.

// 153
//McGonagall gave a long __hmmmmm.__ “I can’t recall hearing about such a
//condition before…” she said slowly. “I’ll check with Madam Pomfrey to see if
//she knows any remedies.” Then her face brightened. “No, I’m sure this won’t be
//a problem - I’ll find a solution in time. Now,” and her gaze sharpened again,
//“what are these __other__ reasons?”
Макґонеґел зронила довге __гмммм__.

-- Не пригадую, щоб я чула про таке раніше... -- промовила вона повільно. -- Я
пораджуся з мадам Помфрі, можливо, їй відомі якісь ліки, -- на цих словах її обличчя
проясніло. -- Ні, я впевнена, що це не становитиме жодних проблем, з часом я знайду
рішення. Так, -- вона знову посуворішала, -- а що це за __інші__ причини?

// 154
//Harry sent his parents a glare. “I am a conscientious objector to child
//conscription, on grounds that I should not have to suffer for a disintegrating
//school system’s failure to provide teachers or study materials of even
//minimally adequate quality.”
Гаррі люто глянув на батьків.
// @ child conscription --> мобілізації дітей (як в армію)

-- Я послідовний противник обов’язкового відвідування школи на підставах того, що
я не маю страждати через неспроможність занепалої освітньої системи надати вчителів
чи навчальних матеріалів навіть мінімально відповідної якості.

// 155
//Both of Harry’s parents howled with laughter at that, like they thought it was
//all a big joke. “Oh,” said Harry’s father, eyes bright, “is __that__ why
//you bit a maths teacher in third year.”
Обидвоє Гарріних батьків зайшлися реготом, ніби гадали, що почули дуже дотепний жарт.

-- О, -- сказав батько, очі його блищали, -- так __ось чому__ ти
вкусив вчительку математики в третьому класі.

// 156
//“__She didn’t know what a logarithm was!__”
-- __Вона не знала, що таке логарифм!__

// 157
//“Of course,” seconded Harry’s mother. “Biting her was a very mature response to
//that.”
-- Авжеж, -- підхопила мати, -- і вкусивши її ти відреагував дуже зріло.

// 158
//Harry’s father nodded. “A well-considered policy for addressing the problem of
//teachers who don’t understand logarithms.”
Батько кивнув.

-- Добряче продумана політика розвʼязання проблеми необізнаності вчителів із
логарифмами.

// 159
//“I was __seven years old!__ How long are you going to keep on bringing
//that up?”
-- Мені було __сім років!__ Скільки ви ще збираєтеся про це згадувати?

// 160
//“I know,” said his mother sympathetically, “you bite __one __maths teacher
//and they never let you forget it, do they?”
-- Розумію... -- співчутливо відгукнулася мати. -- Ти кусаєш __одну__ вчительку
математики, і тобі ніколи не дають про це забути, чи не так?

// 161
//Harry turned to Professor McGonagall. “There! You see what I have to deal
//with?”
Гаррі обернувся до професорки Макґонеґел.

-- Ось! Бачите, з чим мені доводиться жити?

// 162
//“Excuse me,” said Petunia, and fled through the backdoor into the garden, from
//which her screams of laughter were clearly audible.
-- Вибачте, -- сказала Петунія й втекла крізь задні двері до подвір'я, з якого
цілком виразно долинав її гучний регіт.

// 163
//“There, ah, there,” Professor McGonagall seemed to be having trouble speaking
//for some reason, “there is to be no biting of teachers at Hogwarts, is that
//quite clear, Mr. Potter?”
-- Так, ем... так, -- здавалося, що в професорки Макґонеґел з якихось причин з'явилися
проблеми з озвучуванням своїх думок, -- у Гоґвортсі вчителів кусати не можна, чи це
достатньо зрозуміло, містере Поттер?

// 164
//Harry scowled at her. “Fine, I won’t bite anyone who doesn’t bite me first.”
Гаррі насупився.

-- Гаразд, я не кусатиму нікого, хто не кусатиметься першим.

// 165
//Professor Michael Verres-Evans also had to leave the room briefly upon hearing
//that.
Почувши це, професор Майкл Веррес-Еванс був змушений теж залишити кімнату.

// 166
//“Well,” Professor McGonagall sighed, after Harry’s parents had composed
//themselves and returned. “Well. I think, under the circumstances, that I should
//avoid taking you to purchase your study materials until a day or two before
//school begins.”
-- Добре, -- зітхнула професорка Макґонеґел після того, як батьки Гаррі опанували
себе й повернулися. -- Добре. Гадаю, за цих обставин я просто зобовʼязана
втримати вас від придбання навчальних матеріалів раніше, ніж за день-два
до початку навчального року.

// 167
//“What? Why? The other children already know magic, don’t they? I have to start
//catching up right away!”
-- Що? Чому? Інші діти вже знають магію, чи не так? Я маю почати наздоганяти
негайно!

// 168
//“Rest assured, Mr. Potter,” replied Professor McGonagall, “Hogwarts is quite
//capable of teaching the basics. And I suspect, Mr. Potter, that if I leave you
//alone for two months with your schoolbooks, even without a wand, I will return
//to this house only to find a crater billowing purple smoke, a depopulated city
//surrounding it and a plague of flaming zebras terrorising what remains of
//England.”
-- Не хвилюйтеся, містере Поттер, -- відповіла професорка Макґонеґел, -- Гоґвортс
цілком спроможний навчати азів. І я підозрюю, містере Поттер, що якщо залишити вас на
два місяці наодинці зі шкільними підручниками, навіть без палички, то повернувшись я
знайду на місці цього будинку лише кратер, над яким здійматиметься хмара бузкового диму,
знелюдніле місто навколо й нашестя вогняних зебр, що тероризуватимуть залишки Англії.

// 169
//Harry’s mother and father nodded in perfect unison.
Мама й тато кивнули в бездоганній гармонії.

// 170
//“__Mum! Dad!__”
-- __Мамо! Тату!__
