// 5664
//== Reductionism
== Розділ 28. Редукціонізм

// 5665
//Whatever can go Rowling will go Rowling.
Якщо яка-небудь Ролінґ може трапитися, вона таки трапиться.

// 5666
//This should __again__ go __without saying,__ but views expressed by
//Severus Snape are not necessarily those of the author.
Це, __повторюю__, має бути __і так зрозуміло__, проте погляди, які висловлює
Северус Снейп, не обовʼязково збігаються з поглядами автора.

***

// 5667
//“Okay,” Harry said, swallowing. “Okay, Hermione, it’s enough, you can stop.”
-- Гаразд, -- сказав Гаррі, ковтнувши слину. -- Гаразд, Герміоно, годі,
можеш зупинитися.

// 5668
//The white sugar pill in front of Hermione still hadn’t changed shape or color
//at all, even though she was concentrating harder than Harry had ever seen, her
//eyes squeezed shut, beads of sweat on her forehead, hand trembling as it
//gripped the wand -
Біла таблетка цукру перед Герміоною досі зовсім не змінила ані форми, ані
кольору, хоча Гаррі ще ніколи не бачив, щоб Герміона так сильно концентрувалася: її
очі сильно заплющені, на лобі виступили краплини поту, рука тремтіла й стискала
паличку...

// 5669
//“Hermione, __stop!__ It’s not going to work, Hermione, I don’t think we
//can make things that don’t exist yet!”
-- Герміоно, __зупинися__! Це не спрацює, Герміоно, я гадаю, ми не можемо
створювати речі, що їх ще не існує!

// 5670
//Slowly, Hermione’s hand relaxed its grasp on the wand.
Герміона повільно розслабила хватку на паличці.

// 5671
//“I thought I felt it,” she said in a bare whisper. “I thought I felt it start
//to Transfigure, just for a second.”
-- Я гадала, що відчула це, -- сказала вона ледь чутним шепотом. -- Я гадала,
що відчула, як воно починає трансфігуруватися. Лише на мить.

// 5672
//There was a lump in Harry’s throat. “You were probably imagining it. Hoping too
//hard.”
У Гаррі застряг клубок у горлі.

-- Ти, напевно, лише уявила це. Надто сподівалася.

// 5673
//“I probably was,” she said. She looked like she wanted to cry.
-- Напевно, так, -- сказала вона. Здавалося, вона от-от розплачеться.

// 5674
//Slowly, Harry took his mechanical pencil in his hand, and reached over to the
//sheet of paper with all the items crossed out, and drew a line through the item
//that said ‘ALZHEIMER’S CURE’.
Гаррі повільно взяв механічний олівець, дотягнувся до аркуша з викресленими
пунктами та перекреслив рядок "`ЛІКИ ВІД ХВОРОБИ АЛЬЦГЕЙМЕРА`".

// 5675
//They couldn’t have fed anyone a Transfigured pill. But Transfiguration, at
//least the kind they could do, didn’t enchant the targets - it wouldn’t
//Transfigure a regular broomstick into a flying one. So if Hermione had been
//able to make a pill at all, it would have been a __nonmagical__ pill, one
//that worked for ordinary material reasons. They could have secretly made pills
//for a Muggle science lab, let them __study__ the pills and try to
//reverse-engineer them before the Transfiguration wore off… no one in either
//world would need to know that magic had been involved, it would just be another
//scientific breakthrough…
Ніхто не міг би прийняти трансфігуровану таблетку. Проте трансфігурація,
принаймні та, якою вони володіли, не робила цільові обʼєкти магічними -- вона
не могла перетворити звичайні мітли на летючі. Отже якби Герміона змогла
створити пігулку, то вона була б __немагічною__ -- такою, що працювала б
звичайним матеріальним чином. Вони могли б таємно виробляти такі таблетки для
маґлівської наукової лабораторії, дозволити їм __вивчати__ таблетки й
спробувати зворотно розробити їх перед тим, як трансфігурація мине...
Нікому в обох світах не треба було б знати, що це якось повʼязано з магією, --
це був би просто черговий науковий прорив...

// 5676
//It hadn’t been the sort of thing a wizard would think of, either. They didn’t
//respect mere __patterns of atoms__ that much, they didn’t think of
//unenchanted __material__ things as objects of power. If it wasn’t magical,
//it wasn’t interesting.
І таке не спало б на думку чарівникові. Вони не поважали прості __конфігурації
атомів__ достатньо, вони вважали, що незачакловані __матеріальні__ речі не були
речами сили. Якщо воно не було магічним, то воно не було цікавим.

// 5677
//Earlier, Harry had __very__ secretly - he hadn’t even told Hermione -
//tried to Transfigure nanotechnology a la Eric Drexler. (He’d tried to produce a
//desktop nanofactory, of course, not tiny self-replicating assemblers, Harry
//wasn’t insane.) It would have been godhood in a single shot if it’d worked.
Гаррі вже __надзвичайно__ таємно -- він не сказав навіть Герміоні -- спробував
був трансфігурувати нанотехнологію а ля Ерік Дрекслер. (Він спробував виробити
настільний нанозавод, а не, звісно, крихітні самовідтворювані молекулярні асемблери --
Гаррі не був божевільним.) Це б стало всемогутністю в один крок, якби
спрацювало.

// 5678
//“That was it for today, right?” said Hermione. She was slumped back in her
//chair, leaning her head against the back; and her face showed her tiredness,
//which was very unusual for Hermione. She liked to pretend she was limitless, at
//least when Harry was around.
-- Це все на сьогодні, так? -- запитала Герміона.

Вона важко опустилася в крісло, закинула голову на спинку. На її обличчі було
видно втому, що було вкрай незвично для Герміони. Їй подобалося вдавати, що
її енергія безмежна, принаймні коли Гаррі був поряд.

// 5679
//“One more,” Harry said cautiously, “but that one’s small, plus it might
//actually work. I saved it for last because I was hoping we could end on an up
//note. It’s real stuff, not like phasers. They’ve already made it in the
//laboratory, not like the Alzheimer’s cure. And it’s a generic substance, not
//specific like the lost books you tried to Transfigure copies of. I made a
//diagram of the molecular structure to show you. We just want to make it
//__longer__ than it’s ever been made before, and with all the tubes
//aligned, and the endpoints embedded in diamond.” Harry produced a sheet of
//graph paper.
-- Ще один дослід, -- обережно сказав Гаррі, -- але невеличкий, і крім того,
це може справді спрацювати. Я залишив наостанок, бо сподівався завершити
чимось оптимістичним. На відміну від фазерів, це справжня штука. На відміну
від ліків від Альцгеймера, це вже створили в лабораторії. І це просто
речовина, на відміну від загублених книжок, що їхні копії ти намагалася
трансфігурувати. Я підготував для тебе схему молекулярної структури. Ми просто
хочемо зробити її __довшою__, ніж досі було вироблено, усі трубки мають бути
паралельними, а кінцеві точки треба вбудувати в діамант.

Гаррі дістав аркуш міліметрового паперу.

// 5680
//Hermione sat back up, took it, and studied it, frowning. “These are
//__all__ carbon atoms? And Harry, what’s the name? I can’t Transfigure it
//if I don’t know what it’s called.”
Герміона сперлася на спинку, взяла його й почала насуплено вивчати.

-- Це __все__ атоми вуглецю? І Гаррі, як воно називається? Я не можу
трансфігурувати його, якщо не знаю, як воно називається.

// 5681
//Harry made a disgusted face. He was still having trouble getting used to that
//sort of thing, it shouldn’t matter what something was __named__ if you
//knew what it __was.__ “They’re called buckytubes, or carbon nanotubes.
//It’s a kind of fullerene that was discovered just this year. It’s about a
//hundred times stronger than steel and a sixth of the weight.”
Гаррі скривився. Йому досі було важко звикнути до таких речей -- має бути
байдуже, як щось __називається__, якщо ти знаєш, чим воно __є__.

-- Це називається нанотрубки вуглецю, чи волокнистий вуглець. Це різновид
фулеренів, що його відкрили лише цього року. Він приблизно в сто разів міцніший
за сталь та важить вшестеро менше.

// 5682
//Hermione looked up from the graph paper, her face surprised. “That’s
//__real?__”
Герміона підвела здивований погляд з міліметрівки.

-- Воно __справжнє__?

// 5683
//“Yeah,” Harry said, “just hard to make the Muggle way. If we could get enough
//of the stuff, we could use it to build a space elevator all the way up to
//geosynchronous orbit or higher, and in terms of delta-v that’s halfway to
//anywhere in the Solar System. Plus we could throw out solar power satellites
//like confetti.”
-- Так, просто його складно виготовляти в маґлівський спосіб. Якби ми могли
отримати достатньо цієї штуки, то могли б використати її для того, щоб
збудувати космічний ліфт аж до геосинхронної орбіти чи вище, а в плані дельта-v
це вже пів шляху до будь-якого місця в сонячній системі. На додачу ми могли б
кидати супутники з сонячними електростанціями, мов конфетті.

// 5684
//Hermione was frowning again. “Is this stuff __safe?__”
Герміона знову насупилася.

-- А воно __безпечне__?

// 5685
//“I don’t see why it wouldn’t be,” Harry said. “A buckytube is just a graphite
//sheet wrapped into a circular tube, basically, and graphite is the same stuff
//used in pencils -”
-- Не можу уявити, чому ні. Нанотрубки вуглецю -- це просто графітовий аркуш,
що його скрутили в циліндричну трубку. Загалом, графіт -- це та ж речовина, що
використовується в олівцях...

// 5686
//“I __know__ what graphite is, Harry,” Hermione said. She brushed her hair
//back absentmindedly, her eyebrows furrowed as she stared at the sheet of paper.
-- Я __знаю__, що таке графіт, Гаррі, -- сказала Герміона.

Вона несвідомо відкинула волосся, наморщила лоба й втупилася в аркуш паперу.

// 5687
//Harry reached into a pocket of his robes, and produced a white thread tied to
//two small gray plastic rings at either end. He’d added drops of superglue where
//the thread met either ring, to make it all a single object that could be
//Transfigured as a whole. Cyanoacrylate, if Harry remembered correctly, worked
//by covalent bonds, and that was as close to being a “solid object” as you ever
//got in a world ultimately composed of tiny individual atoms. “When you’re
//ready,” Harry said, “try to Transfigure this into a set of aligned buckytube
//fibers embedded in two solid diamond rings.”
// hedrok: @ cyanoacrylate
Гаррі дістав з кишені мантії білу нитку, що була привʼязана до двох невеличких
сірих пластикових кілець з обох боків. Він додав був краплі суперклею на місцях
зʼєднання нитки з кожним кільцем, щоб зробити це все єдиним обʼєктом, щоб його
можна було трансфігурувати разом. Ціаноакрилат, якщо Гаррі не помилявся,
працював на основі ковалентних звʼязків, а це було найближче до поняття
"`суцільного тіла`", що тільки можна отримати у світі, що, зрештою, складався з
крихітних окремих атомів.

-- Коли будеш готова, -- сказав Гаррі, -- спробуй трансфігурувати це на низку
паралельних нанотрубок, що вбудовані в два діамантових кільця.

// 5688
//“All right…” Hermione said slowly. “Harry, I feel like I just missed
//something.”
-- Гаразд... -- повільно сказала Герміона. -- Гаррі, мені здається, що я щойно
щось пропустила.

// 5689
//Harry shrugged helplessly. __Maybe you’re just tired.__ He knew better
//than to say it out loud, though.
Гаррі безпорадно знизав плечима. __Мабуть, ти просто втомилася.__ Втім,
він не збирався казати цього вголос.

// 5690
//Hermione laid her wand against one plastic ring, and stared for a while.
Герміона доторкнулася паличкою до одного з пластикових кілець і деякий
час на нього дивилася.

// 5691
//Two small circles of glittering diamond lay on the table, connected by a long
//black thread.
Два невеличких кільця з блискучого діаманту лежали на столі, вони були зʼєднані
довгою чорною ниткою.

// 5692
//“It changed,” said Hermione. She sounded like she was trying to be enthusiastic
//but had run out of energy. “Now what?”
-- Воно змінилося, -- сказала Герміона. Видавалося, вона намагалася сказати це
з ентузіазмом, проте в неї вже не було на це сил. -- Що тепер?

// 5693
//Harry felt a bit deflated by his research partner’s lack of passion, but did
//his best not to show it; maybe the same process would work in reverse to cheer
//her up. “Now I test it to see if it holds weight.”
Відсутність запалу партнерки-дослідниці трохи знеохотила Гаррі, проте він
зробив усе можливе, щоб не виказати цього. Можливо, цей процес спрацює у
зворотному напрямку та підбадьорить її.

-- Тепер ми перевіримо, яку вагу воно витримає.

// 5694
//There was an A-frame Harry had rigged up to do an earlier experiment with
//diamond rods - you could make solid diamond objects easily, using
//Transfiguration, they just wouldn’t last. The earlier experiment had measured
//whether Transfiguring a long diamond rod into a shorter diamond rod would allow
//it to lift a suspended heavy weight as it contracted, i.e., could you
//Transfigure against tension, which you in fact could.
Поряд були ко{stress}зли, що їх змайстрував Гаррі для одного з попередніх
дослідів з діамантовими стержнями -- створювати обʼєкти з суцільного діаманту за
допомогою трансфігурації було легко, проте лише ненадовго. Той дослід
перевіряв, чи трансфігурація довшого діамантового стержня на коротший
діамантовий стержень дозволить підняти підвісний вантаж, коли стискатиметься,
тобто чи можна трансфігурувати проти тиску -- як виявилося, можна.

// 5695
//Harry carefully looped one circle of glittering diamond over the thick metal
//hook at the top of the rig, then attached a thick metal hanger to the bottom
//ring, and then started attaching weights to the hanger.
Гаррі обережно надягнув одне кільце блискучого діаманту на великий металевий гак
на верхівці конструкції, потім прикріпив масивну металеву підвіску до нижнього
кільця, а потім почав прикріпляти вантажі до підвіски.

// 5696
//(Harry had asked the Weasley twins to Transfigure the apparatus for him, and
//the Weasley twins had given him an incredulous look, like they couldn’t figure
//out what sort of prank he could __possibly__ want that for, but they
//hadn’t asked any questions. And their Transfigurations, according to them,
//lasted for around three hours, so Harry and Hermione still had a while left.)
(Гаррі попросив близнюків Візлі трансфігурувати для нього цей апарат, близнюки
Візлі недовірливо поглянули на нього -- ніби не могли збагнути, для якої витівки
це може __навіть теоретично__ знадобитися, проте без жодних питань виконали його
прохання. Згідно їхніх слів, трансфігурація має витримати три години, отже в Гаррі
з Герміоною ще залишилося достатньо часу.)

// 5697
//“One hundred kilograms,” Harry said about a minute later. “I don’t think a
//steel thread this thin would hold that. It should go up much higher, but that’s
//all the weight I’ve got.”
-- Сотня кілограмів, -- приблизно за хвилину сказав Гаррі. -- Гадаю, настільки тонка
сталева нитка не змогла б стільки витримати. Ми могли б покласти значно більше,
проте це вся вага, яку я підготував.

// 5698
//There was a further silence.
І знову тиша.

// 5699
//Harry straightened up, and went back to their table, and sat down in his chair,
//and ceremoniously made a check mark next to ‘Buckytubes’. “There,” Harry said.
//“__That__ one worked.”
Гаррі випростався, підійшов до стола, сів на стілець, і урочисто поставив галочку
навпроти "`Нанотрубки`".

-- Ось, -- сказав Гаррі. -- __Це__ спрацювало.

// 5700
//“But it’s not really __useful__, Harry, is it?” Hermione said from where
//she was sitting with her head resting in her hands. “I mean, even if we gave it
//to a scientist they couldn’t learn how to make lots of buckytubes from studying
//ours.”
-- Але ж від них насправді __немає користі__, Гаррі, чи не так? -- сказала
Герміона, не піднявши голови зі своїх рук. -- Тобто, навіть якщо дати це
науковцям, вони не зможуть дізнатися, як створити купу нанотрубок, дослідивши
наш витвір.

// 5701
//“They might be able to learn __something,__” Harry said. “Hermione,
//__look__ at it, that little tiny thread holding up all that weight, we
//just made something that no Muggle laboratory could make -”
-- Вони можуть дізнатися __щось__. Герміоно, __поглянь__ на це -- ця крихітна
ниточка тримає всю цю вагу. Ми щойно створили дещо, що не може створити жодна
маґлівська лабораторія...

// 5702
//“But any other witch could make it,” Hermione said. Her exhaustion was coming
//into her voice, now. “Harry, I don’t think this is working out.”
-- Але може будь-яка інша відьма, -- сказала Герміона. Її виснаження
відчувалося в голосі. -- Гаррі, мені здається, що в нас нічого не вийде.

// 5703
//“You mean our relationship?” Harry said. “Great! Let’s break up.”
-- Ти про наші стосунки? Чудово! Розійдімося.

// 5704
//That got a slight grin out of her. “I mean our research.”
Це вичавило з неї легку усмішку.

-- Я про наші дослідження.

// 5705
//“Oh, Hermione, how __could__ you?”
-- Ох, Герміоно, __як ти могла__?

// 5706
//“You’re sweet when you’re mean,” she said. “But Harry, this is nuts, I’m
//twelve, you’re eleven, it’s __silly__ to think we’re going to discover
//anything that no one’s ever figured out before.”
-- Ти милий, коли злишся. Але Гаррі, це божевілля: мені дванадцять, тобі
одинадцять, __нерозумно__ очікувати, що ми зробимо якесь відкриття, на яке ніхто
до нас ще не натрапляв.

// 5707
//“Are you really saying we should give up on unraveling the secrets of magic
//after trying for less than one__ month?__” Harry said, trying to put a
//note of challenge into his voice. Honestly he was feeling some of the same
//fatigue as Hermione. None of the __good__ ideas ever worked. He’d made
//just one discovery worth mentioning, the Mendelian pattern, and he couldn’t
//tell Hermione about it without breaking his promise to Draco.
-- Ти справді хочеш сказати, що нам варто кинути розгадувати таємниці магії
після __менш ніж місяця__ спроб? -- Гаррі намагався вкласти в це питання
виклик.

Якщо чесно, він сам частково відчував таку ж втому, як Герміона. Жодна з __гарних__
ідей ніколи не спрацьовувала. Він зробив лише одне варте згадки відкриття --
схему Менделя -- проте він не міг про це розповісти Герміоні, не порушивши свою
обіцянку Драко.

// 5708
//“No,” Hermione said. Her young face was looking very serious and adult. “I’m
//saying right now we should be __studying__ all the magic that wizards
//already know, so we can do this sort of thing after we graduate from Hogwarts.”
-- Ні, -- сказала Герміона. Вона здавалася дуже серйозною та дорослою. -- Я
хочу сказати, що зараз нам краще __вивчати__ усю магію, яку чарівники вже знають,
щоб ми могли робити такі дослідження після випуску з Гоґвортсу.

// 5709
//“Um…” Harry said. “Hermione, I hate to put it this way, but imagine we’d
//decided to hold off on research until later, and the first thing we tried after
//we graduated was Transfiguring an Alzheimer’s cure, and it __worked.__
//We’d feel… I don’t think the word __stupid__ would adequately describe how
//we’d feel. What if there’s something else like that and it does work?”
-- Ем... Герміоно, мені жах як не хочеться таке казати, проте уяви, що ми
вирішили б відкласти дослідження на потім, і першим же нашим результатом після
випуску стала б __успішна__ трансфігурація ліків від хвороби Альцгеймера. Ми б
почувалися... не думаю, що слово __дурними__ адекватно описало б наші відчуття.

// 5710
//“That’s not __fair,__ Harry!” Hermione said. Her voice was trembling like
//she was on the verge of breaking out crying. “You can’t __put__ that on
//people! It’s not our __job__ to do that sort of thing, we’re
//__kids!__”
-- Це __нечесно__, Гаррі! -- голос Герміони тремтів, ніби вона от-от
розплачеться. -- Ти не можеш покладати таку відповідальність на когось! Не
наша __робота__ досліджувати такі речі, ми __діти__!

// 5711
//For a moment Harry wondered what would happen if someone told Hermione she had
//to fight an immortal Dark Lord, if she would turn into one of the whiny
//self-pitying heroes that Harry could never stand reading about in his books.
На мить Гаррі охопила цікавість, що сталося б, якби Герміоні сказали, що вона
має боротися з невмирущим Темним Лордом, -- чи перетворилася б вона на одного з
тих плаксивих героїв, що нескінченно себе жаліють, про яких Гаррі терпіти не міг читати
в книжках.

// 5712
//“Anyway,” Hermione said. Her voice shook. “I don’t want to keep doing this. I
//don’t believe children can do things that grownups can’t, that’s only in
//stories.”
-- Хай там як, -- голос Герміони тремтів, -- я не хочу більше цього робити.
Я не вірю, що діти можуть зробити щось, чого не можуть дорослі, -- таке трапляється
лише в казках.

// 5713
//There was silence in the classroom.
У кімнаті запанувала тиша.

// 5714
//Hermione started to look a little scared, and Harry knew that his own
//expression had gotten colder.
Герміона почала здаватися переляканою, а Гаррі знав, що він холодіє.

// 5715
//It might not have hurt so much if the same thought hadn’t already come to Harry
//- that, while thirty might be old for a scientific revolutionary and twenty
//about right, while there were people who got doctorates when they were
//seventeen and fourteen-year-old heirs who’d been great kings or generals, there
//wasn’t really anyone who’d made the history books at eleven.
Напевно, це не так ранило б, якби воно вже не спадало на думку Гаррі:
хоча тридцять може бути запізно для революційного наукового відкриття, а
двадцять -- саме час, хоча існували люди, що захищали докторську в сімнадцять,
а також чотирнадцятирічні спадкоємці, що стали великими королями чи генералами,
ніхто насправді не потрапляв у книжки з історії в одинадцять років.

// 5716
//“All right,” Harry said. “Figure out how to do something a grownup can’t. Is
//that your challenge?”
-- Гаразд, -- сказав Гаррі. -- Вигадати, як зробити щось, чого не можуть
дорослі. Це твій виклик?

// 5717
//“I didn’t mean it like that,” Hermione said, her voice coming out in a
//frightened whisper.
-- Я не це мала на увазі, -- налякано прошепотіла Герміона.

// 5718
//With an effort, Harry wrenched his gaze away from Hermione. “I’m not angry at
//__you__,” Harry said. His voice was cold, despite his best efforts. “I’m
//angry at, I don’t know, everything. But I’m not willing to lose, Hermione.
//Losing isn’t always the right thing to do. I’ll figure out how to do something
//a grown wizard can’t do, and then I’ll get back to you. How’s that?”
Гаррі із зусиллям відірвав погляд від Герміони.

-- Я не злюся на __тебе__, -- сказав Гаррі холодним голосом, незважаючи на всі
свої зусилля. -- Я злюся... не знаю -- на все. Але я не хочу програвати,
Герміоно. Програвати -- це не завжди правильно. Я вигадаю, як зробити щось,
чого не може зробити дорослий чарівник, і тоді я до тебе повернуся. Як тобі?

// 5719
//There was more silence.
І знову тиша.

// 5720
//“Okay,” said Hermione, her voice wavering a little. She pushed herself up out
//of her chair, and went over to the door of the abandoned classroom they’d been
//working in. Her hand went onto the doorknob. “We’re still friends, right? And
//if you can’t figure out anything -”
-- Гаразд, -- сказала Герміона. Її голос трохи тремтів. Вона виштовхнула себе з
крісла та підійшла до дверей класної кімнати, що в ній вони працювали. Її рука
потягнулася до дверної ручки. -- Ми ж досі друзі, чи не так? І якщо ти не
зможеш нічого вигадати...

// 5721
//Her voice halted.
Вона затнулася.

// 5722
//“Then we’ll study together,” Harry said. His voice was even colder now.
-- Тоді ми навчатимемося разом, -- сказав Гаррі навіть холоднішим голосом.

// 5723
//“Um, bye for now, then,” Hermione said, and she quickly went out of the room
//and shut the door behind her.
-- Ем, ну тоді наразі бувай, -- сказала Герміона, швидко вийшла з кімнати та
зачинила за собою двері.

// 5724
//Sometimes Harry hated having a dark side, even when he was inside it.
Подеколи Гаррі ненавидів свою темну сторону, навіть коли був у ній.

// 5725
//And the part of him that had thought exactly the same thing as Hermione, that
//no, children __couldn’t__ do what grownups couldn’t, was saying all the
//things that Hermione had been too frightened to say, like, __That’s one
//hell of a difficult challenge you just grabbed for yourself__ and __boy
//are you going to end up with egg on your face this time__ and __at least
//this way you’ll know you’ve failed.__
Та з його частин, що думала саме про те, що й Герміона, -- мов ні, діти __не здатні__
зробити щось, чого не можуть дорослі, -- казала усі речі, які Герміона побоялася
сказати. Речі на кшталт __Оце так непростий виклик ти щойно собі вигадав__, і __ну й
посміховисько ти з себе зробиш цього разу__ і __принаймні таким чином ти
знатимеш, що зазнав поразки__.

// 5726
//And the part of him that didn’t enjoy losing replied, in a very cold voice,
//__Fine, you can shut up and watch.__
А та його частина, що вкрай не полюбляла програвати, відповіла крижаним голосом:
__Гаразд, можеш замовкнути й дивитися.__

***

// 5727
//It was almost lunchtime, and Harry didn’t care. He hadn’t even bothered
//grabbing a snack bar from his pouch. His stomach could stand a little starving.
Був уже майже час обідати, але Гаррі було начхати. Він навіть не дістав батончик
з капшучка. Його шлунок міг витримати невеличкий голод.

// 5728
//The wizarding world was tiny, they didn’t think like scientists, they didn’t
//know science, they didn’t question what they’d grown up with, they hadn’t put
//protective shells on their time machines, they played Quidditch, all of magical
//Britain was smaller than a small Muggle city, the greatest wizarding school
//only educated up to the age of seventeen, __silly__ wasn’t challenging
//that at eleven, __silly__ was __assuming__ wizards knew what they
//were doing and had already exhausted all the low-hanging fruit a scientific
//polymath would see.
Чаклунський світ був крихітним, вони не думали, як науковці, вони не знали
науки, вони не сумнівалися в поглядах, з якими виросли, вони не накладали
захисних заклять на свої машини часу, вони грали в квідич, уся чаклунська
Британія була меншою за невеличке маґлівське місто, у найліпшій чаклунській
школі освіта завершувалася в сімнадцять років, __нерозумно__ було не кинути
виклик в одинадцять, __нерозумним__ було __вважати__, ніби чаклуни знали, що
вони роблять, та вже зірвали всі легкодоступні плоди досліджень, що їх легко
побачить полімат.

// 5729
//Step One had been to make a list of every magical constraint Harry could
//remember, all the things you supposedly couldn’t do.
Крок перший: скласти список усіх магічних обмежень, які Гаррі може пригадати,
-- усього, що гадано неможливо зробити.

// 5730
//Step Two, mark the constraints that seemed to make the __least__ sense
//from a scientific perspective.
Крок другий: позначити обмеження, що мали __найменше__ сенсу з точки зору
науки.

// 5731
//Step Three, prioritize constraints that a wizard would be unlikely to question
//if they __didn’t__ know science.
Крок третій: впорядкувати обмеження за тим, наскільки малоймовірно, щоб чаклун
сумнівався в них, якщо він __не знає__ науки.

// 5732
//Step Four, come up with avenues for attacking them.
Крок четвертий: вигадати методи здолати їх.

***

// 5733
//Hermione still felt a little shaky as she sat down next to Mandy at the
//Ravenclaw table. Hermione’s lunch had two fruits (tomato slices and peeled
//tangerines), three vegetables (carrots, carrots, and more carrots), one meat
//(fried Diricawl drumsticks whose unhealthy coating she would carefully remove),
//and one little piece of chocolate cake that she would earn by eating the other
//parts.
Герміоні досі було трохи зле, коли вона сіла поряд з Менді за рейвенкловським
столом. Обід Герміони складався з двох фруктів (скибки помідорів та очищені
мандарини), трьох овочів (морква, морква та ще моркви), одного шматка мʼяса
(смажені ніжки діріколя, шкідливу шкірку вона обережно прибере) та одного
маленького шматочка шоколадного торта, що його вона заслужить, зʼївши решту
обіду.

// 5734
//It hadn’t been as bad as Potions class, sometimes she still had
//__nightmares__ about that. But this time __she__ had made it happen
//and __she’d felt like its target. __Just for a moment, before the terrible
//cold darkness looked away and said it wasn’t angry with her, because it hadn’t
//wanted to scare her.
Все було не аж так погано, як на занятті зіллєваріння, -- подеколи їй досі
снилися __кошмари__ про те заняття. Але цього разу __вона__ спричинила це і
__їй здавалося, що вона є ціллю__. Лише на мить, перед тим, як жахлива крижана
тьма відвела погляд та сказала, що злиться не на неї, адже не хотіла її лякати.

// 5735
//And she still had that feeling like she’d missed something earlier, something
//really important.
І в неї досі було відчуття, ніби вона щось пропустила була, щось справді
важливе.

// 5736
//But they hadn’t violated any of the rules of Transfiguration… had they? They
//hadn’t made any liquids, any gases, they hadn’t taken orders from the Defense
//Professor…
Але ж вони не порушили жодного правила трансфігурації... чи не так? Вони не
створювали рідини, газу, не приймали наказів від професора із захисту...

// 5737
//The __pill!__ That had been something to be eaten!
__Таблетка!__ Це було щось, що їдять!

// 5738
//…well, no, nobody would just eat a pill lying around, it hadn’t __worked__
//actually, they could have just __Finite Incantatemed __it if it had, but
//she would still have to tell Harry about that and make sure they didn’t mention
//it in front of Professor McGonagall, in case they were never allowed to study
//Transfiguration again…
...ну, ні, ніхто просто так не їсть таблетку, що просто лежить десь, та й
насправді __не вийшло__ її створити, вони могли просто __Фініте Інкантатем__
її, якби вийшло, проте їй все одно треба буде сказати Гаррі, щоб вони ніколи не
згадували це в присутності професорки Макґонеґел, -- раптом їм більше не
дозволять вивчати трансфігурацію...

// 5739
//Hermione was starting to get a really sick feeling in her stomach. She pushed
//back her plate from the table, she couldn’t eat lunch like this.
Герміоні ставало справді зле. Вона відштовхнула від себе тарілку -- вона не
могла їсти в такому стані.

// 5740
//And she closed her eyes and began to mentally recite the rules of
//Transfiguration.
Вона заплющила очі й почала подумки цитувати правила трансфігурації.

// 5741
//__“I will never Transfigure anything into liquid or gas.”__
// hedrok: копія з 015:2248
"`__Я ніколи не трансфігуруватиму нічого на рідину чи газ.__`"

// 5742
//__“I will never Transfigure anything that looks like food or anything
//else that goes inside a human body.”__
// hedrok: копія з 015:2249
"`__Я ніколи не трансфігуруватиму нічого на те, що виглядає як їжа чи будь-що інше,
що потрапляє всередину людського тіла.__`"

// 5743
//No, they really __shouldn’t__ have tried to Transfigure the pill, or they
//should’ve at least __realized…__ she’d been so caught up in Harry’s
//brilliant idea that she hadn’t __thought…__
Ні, їм справді __не варто було__ намагатися трансфігурувати таблетку, чи вони
принаймні мали __зрозуміти__. Її так захопила геніальна ідея Гаррі, що вона
просто не __подумала__...

// 5744
//The sick feeling in Hermione’s stomach was getting worse. There was a feeling
//in her mind of something hovering just on the edge of recognition, a perception
//about to invert itself, a young woman about to become a crone, a vase about to
//become two faces…
Герміоні ставало дедалі гірше. На межах її розуміння висіло якесь відчуття,
розуміння, що ось-ось мало стати зрозумілим, юна жінка, що ось-ось мала стати
старою каргою, ваза, що ось-ось мала стати двома обличчями...

// 5745
//And she went on remembering the rules of Transfiguration.
І вона пригадувала правила трансфігурації далі.

***

// 5746
//Harry’s knuckles had gone white on his wand by the time he stopped trying to
//Transfigure the air in front of his wand into a paperclip. It wouldn’t have
//been safe to Transfigure the paperclip into gas, of course, but Harry didn’t
//see any reason why it would be unsafe the other way around. It just wasn’t
//supposed to be __possible__. But why not? Air was as real a substance as
//anything else…
Рука Гаррі на паличці побіліла, коли він кинув намагатися трансфігурувати
повітря перед собою на скріпку. Трансфігурувати скріпку на газ, звісно, було
б небезпечно, проте Гаррі не міг уявити, чому б трансфігурація навпаки
була небезпечною. Вона просто мала бути __неможливою__. Але чому? Повітря було
не менш дійсною речовиною, ніж будь-що інше...

// 5747
//Well, maybe that limitation __did__ make sense. Air was disorganized, all
//the molecules constantly changing their relation to each other. Maybe you
//couldn’t impose a new form on substance unless the substance was staying still
//long enough for you to master it, even though the atoms in solids were also
//constantly vibrating all the time…
Ну, можливо це обмеження __мало__ сенс. Повітря було хаотичним, усі молекули
постійно змінювали позицію одна відносно іншої. Мабуть неможливо надати нової
форми речовині, якщо речовина не лишається незмінною достатньо часу, щоб
приборкати її, хоча атоми в твердих тілах також безперестанно коливалися...

// 5748
//The more Harry failed, the colder he felt, the clearer everything seemed to
//become.
Що довше в Гаррі не виходило, то холодніше він почувався, то яснішим усе
ставало.

// 5749
//All right. Next on the list.
Гаразд. Наступний пункт списку.

// 5750
//You could only Transfigure whole objects as wholes. You couldn’t Transfigure
//__half__ a match into a needle, you had to Transfigure the __whole
//thing.__ Back when Harry had been trapped in that classroom by Draco, it had
//been the reason he couldn’t just Transfigure a thin cylindrical cross-section
//of the walls into sponge, and punch out a chunk of stone large enough for him
//to fit through the hole. He would have needed to impose a new form on the whole
//wall, and maybe a whole section of Hogwarts, just in order to change that
//little cross-section.
Можливо трансфігурувати обʼєкти лише цілком. Не можна трансфігурувати
__половину__ сірника на голку, ти мав трансфігурувати __весь предмет__. Коли
Драко зачинив Гаррі в кімнаті, саме це було причиною того, що він не міг
трансфігурувати тонкий циліндричний розріз стіни на губку, виштовхнути
достатньо великий шматок каменю, щоб він міг пролізти в отвір. Натомість йому
треба було надати нової форми всій стіні, а може й цілій секції Гоґвортсу --
лише щоб змінити цей маленький розріз.

// 5751
//And that was __ridiculous__.
А це було __сміховинно__.

// 5752
//__Things were made of atoms.__ Lots of little tiny dots. There
//__was__ no contiguity, there __was__ no solidity, just
//electromagnetic forces holding the little dots related to each other…
__Речі складаються з атомів.__ Купа крихітних цяточок. __Не існувало__
суміжності, __не існувало__ твердості -- були лише електромагнітні
сили, що тримали крихітні цяточки разом...

***

// 5753
//Mandy Brocklehurst paused with her fork on her way to her mouth. “Huh,” she
//said to Su Li, sitting across from the now-empty space beside her, “what got
//into Hermione?”
Менді Брокелгерст застигла з виделкою напівшляху до її рота.

-- Га, -- сказала вона Су Лі, що сиділа навпроти тепер порожнього місця поряд з
нею, -- що це з Герміоною?

***

// 5754
//Harry wanted to kill his eraser.
Гаррі хотів вбити ґумку.

// 5755
//He’d been trying to change a single spot on the pink rectangle into steel,
//apart from the rest of the rubber, and the eraser wasn’t cooperating.
Він намагався змінити окреме місце рожевого прямокутника на сталь, без
зміни решти ґумки, і ґумка не хотіла йти назустріч.

// 5756
//It __had__ to be a conceptual limitation, not a real one. __Had__ to
//be.
Це __мало__ бути концептуальним обмеженням, а не справжнім. __Мало__ бути.

// 5757
//__Things were made of atoms,__ and every atom was a tiny separate thing.
//Atoms were held together by a quantum mist of shared electrons, for covalent
//bonds, or sometimes just magnetism at close ranges, for ionic bonds or van der
//Waals forces.
__Речі створені з атомів__, і кожен атом -- це крихітна окрема річ. Атоми
трималися купи через квантовий туман спільних електронів -- ковалентні звʼязки,
або іноді через магнетизм на невеличких відстанях -- іонні звʼязки або сили Ван
дер Ваальса.

// 5758
//If it came down to that, the protons and neutrons inside the nuclei were tiny
//separate things. The quarks inside the protons and neutrons were tiny separate
//things! There simply __wasn’t__ anything in reality, the world-out-there,
//that corresponded to people’s conceit of solid objects. It was all just little
//dots.
Якщо вже йти далі, протони та нейтрони всередині ядра були крихітними окремими
речами. Кварки всередині протонів та нейтронів були крихітними окремими
речами! Просто __не існувало__ нічого в дійсності -- світу зовні, що відповідав
би химерним людським уявленням про тверді обʼєкти. Це все були лише крихітні
цяточки.

// 5759
//And free Transfiguration was all in the mind to begin with, wasn’t it? No
//words, no gestures. Only the pure concept of form, kept strictly separate from
//substance, imposed on the substance, conceived of apart from its form. That and
//the wand and whatever made you a wizard.
А вільна трансфігурація й починалася з розуму, чи не так? Жодних слів, жодних
жестів. Лише щира концепція форми, що її треба уявляти цілковито окремо від речовини,
і яку накладають на речовину, що її уявляють окремо від форми. Це, паличка і хай там
що робить тебе чарівником.

// 5760
//The wizards couldn’t transform parts of things, could only transform what their
//minds perceived as wholes, because they didn’t __know in their bones__
//that it was all just atoms deep down.
Чарівники не могли трансформувати частини речей, могли трансформувати лише те,
що їхній розум сприймав як ціле, через те, що вони __не розуміли до нутра
кісток__, що це все насправді лише атоми.

// 5761
//Harry had focused on that knowledge as hard as he could, the __true fact__
//that the eraser was just a collection of atoms, everything was just collections
//of atoms, and the atoms of the little patch he was trying to Transfigure formed
//__just as valid__ a collection as any other collection he cared to think
//about.
Гаррі сфокусувався на цьому знанні якомога сильніше, __істинному факті__, що
ґумка була лише набором атомів, усе було лише набором атомів, і атоми
невеличкої частини, яку він намагався трансфігурувати, складали __настільки ж
придатний__ набір атомів, як і будь-який інший набір, який він може вибрати.

// 5762
//And Harry still hadn’t been able to change that single part of the eraser, the
//Transfiguration wasn’t going anywhere.
Проте Гаррі все одно не міг змінити цю окрему частину ґумки, трансфігурація не
працювала.

// 5763
//__This. Was. Ridiculous.__
__Це. Було. Сміховинно.__

// 5764
//Harry’s knuckles were whitening on his wand again. He was __sick__ of
//getting experimental results that __didn’t make sense.__
Рука Гаррі знову побіліла на паличці. Йому вже __в печінках сиділо__
отримувати результати дослідів, що __не мали сенсу__.

// 5765
//Maybe the fact that __some__ part of his mind was still thinking in terms
//of objects was stopping the Transfiguration from going through. He had thought
//of a collection of atoms that was an __eraser.__ He had thought of a
//collection that was a __little patch.__
Можливо, те, що __якась__ частина його розуму досі думала в термінах обʼєктів,
не давало трансфігурації відбутися. Він думав був про набір атомів, що був
__ґумкою__. Він думав про набір, що був __невеличкою частиною__.

// 5766
//Time to kick it up a notch.
Час підвищувати ставки.

// 5767
//Harry pressed his wand harder against that tiny section of eraser, and tried to
//see through the illusion that nonscientists thought was reality, the world of
//desks and chairs, air and erasers and people.
Гаррі сильніше притиснув паличку до невеличкої секції ґумки, і намагався побачити
крізь ілюзію, яку ненауковці вважали дійсністю, крізь світ столів та стільців,
повітря, ґумок та людей.

// 5768
//When you walked through a park, the immersive world that surrounded you was
//something that existed inside your own brain as a pattern of neurons firing.
//The sensation of a bright blue sky wasn’t something high above you, it was
//something in your visual cortex, and your visual cortex was in the back of your
//brain. All the sensations of that bright world were really happening in that
//quiet cave of bone you called your skull, the place where __you__ lived
//and never, ever left. If you really wanted to say hello to someone, to the
//__actual person,__ you wouldn’t shake their hand, you’d knock gently on
//their skull and say “How are you doing in there?” That was what people were,
//that was where they really lived. And the __picture__ of the park that you
//thought you were __walking through__ was something that was visualized
//inside your brain as it processed the signals sent down from your eyes and
//retina.
// hedrok: @ immersive
Коли ти йдеш парком, то навколишній видимий світ існував лише всередині твого
власного мозку як низка сигналів нейронів. Відчуття яскравого блакитного неба
не було десь високо над тобою, воно було у твоїй зоровій корі, а твоя зорова
кора була позаду твого мозку. Усі відчуття цього яскравого світу насправді
відбувалися в тій тихій печері з кісток, яку ти називаєш своїм черепом, -- місці,
де __ти__ живеш і ніколи, ніколи не виходиш. Якби ти дійсно хотів привітатися з
кимось, __зі справжньою особистістю__, то варто легко постукати по черепу й
сказати "`Як там справи?`". Бо саме там люди насправді були, саме там вони
жили. І __зображення__ парку, через який ти __йшов__, було лише візуалізацією
всередині твого мозку -- опрацюванням сигналів, що надсилали очі та сітківка.

// 5769
//It wasn’t a __lie__ like the Buddhists thought, there wasn’t something
//terribly mystical and unexpected behind the veil of Maya, what lay beyond the
//illusion of the park was just the __actual park__, but it was all still
//__illusion__.
Це не було __брехнею__, як вважали буддисти. Не було нічого страшенно містичного
чи несподіваного за мороком майя -- за ілюзією парку був просто __справжній
парк__, але це все одно була __ілюзія__.

// 5770
//Harry wasn’t sitting inside the classroom.
Гаррі не сидів у класі.

// 5771
//He wasn’t looking at the eraser.
Він не дивився на ґумку.

// 5772
//Harry was inside Harry’s skull.
Гаррі був усередині черепа Гаррі.

// 5773
//He was experiencing a processed picture his brain had decoded from the signals
//sent down by his retina.
Те, що він бачив, -- оброблене зображення, яке його мозок розкодував із сигналів,
що були надіслані його сітківкою.

// 5774
//The real eraser was somewhere else, somewhere that wasn’t the picture.
Справжня ґумка була деінде -- десь не на зображенні.

// 5775
//And the real eraser wasn’t like the picture Harry’s brain had of it. The idea
//of the eraser as a __solid object__ was something that existed only inside
//his own brain, inside the parietal cortex that processed his sense of shape and
//space. The real eraser was a collection of atoms held together by
//electromagnetic forces and shared covalent electrons, while nearby, air
//molecules bounced off each other and bounced off the eraser-molecules.
І справжня ґумка не була такою, як на зображенні в Гарріному мозку. Ідея
__твердого обʼєкта__ ґумки існувала лише всередині його власного мозку --
тімʼяної кори, що обробляла його відчуття форми та простору. Справжня ґумка була
набором атомів, що трималися купи за допомогою електромагнітних сил та
спільних ковалентних електронів, доки поряд молекули повітря зіштовхувалися
одна з одною та з молекулами ґумки.

// 5776
//The real eraser was far away, and Harry, inside his skull, could never quite
//touch it, could only imagine ideas about it. But __his wand had the
//power,__ it could change things out there in __reality__, it was only
//Harry’s own preconceptions that were __limiting__ it. Somewhere beyond the
//veil of Maya, the __truth__ behind Harry’s concept of “my wand” was
//touching the collection of atoms that Harry’s mind thought of as “a patch on
//the eraser”, and if that wand could change the collection of atoms that Harry
//considered “the whole eraser”, there was absolutely no reason why it couldn’t
//change the other collection too…
Справжня ґумка була далеко, а Гаррі всередині свого черепа ніколи не міг справді
її торкнутися -- він міг лише уявляти щось про неї. Але __його паличка мала
силу__ -- вона могла змінювати речі зовні -- у __дійсності__, і лише власні
упередження Гаррі __обмежували__ її. Десь поза мороком майя __правда__
концепції "`моя паличка`" торкалася набору атомів, які розум Гаррі називав
"`частина ґумки`", і якщо паличка могла змінити набір атомів, що його Гаррі
вважав "`усією ґумкою`", то не було жодної причини, чому б вона не могла змінити
й цей набір...

// 5777
//The Transfiguration still wasn’t going through.
Трансфігурація досі не виходила.

// 5778
//Harry’s teeth clenched together, and he kicked it up __another__ notch.
Гаррі стиснув щелепи й __знову__ підняв ставки.

// 5779
//The concept Harry’s mind had of the eraser as a single object was
//__obvious nonsense.__
Концепція ґумки як єдиного обʼєкта, якою користувався розум Гаррі, була __явно
безґлуздою__.

// 5780
//It was a map that didn’t and __couldn’t__ match the territory.
Мапа не збігалася й __не могла__ збігатися з територією.

// 5781
//Human beings modeled the world using stratified levels of organization, they
//had __separate thoughts__ about how countries worked, how people worked,
//how organs worked, how cells worked, how molecules worked, how quarks worked.
Людські істоти моделювали світ, використовуючи окремі рівні організації: вони мали
__окремі думки__ про те, як працювали країни, як працювали люди, як працювали
органи, як працювали клітини, як працювали молекули, як працювали кварки.

// 5782
//When Harry’s brain needed to think about the eraser, it would think about the
//rules that governed erasers, like “erasers can get rid of pencil-marks”. Only
//if Harry’s brain needed to predict what would happen on the lower chemical
//level, only then would Harry’s brain start thinking - as though it were a
//separate fact - about rubber molecules.
Коли мозку Гаррі треба було розмірковувати про ґумку, він згадував правила,
що керували ґумками, на кшталт "`ґумки дозволяють позбутися написаного
олівцем`". Лише якщо мозку Гаррі треба було передбачити, що станеться на
нижчому хімічному рівні, лише тоді він почне розмірковувати -- ніби це був
окремий факт -- про молекули ґумки.

// 5783
//But that was all in the __mind.__
Але це все було лише всередині __розуму__.

// 5784
//Harry’s mind might have separate __beliefs__ about rules that governed
//erasers, but there was no __separate law of physics__ that governed
//erasers.
Розум Гаррі мав окремі __погляди__ про правила, що керували ґумками, проте
не існувало __окремого закону фізики__, що керував ґумками.

// 5785
//Harry’s mind modeled reality using multiple levels of organization, with
//different beliefs about each level. But that was all in the __map,__ the
//true territory wasn’t like that, __reality itself__ had only a
//__single__ level of organization, the quarks, it was a unified low-level
//process obeying mathematically simple rules.
Розум Гаррі моделював дійсність за допомогою декількох рівнів організації, з
окремими поглядами на кожному рівні. Але це все була лише __мапа__, а справжня
територія не була такою, сама дійсність мала __єдиний__ рівень організації --
кварки, це був уніфікований процес низького рівня, що підкорявся простим
математичним правилам.

// 5786
//Or at least that was what Harry had believed before he’d found out about magic,
//but the eraser wasn’t magical.
Чи, принаймні, Гаррі в це вірив перед тим, як дізнався про магію, але ґумка не
була магічною.

// 5787
//And even if the eraser __had__ been magical, the idea that there could
//__really exist__ a single solid eraser was __impossible.__ Things
//like erasers __couldn’t__ be basic elements of reality, they were too big
//and complicated to be atoms, they __had__ to be made of parts__.
//__You couldn’t have things that were __fundamentally complicated__. The
//implicit belief that Harry’s brain had in the eraser as a single object wasn’t
//just __wrong,__ it was a map-territory confusion, the eraser only existed
//as a separate concept in Harry’s multi-level __model __of the world, not
//as a separate element of single-level reality.
І навіть якби ґумка __була__ магічною, ідея, ніби окрема тверда ґумка
__справді існувала__, була __неможливою__. Такі речі як ґумки __не могли__ бути
базовими елементами дійсності -- вони були завеликими та заскладними, щоб бути
атомами, вони __мали бути__ створені з окремих частин. Не можуть існувати речі,
що __фундаментально складні__. Підсвідома віра мозку Гаррі в ґумку як
цільний обʼєкт існувала як окрема концепція в його багаторівневій __моделі__
світу, а не як окремий елемент однорівневої дійсності.

// 5788
//…the Transfiguration __still wasn’t happening.__
...трансфігурація __досі не відбувалася__.

// 5789
//Harry was breathing heavily, failed Transfiguration was almost as tiring as
//successful Transfiguration, but __damned__ if he’d give up now.
Гаррі важко дихав -- невдала трансфігурація втомлювала не менше за успішну,
але __хай він крізь землю піде__, якщо зараз здасться.

// 5790
//All right, screw this nineteenth-century garbage.
Гаразд, до дідька цю маячню девʼятнадцятого сторіччя.

// 5791
//Reality wasn’t atoms, it wasn’t a set of tiny billiard balls bopping around.
//That was just another lie. The notion of atoms as little dots was just another
//convenient hallucination that people clung to because they didn’t want to
//confront the inhumanly alien shape of the underlying reality. No wonder, then,
//that his attempts to Transfigure based on that hadn’t worked. If he wanted
//power, he had to abandon his humanity, and force his thoughts to conform to the
//true math of quantum mechanics.
Дійсність не була атомами, не була низкою крихітних більярдних куль, що ширяли
навкруги. Це було черговою брехнею. Уявлення про атоми як маленькі точки було
лише черговою зручною галюцинацією, за яку чіплялися люди через те, що не хотіли
стикатися з нелюдською, чужою формою основи дійсності. Якщо він хоче сили, то
йому треба забути про свою людяність, і змусити свої думки відповідати істинній
математиці квантової механіки.

// 5792
//There__ were no particles, __there were just __clouds of amplitude__
//in a __multiparticle configuration space__ and what his brain fondly
//imagined to be an eraser was nothing except a gigantic __factor__ in a
//wavefunction that __happened to factorize__, it didn’t have a separate
//existence any more than there was a particular solid factor of 3 hidden inside
//the number 6, if his wand was capable of __altering factors in an
//approximately factorizable wavefunction__ then it should damn well be able to
//alter the slightly __smaller__ factor that Harry’s brain visualized as a
//patch of material on the eraser -
// hedrok: @ весь абзац...
__Не існувало часток__ -- були лише __густини ймовірностей__ у
__просторі системи багатьох частинок__, а те, що його мозок
так старанно уявляв як ґумку, було лише велетенським __множником__ у хвильовій
функції, що, __як трапилося, факторизується__. Вона не мала окремого
існування так само, як не існувало окремого цілісного множника 3, що був
захований у числі 6. Якщо його паличка була здатна __змінювати множники у
хвильовій функції, яку можна приблизно факторизувати__, то вона має бути
цілковито здатна змінювати й трохи __менший__ множник, який мозок Гаррі уявляв
частиною речовини ґумки...

***

// 5793
//Hermione tore through the hallways, shoes pounding hard on the stone, breath
//coming in pants, the shock of adrenaline still racing through her blood.
Герміона неслася коридорами, її взуття гучно стукотіло по камінню, вона
важко й часто дихала, адреналін досі був у її крові.

// 5794
//Like a picture of a young woman turning into an old crone, like the cup
//becoming two faces.
Ніби картина молодої жінки, що перетворювалася на каргу, ніби ваза, що ставала
двома обличчями.

// 5795
//What had they been doing?
Що вони робили?

// 5796
//__What had they been doing?__
__Що вони робили?__

// 5797
//She came to the classroom and her fingers slipped on the doorknob at first, too
//sweaty, she grabbed harder and the door opened -
Вона дісталася кімнати, спершу її пальці зісковзнули з дверної ручки -- надто
спітнілі, тоді вона сильніше вхопилася за неї, і двері відчинилися...

// 5798
//- in a single flash of perception she saw Harry staring at a small pink
//rectangle on the table in front of him -
...єдиним осяянням вона побачила, як Гаррі втупився у невеличкий рожевий
прямокутник на столі навпроти себе...

// 5799
//- as a few paces away the tiny black thread, almost invisible from this
//distance, supported all that weight -
...а в декількох кроках від нього крихітна чорна ниточка -- майже невидима
з такої відстані, підтримувала всю цю вагу...

// 5800
//__“Harry get out of the classroom!”__
-- __Гаррі, забирайся з кімнати!__

// 5801
//Pure shock crossed Harry’s face, and he stood up so fast he almost fell over,
//stopping only to grab the small pink rectangle from the table, and he tore out
//of the door, she’d already stepped aside, her wand was already in her hand
//coming up pointing at the thread -
На обличчі Гаррі було щире здивування, він підвівся настільки швидко, що ледь
не впав, затримався лише, щоб схопити маленький рожевий прямокутник зі стола, і
вилетів крізь двері. Вона вже відійшла, її паличка вже вказувала на нитку...

// 5802
//“__Finite Incantatem!__”
-- __Фініте Інкантатем!__

// 5803
//And Hermione slammed the door shut again, just as the gigantic crash of a
//hundred kilograms of falling metal came from inside.
І Герміона з хряскотом зачинила двері саме коли зсередини почулося гучне
падіння сотні кілограмів металу.

// 5804
//She was panting, gasping for air, she’d run all the way here without stopping,
//she was soaked in sweat and her legs and thighs burned like living flames, she
//couldn’t have answered Harry’s questions for all the Galleons in the world.
Вона задихалася, хапала ротом повітря, вона пробігла була весь шлях без жодної
зупинки, вона промокла від поту, її ноги та стегна горіли, ніби живе полумʼя,
вона не могла відповісти на питання Гаррі за всі ґалеони світу.

// 5805
//Hermione blinked, and realized that she had started to fall, and Harry had
//caught her, and was lowering her gently to sit on the floor.
Герміона кліпнула очима й зрозуміла, що почала падати, а Гаррі її впіймав та
дбайливо опустив, щоб вона сіла на підлогу.

// 5806
//“…healthy…” she managed to whisper.
-- ...почуваєшся... -- вона впоралася прошепотіти.

// 5807
//“__What?__” said Harry, looking paler than she’d ever seen him.
-- __Що?__ -- запитав Гаррі. Таким блідим вона його ніколи не бачила.

// 5808
//“…are you, feeling, healthy…”
-- ...ти, добре, почуваєшся...

// 5809
//Harry started looking even more frightened as the question sank in. “I, I don’t
//think I have any symptoms -”
Гаррі вирячився на неї ще більш налякано, коли збагнув питання.

-- Я, мені здається, що в мене немає симптомів...

// 5810
//Hermione closed her eyes for a moment. “Good,” she whispered. “Catch, breath.”
Гарміона ненадовго заплющила очі.

-- Добре, -- прошепотіла вона. -- Треба, подихати.

// 5811
//That took a while. Harry was still looking scared. That was good too, maybe it
//would teach him a lesson.
На це потрібен був деякий час. Гаррі досі був переляканий. Це теж було добре --
можливо навчить його чомусь.

// 5812
//Hermione reached into the pouch Harry had bought her, whispered “water” through
//her parched throat, took out the bottle and drank in great huge gulps.
Герміона опустила руку в капшучок, що його подарував їй Гаррі, прошепотіла
"`вода`" пересохлим горлом, взяла пляшку й почала пити величезними ковтками.

// 5813
//And then it was still a while before she could talk again.
І знадобився ще деякий час, доки вона змогла розмовляти.

// 5814
//“We broke the rules, Harry,” she said in a hoarse voice. “We broke the rules.”
-- Ми порушили правила, Гаррі, -- сказала вона хрипким голосом. -- Ми порушили
правила.

// 5815
//“I…” Harry swallowed. “I still don’t see how, I’ve been __thinking__ but
//-”
-- Я... -- Гаррі ковтнув слину. -- Я досі не розумію, як. Я __думав__, проте...

// 5816
//“I asked if the Transfiguration was safe and __you answered me!__”
-- Я спитала, чи трансфігурація безпечна, і __ти відповів мені__!

// 5817
//There was a pause.
Запала тиша.

// 5818
//“That’s it?” Harry said.
-- І все? -- запитав Гаррі.

// 5819
//She could have screamed.
Вона могла б заволати.

// 5820
//“Harry, don’t you get it?” she said. “It’s made out of tiny fibers, what if it
//__unraveled,__ who __knows__ what could go wrong, __we didn’t
//ask Professor McGonagall!__ Don’t you see what we were doing? We were
//experimenting with Transfiguration. We were __experimenting__ with
//__Transfiguration!__”
-- Гаррі, невже ти не розумієш? Воно зроблено з крихітних волокон. Що як вони
б __розплуталися__, та __хтозна__ що могло піти не так, __ми не спитали
професорку Макґонеґел__! Невже незрозуміло, що ми робили? Ми експериментували з
трансфігурацією. Ми __експериментували__ з __трансфігурацією__.

// 5821
//There was another pause.
І знову запала тиша.

// 5822
//“Right…” Harry said slowly. “That’s probably one of those things they don’t
//even bother telling you __not__ to do because it’s too obvious. Don’t test
//brilliant new ideas for Transfiguration by yourselves in an unused classroom
//without consulting any professors.”
-- Так... -- повільно сказав Гаррі. -- Напевно це одна з тих речей, які вони не
кажуть тобі __не__ робити, бо це надто очевидно. Не перевіряйте свої геніальні
нові ідеї щодо трансфігурації самостійно в закинутій класній кімнаті, не
порадившись із професором.

// 5823
//“You could have gotten us killed, Harry!” Hermione knew it wasn’t fair, she’d
//made the mistake too, but she still felt angry at him, he always sounded so
//confident and that had dragged her unthinkingly along in his wake. “We could
//have __spoiled Professor McGonagall’s perfect record!__”
-- Гаррі, ти міг нас убити! -- Герміона знала, що це нечесно, вона теж помилилася,
проте вона досі на нього злилася, він завжди був таким впевненим і бездумно
втягнув її у свої мрії. -- Ми могли __зіпсувати бездоганний рекорд професорки
Макґонеґел!__

// 5824
//“Yes,” said Harry, “let’s not tell her about this, shall we?”
-- Так, краще не розповідаймо їй про це, чи не так?

// 5825
//“We have to stop,” Hermione said. “We have to stop this or we’re going to get
//hurt. We’re too young, Harry, we can’t do this, not yet.”
-- Ми маємо зупинитися. Ми маємо зупинити це, або ми постраждаємо. Ми надто
молоді, Гаррі, ми не можемо цього зробити, ще ні.

// 5826
//A weak grin crossed Harry’s face. “Um, you’re sort of wrong about that.”
Слабка посмішка зʼявилася на обличчі Гаррі.

-- Ем, тут ти дещо помиляєшся.

// 5827
//And he held out a small pink rectangle, a rubber eraser with a bright metal
//patch on it.
І він протягнув їй маленький рожевий прямокутник -- ґумку з яскравою металевою
плямою на ній.

// 5828
//Hermione stared at it, puzzled.
Герміона спантеличено на неї витріщилася.

// 5829
//“Quantum mechanics wasn’t enough,” Harry said. “I had to go all the way down to
//timeless physics before it took. Had to see the wand as enforcing a
//__relation__ between separate past and future realities, instead of
//__changing__ anything over time - but I did it, Hermione, I saw past the
//illusion of objects, and I bet there’s not a single other wizard in the world
//who could have. Even if some Muggleborn knew about timeless formulations of
//quantum mechanics, it would just be a weird belief about strange distant
//quantum stuff, they wouldn’t __see__ that it was __reality__, accept
//that the world they knew was just a hallucination. I Transfigured __part__
//of the eraser without changing the __whole thing.__”
-- Квантової механіки було недостатньо. Мені довелося зануритися аж до
безчасової фізики, доки вийшло. Мав зрозуміти, що паличка забезпечує
__співвідношення__ між окремими минулою та майбутньою дійсностями, а не
__змінює__ щось з часом. Але в мене вийшло, Герміоно, я побачив крізь ілюзію
обʼєктів, і готовий закладатися, що жоден інший чарівник у світі не зміг би.
Навіть якщо хтось маґлівського роду й знає про безчасові формулювання квантової
механіки, це для них просто дивний погляд про якусь дивну далеку квантову
штуку, вони __не розуміють__, що це __дійсність__, не приймають, що світ, який
вони знають, -- лише галюцинація. Я трансфігурував __частину__ ґумки без
трансфігурації __всього обʼєкта__.

// 5830
//Hermione raised her wand again, pointed it at the eraser.
Герміона знову підняла паличку та вказала нею на ґумку.

// 5831
//For a moment anger crossed Harry’s face, but he didn’t make any move to stop
//her.
На лиці Гаррі промайнула злість, але він навіть не ворухнувся, щоб зупинити
її.

// 5832
//“__Finite Incantatem__,” said Hermione. “Check with Professor McGonagall
//before you try it again.”
-- __Фініте Інкантатем__, -- сказала Герміона. -- Проконсультуйся з професоркою
Макґонеґел перед тим, як повторити це знову.

// 5833
//Harry nodded, though his face was still a bit tight.
Гаррі кивнув, хоча його обличчя й досі було напруженим.

// 5834
//“And we still have to stop,” said Hermione.
-- І нам все одно треба зупинитися.

// 5835
//“__Why?__” said Harry. “Don’t you see what this __means__, Hermione?
//Wizards __don’t__ know everything! There’s too few of them, even fewer who
//know any science, they haven’t exhausted the low-hanging fruit -”
-- __Чому?__ Хіба ти не розумієш, що це __означає__, Герміоно? Чарівники __не
знають__ усього! Їх замало, і навіть менше тих, хто знає бодай щось про науку,
вони ще не зірвали всі легкодоступні плоди досліджень...

// 5836
//“It’s not __safe__,” Hermione said. “If we __can__ find out new
//things it’s even __less__ safe! We’re __too young!__ We made one big
//mistake already, next time we could just __die!__”
-- Це __небезпечно__. Якщо ми __можемо__ відкрити щось нове, то це навіть
__менш__ безпечно! Ми __замолоді__! Ми вже припустилися великої помилки
сьогодні, наступного разу ми можемо просто __померти__!

// 5837
//Then Hermione flinched.
Тоді Герміона здригнулася.

// 5838
//Harry looked away from her, and started taking slow, deep breaths.
Гаррі відвернувся від неї та почав повільно-повільно дихати.

// 5839
//“Please don’t try to do it alone, Harry,” Hermione said, her voice trembling.
//“Please.”
-- Будь ласка, не намагайся робити це самостійно, Гаррі, -- тремтячим голосом
сказала Герміона. -- Будь ласка.

// 5840
//__Please don’t make me have to decide whether to tell Professor
//Flitwick.__
__Будь ласка, не змушуй мене вирішувати, чи казати про це професорові
Флитвіку.__

// 5841
//There was a long pause.
Запала довга мовчанка.

// 5842
//“So you want us to study,” Harry said. She could tell he was trying to keep the
//anger out of his voice. “Just study.”
-- Отже ти хочеш, щоб ми навчалися, -- сказав Гаррі. Вона помітила, що він
намагається не виказувати злість у голосі. -- Просто навчалися.

// 5843
//Hermione wasn’t sure if she should say anything, but… “Like you studied, um,
//timeless physics, right?”
Герміона не була впевнена, чи варто щось казати, проте...

-- Як ти вивчав, ем, безчасову фізику, правильно?

// 5844
//Harry looked back at her.
Гаррі знову поглянув на неї.

// 5845
//“That thing you did,” Hermione said, her voice tentative, “it wasn’t because of
//__our__ experiments, right? You could do it because you’d read lots of
//books.”
-- Те, що ти зробив, -- обережно сказала Герміона, -- це ж не через __наші__
досліди, так? Ти зміг це зробити, адже прочитав багато книжок.

// 5846
//Harry opened his mouth, and then he shut it again. There was a frustrated look
//on his face.
Гаррі роззявив рота, а потім закрив його. Він здавався роздратованим.

// 5847
//“All right,” Harry said. “How about this. We study, and if I think of anything
//that seems __really__ worth trying, we’ll try it after I ask a professor.”
-- Гаразд, -- сказав Гаррі. -- Як щодо такого. Ми навчаємося, а якщо я вигадаю щось, що __справді__
варте спроби, то я спитаю в професора.

// 5848
//“Okay,” Hermione said. She didn’t fall over with relief, but only because she
//was already sitting down.
-- Гаразд.

Герміона не впала від полегшення лише через те, що вже сиділа.

// 5849
//“Shall we get lunch?” Harry said cautiously.
-- Пообідаємо? -- несміливо запитав Гаррі.

// 5850
//Hermione nodded. Yes. Lunch sounded good. For real, this time.
Герміона кивнула. Так. "`Обід`" звучало добре. Цього разу по-справжньому.

// 5851
//She carefully began to push herself off the stone floor, wincing as her body
//screamed at her -
Вона обережно почала підводитися з камʼяної підлоги, кривлячись, коли
її тіло почало волати на неї...

// 5852
//Harry pointed his wand at her and said “__Wingardium Leviosa.__”
Гаррі вказав на неї паличкою та сказав "`__Вінґардіум Левіоза__`".

// 5853
//Hermione blinked as the huge weight on her legs diminished to something
//bearable.
Герміона кліпнула очима, коли величезна вага зникла з її ніг та залишилося щось
стерпне.

// 5854
//A smile quirked across Harry’s face. “You can __lift__ something without
//being able to Hover it completely,” he said. “Remember that experiment?”
Усмішка знайшла шлях на обличчя Гаррі.

-- Можна __піднімати__ щось без того, щоб левітувати його повністю. Памʼятаєш
цей дослід?

// 5855
//Hermione smiled back helplessly, although she thought she ought to still be
//angry.
Герміона безпорадно всміхнулася у відповідь, хоча вона мала досі злитися.

// 5856
//And she started walking back toward the Great Hall, feeling remarkably and
//wonderfully light on her feet, as Harry carefully kept his wand trained on her.
І вона рушила назад до Великої Зали. Вона почувалася на диво чудово легкою
в ногах, доки Гаррі старанно тримав паличку спрямованою на неї.

// 5857
//He only managed to keep it up for five minutes, but it was the thought that
//counted.
Він спромігся витримати лише пʼять хвилин, проте головне увага.

***

// 5858
//Minerva looked at Dumbledore.
Мінерва подивилася на Дамблдора.

// 5859
//Dumbledore gazed back inquiringly at her. “Did you understand any of that?” the
//Headmaster said, sounding bemused.
Дамблдор питально поглянув на неї.

-- Ти зрозуміла хоч щось? -- приголомшено запитав він.

// 5860
//It had been the most complete and utter gibberish that Minerva could ever
//remember hearing. She was feeling a bit embarrassed about having summoned the
//Headmaster to hear it, but she’d been given explicit instructions.
Такої безпросвітної й безсумнівної тарабарщини Мінерва ще не чула за своє життя.
Вона трохи соромилася, що покликала директора послухати це, проте їй дали
явні інструкції.

// 5861
//“I’m afraid not,” Professor McGonagall said primly.
-- Боюся, що ні, -- сухо сказала професорка Макґонеґел.

// 5862
//“So,” Dumbledore said. The silver beard swung away from her, the old wizard’s
//twinkling gaze looked elsewhere once more. “You suspect you might be able to do
//something that other wizards can’t do, something we think is impossible.”
-- Отже, -- сказав Дамблдор. Його срібна борода гойднулася від неї, мерехтливий
погляд старого чарівника знову дивився не на неї. -- Ти гадаєш, що можливо
здатен зробити щось, чого не може жоден інший чарівник. Щось, що вважається
неможливим.

// 5863
//The three of them stood within the Headmaster’s private Transfiguration
//workroom, where the shining phoenix of Dumbledore’s Patronus had told her to
//bring Harry, moments after her own Patronus had reached him. Light shone down
//through the skylights and illuminated the great seven-pointed alchemical
//diagram drawn in the center of the circular room, showing it to be a little
//dusty, which saddened Minerva. Transfiguration research was one of Dumbledore’s
//great enjoyments, and she’d known how pressed for time he’d been lately, but
//not that he was __this__ pressed.
Вони втрьох стояли в особистому робочому кабінеті директора для трансфігурації,
куди сяйливий фенікс Дамблдорового патронуса сказав їй привести Гаррі за мить
після того, як її власний патронус досягнув його. Проміння сонця лилося крізь
дахові вікна й освітлювало велику семикутну алхімічну діаграму, що була
намальована в центрі круглої кімнати, й демонструвало, що вона дещо запорошена.
Це засмутило Мінерву. Дослідження трансфігурації було одним з найулюбленіших занять
Дамблдора, і хоча вона знала, як мало часу в нього стало нещодавно, але не
знала, що __так__ мало.

// 5864
//And now Harry Potter was going to waste even more of the Headmaster’s time. But
//she certainly couldn’t blame __Harry__ for that. He’d done the proper
//thing in coming to her to say that he’d had an idea for doing something in
//Transfiguration that was currently believed to be impossible, and she herself
//had done exactly what she’d been told to do: she’d ordered Harry to be quiet
//and not discuss anything with her until she had consulted the Headmaster and
//they’d finished moving to a secure location.
А тепер Гаррі Поттер змарнує ще більше часу директора. Проте вона безсумнівно
не могла звинувачувати в цьому __Гаррі__. Він вчинив правильно, коли прийшов
до неї та сказав, що в нього є ідея, як виконати трансфігурацію, що наразі вважається
неможливою, і сама вона вчинила точно за інструкціями: наказала Гаррі замовкнути
та не обговорювати з нею нічого, доки вона не проконсультується з директором,
і вони не перейдуть до захищеного місця.

// 5865
//If Harry had started out by saying what __specifically__ he thought he
//could do, she wouldn’t have bothered.
Якби Гаррі встигнув розповісти їй, __що саме__ він гадав, що може зробити,
то вона б не завдавала всім клопоту.

// 5866
//“Look, I know it’s hard to explain,” Harry said, sounding a little embarrassed.
//“What it adds up to is that what you believe conflicts with what scientists
//believe, in a case where I’d genuinely expect scientists to know more than
//wizards.”
-- Слухайте, я знаю, що це важко пояснити, -- сказав Гаррі дещо соромʼязливо.
-- Але в підсумку те, у що ви вірите, не відповідає тому, у що вірять
науковці, і в цьому випадку я щиро вірю, що науковці знають більше, ніж
чаклуни.

// 5867
//Minerva would have sighed out loud, if Dumbledore hadn’t seemed to be taking
//the whole thing very seriously.
Мінерва б гучно зітхнула, якби не знала, що Дамблдор сприймає цю справу вкрай серйозно.

// 5868
//Harry’s idea stemmed from simple ignorance, nothing more. If you changed half
//of a metal ball into glass, the __whole ball__ had a different Form. To
//change the part __was__ to change the whole, and that meant removing the
//whole Form and replacing it with a different one. What would it even
//__mean__ to Transfigure only half of a metal ball? That the metal ball
//__as a whole__ had the same Form as before, but __half__ that ball
//now had a different Form?
Ідея Гаррі випливала з простого невігластва, і з нічого більше. Не можна було
змінити половину металевої кулі на скло -- __уся куля__ приймала іншу форму.
Змінити частину __й означало__ змінити ціле, а це означало прибрати цілу форму
й замінити її на іншу. Що навіть __могло означати__ трансфігурувати лише
половину металевої кулі? Що металева куля __в цілому__ мала ту ж форму, що й
раніше, проте __половина__ кулі мала іншу форму?

// 5869
//“Mr. Potter,” said Professor McGonagall, “what you want to do isn’t just
//impossible, it’s __illogical.__ If you change half of something, you
//__did__ change the whole.”
-- Містере Поттер, -- сказала професорка Макґонеґел, -- те, що ви збираєтеся
зробити, не просто неможливо, це __алогічно__. Якщо змінити половину чогось, то
ви __змінюєте__ все ціле.

// 5870
//“Indeed,” said Dumbledore. “But Harry is the hero, so he may be able to do
//things that are logically impossible.”
-- І справді, -- сказав Дамблдор. -- Проте Гаррі -- герой, отже він може бути
здатен робити речі, що неможливі за самою логікою.

// 5871
//Minerva would have rolled her eyes, if she hadn’t gone numb a long time ago.
Мінерва б закотила очі під лоба, якби не стала була нечутливою до цього ще дуже давно.

// 5872
//“Supposing it __was__ possible,” said Dumbledore, “can you think of any
//reason why the results would differ in any way from ordinary Transfiguration?”
-- Припустімо, що це __можливо__, -- сказав Дамблдор, -- чи можеш ти вигадати
якусь причину, чому б результати відрізнялися від звичайної трансфігурації?

// 5873
//Minerva frowned. The fact that the concept was literally unimaginable was
//presenting her with some difficulty, but she tried to take it at face value. A
//Transfiguration imposed on only half of a metal ball…
Мінерва спохмурніла. Той факт, що концепція була буквально неуявле{stress}нною,
додавав складнощів, проте вона спробувала розглянути це питання ґрунтовно.
Трансфігурація, що її накладено лише на половину металевої кулі...

// 5874
//“Strange things happening at the interface?” said Minerva. “But that should be
//no different than Transfiguring the object as a whole, into a Form with two
//different parts…”
-- Дивні речі відбувалися б на місці зʼєднання? -- сказала Мінерва. -- Проте
це нічим не відрізнялося б від трансфігурації обʼєкта цілком у форму з двома
різними половинами...

// 5875
//Dumbledore nodded. “That is my own thought as well. And Harry, if your theory
//is correct, it implies that what you want to do is __exactly__ like any
//other Transfiguration, only applied to a part of the subject rather than the
//whole? No changes __at all?__”
Дамблдор кивнув.

-- Я теж такої думки. І Гаррі, якщо твоя теорія правильна, то з цього випливає, що
те, що ти хочеш зробити, __нічим не відрізняється__ від будь-якої іншої трансфігурації,
крім того, що вона застосована на частині предмета, а не на всьому? __Жодних__ інших
відмінностей?

// 5876
//“Yes,” Harry said firmly. “That’s the whole point.”
-- Саме так, -- впевнено відповів Гаррі. -- У цьому весь сенс.

// 5877
//Dumbledore looked at her again. “Minerva, can you think of any reason
//whatsoever why that would be dangerous?”
Дамблдор знову на неї поглянув.

-- Мінерво, чи можеш ти уявити бодай якусь причину, чому це може бути
небезпечним?

// 5878
//“No,” said Minerva, after she had finished searching through her memory.
-- Ні, -- відповіла Мінерва після того, як завершила пошуки у своїй памʼяті.

// 5879
//“Likewise myself,” said the Headmaster. “All right, then, since this ought to
//be exactly analogous to ordinary Transfiguration in all respects, and since we
//cannot think of any reason whatsoever why it would be dangerous, I think that
//the second degree of caution will suffice.”
-- Я теж, -- сказав директор. -- Гаразд, тоді, оскільки це має бути повністю
аналогічним звичайній трансфігурації з усіх точок зору, і оскільки ми не можемо
вигадати бодай якоїсь причини, чому б це могло бути небезпечним, гадаю, другого
ступеня обережності вистачить.

// 5880
//Minerva was surprised, but she didn’t object. Dumbledore was by far her senior
//in Transfiguration, and he had tried literally thousands of new
//Transfigurations without ever choosing a degree of caution that was too low. He
//had used Transfiguration __in combat__ and he was __still alive.__ If
//the Headmaster thought the second degree was enough, it was enough.
Мінерва була здивована, проте не заперечувала. Пізнання Дамблдора в трансфігурації
були далеко за її межами. Він випробував буквально тисячі нових трансфігурацій, і
жодного разу не вибрав занизького ступеня обережності. Він використовував
трансфігурацію __в бою__ і __досі був живим__. Якщо директор вважав, що другого
ступеня обережності вистачить, це означало, що вистачить.

// 5881
//That Harry was certainly going to fail was, of course, completely irrelevant.
Те, що в Гаррі, без сумнівів, нічого не вийде, звісно, не мало жодного значення.

// 5882
//The two of them started setting up the wards and detection webs. The most
//important web was the one that checked to make sure no Transfigured material
//had entered the air. Harry would be enclosed in a separate shell of force with
//its own air supply just to be certain, only his wand allowed to leave the
//shield, and the interface tight. They were inside Hogwarts so they couldn’t
//automatically Apparate out any material that showed signs of spontaneous
//combustion, but they could launch it out a skylight almost as fast, the windows
//all folded outward for exactly that reason. Harry himself would go out a
//different skylight at the first sign of trouble.
Вони вдвох почали налаштовувати захисні чари та чутливі сітки. Найважливіша сітка
перевіряла, що жоден трансфігурований матеріал не потрапив у повітря. Гаррі
буде обгорнутий в окрему оболонку сили з власним джерелом повітря, просто
про всяк випадок. Лише його паличці буде дозволено покидати цей щит, але крім
цього щит був непроникним. Вони були всередині Гоґвортсу, тому не було
можливості автоматично розʼявити будь-який матеріал, що виказував ознаки
спонтанного горіння, але вони могли запустити його майже так само швидко крізь
дахові вікна -- усі вони відчинялися назовні саме для цього. Сам Гаррі вилетить
крізь інше дахове вікно при перших ознаках проблем.

// 5883
//Harry watched them working, his face looking a little frightened.
Гаррі спостерігав за їхньою роботою й здавався трохи наляканим.

// 5884
//“Don’t worry,” said Professor McGonagall in the middle of her running
//description, “this almost certainly won’t be necessary, Mr. Potter. If we
//__expected__ anything to go wrong you would not be allowed to try. It’s
//just ordinary precautions for any Transfiguration no one has ever tried
//before.”
-- Не хвилюйтеся, -- сказала професорка Макґонеґел посеред свого опису, -- це
майже точно не знадобиться, містере Поттер. Якби ми __очікували__, що щось
може піти не так, вам би не дозволили спробувати. Це лише звичайні
перестороги для будь-якої трансфігурації, що її ніколи раніше не випробовували.

// 5885
//Harry swallowed and nodded.
Гаррі ковтнув слину та кивнув.

// 5886
//And a few minutes later, Harry was strapped into the safety chair and resting
//his wand against a metal ball - one that, based on his current test scores,
//should have been too large for him to Transfigure in less than thirty minutes.
І ось за декілька хвилин Гаррі був закріплений у стільці безпеки, а його
паличка торкалася металевої кулі -- надто великої, щоб він міг її
трансфігурувати протягом тридцяти хвилин, судячи з його поточних результатів
тестів.

// 5887
//And a few minutes after __that,__ Minerva was leaning against the wall,
//feeling faint.
А __ще__ за декілька хвилин Мінерва спиралася на стіну й хотіла знепритомніти.

// 5888
//There was a small patch of glass on the ball where Harry’s wand had rested.
На кулі був невеличкий шматочок скла в тому місці, де її торкалася паличка
Гаррі.

// 5889
//Harry didn’t say __I told you so,__ but the smug look on his sweating face
//said it for him.
Гаррі не вигукнув __А я ж казав__, але самовдоволений вираз його спітнілого
обличчя сам це висловлював.

// 5890
//Dumbledore was casting analytic Charms on the ball, looking more and more
//intrigued by the moment. Thirty years had melted off his face.
Дамблдор виконував аналітичні чари на кулі. Він ставав дедалі захопленішим
щомиті. Тридцять років станули з його обличчя.

// 5891
//“Fascinating,” said Dumbledore. “It’s exactly as he claimed. He simply
//Transfigured a part of the subject without Transfiguring the whole. You say
//it’s really just a conceptual limitation, Harry?”
-- Захопливо, -- сказав Дамблдор. -- Усе саме так, як він стверджував. Він
просто трансфігурував частину обʼєкта, не трансфігурувавши його цілком. Ти
кажеш, що це лише концептуальне обмеження, Гаррі?

// 5892
//“Yes,” Harry said, “but a deep one, just knowing it had to be a conceptual
//limitation wasn’t enough. I had to suppress the part of my mind that was making
//the error and think instead about the underlying reality that scientists
//figured out.”
-- Так, але глибоке. Просто знати, що воно має бути концептуальним, було
недостатньо. Мені довелося приглушити ту частину свого розуму, що робила
помилку, і мислити натомість про дійсність в основі всього, яку зʼясували
науковці.

// 5893
//“Truly fascinating,” Dumbledore said. “I take it that for any other wizard to
//do the same would require months of study if they could do it at all? And may I
//ask you to partially Transfigure some other subjects?”
-- Справді захопливо, -- сказав Дамблдор. -- Я так розумію, що будь-якому іншому
чарівникові потрібні будуть місяці тренувань для цього, якщо вони взагалі
зможуть це зробити? І чи можу я тебе попросити частково трансфігурувати деякі
інші обʼєкти?

// 5894
//“Probably yes and of course,” Harry said.
-- Напевно так і звісно, -- відповів Гаррі.

// 5895
//Half an hour later, Minerva was feeling equally bewildered, but considerably
//reassured about the safety issues.
За пів години Мінерва почувалася не менш спантеличеною, проте значно спокійнішою
щодо питань безпеки.

// 5896
//It __was__ the same, aside from being logically impossible.
Трансфігурація __була__ такою ж, крім того, що була неможлива за логікою.

// 5897
//“I believe that’s enough, Headmaster,” Minerva said finally. “I suspect partial
//Transfiguration is more tiring than the ordinary sort.”
-- Я вважаю, що цього достатньо, директоре, -- нарешті сказала Мінерва. -- Підозрюю,
що часткова трансфігурація втомлює більше, ніж звичайна.

// 5898
//“Getting less so with practice,” said the exhausted and pale boy, voice
//unsteady, “but yeah, you’ve got that right.”
-- Різниця зменшується з практикою, -- сказав зморений та блідий хлопець
нерівним голосом, -- проте так, тут ви маєте рацію.

// 5899
//The process of extracting Harry from the wards took another minute, and then
//Minerva escorted him to a much more comfortable chair, and Dumbledore produced
//an ice-cream soda.
Процес звільнення Гаррі від захисних чарів потребував ще хвилини, а потім
Мінерва провела його до значно зручнішого крісла, а Дамблдор дістав крем-содову
з морозивом.

// 5900
//“__Congratulations__, Mr. Potter!” said Professor McGonagall, and meant
//it. She would have bet almost anything against that working.
-- __Вітаю__, містере Поттер! -- сказала професорка Макґонеґел, і вона
казала це від серця. Вона могла б закластися майже на що завгодно, що
така трансфігурація неможлива.

// 5901
//“Congratulations indeed,” said Dumbledore. “Even I did not make any original
//discoveries in Transfiguration before the age of fourteen. Not since the day of
//Dorotea Senjak has any genius flowered so early.”
-- І справді вітаю, -- сказав Дамблдор. -- Навіть я не зробив жодного відкриття
в трансфігурації, доки мені не виповнилося чотирнадцять. З часів Доротеї Сенʼяк
жоден геній не розквітав так рано.

// 5902
//“Thanks,” Harry said, sounding a little surprised.
-- Дякую, -- трохи здивовано сказав Гаррі.

// 5903
//“Nonetheless,” Dumbledore said thoughtfully, “I think it would be most wise to
//keep this happy event a secret, at least for now. Harry, did you discuss your
//idea with any other person before you spoke to Professor McGonagall?”
-- І втім, -- задумливо сказав Дамблдор, -- гадаю, що наймудрішим буде зберегти
цю щасливу подію в таємниці, принаймні поки що. Гаррі, чи обговорював ти свою
ідею з будь-ким іншим перед тим, як заговорив з професоркою Макґонеґел?

// 5904
//There was silence.
Запала тиша.

// 5905
//“Um…” Harry said. “I don’t want to turn anyone over to the Inquisition, but I
//did tell one other student -”
-- Ем... -- сказав Гаррі. -- Не хочеться нікого здавати інквізиції, проте я сказав
одному іншому учневі...

// 5906
//The word almost exploded from Professor McGonagall’s lips. “__What?__ You
//discussed a completely novel form of Transfiguration with a __student__
//before consulting a recognized authority? Do you have any idea how
//__irresponsible__ that was?”
-- __Що?__ -- слово ледь не вибухнуло з губ професорки Макґонеґел. -- __Що?__
Ви обговорювали цілковито новітню форму трансфігурації з __учнем__ перед тим,
як проконсультуватися з визнаним авторитетом? Ви хоч уявляєте, як це
__безвідповідально__?

// 5907
//“I’m sorry,” said Harry. “I didn’t realize.”
-- Мені прикро, -- сказав Гаррі. -- Я не розумів.

// 5908
//The boy looked appropriately frightened, and Minerva felt something inside her
//relax. At least Harry understood how foolish he’d been.
Хлопець здавався достатньо наляканим, і Мінерва відчула, як щось усередині неї
розслабилося. Принаймні Гаррі збагнув, яким дурнем він був.

// 5909
//“You must swear Miss Granger to secrecy,” Dumbledore said gravely. “And do not
//tell anyone else unless there is an extremely good reason for it, and they too
//have sworn.”
-- Ти маєш взяти з міс Ґрейнджер обітницю мовчання, -- суворо сказав Дамблдор.
-- І не кажи нікому іншому, хіба в тебе буде на це надзвичайно гарна причина, і
вони теж присягнуться.

// 5910
//“Ah… why?” Harry said.
-- А... чому? -- запитав Гаррі.

// 5911
//Minerva was wondering the same thing. Once again the Headmaster was thinking
//too far ahead for her to keep up.
Мінерву цікавило те ж питання. І знову директор розмірковував надто далеко
наперед, щоб вона могла за ним встигати.

// 5912
//“Because you can do something that no one else will believe you can do,”
//Dumbledore said. “Something completely unexpected. It may prove to be your
//critical advantage, Harry, and we must preserve it. Please, trust me in this.”
-- Бо ти здатен робити щось таке, що ніхто інший не повірить, що ти на це здатен,
-- сказав Дамблдор. -- Щось цілковито несподіване. Це може виявитися твоєю
перевагою в критичну мить, Гаррі, і ми маємо її зберегти. Будь ласка, довірся
мені в цьому.

// 5913
//Professor McGonagall nodded, her firm face showing nothing of her inner
//confusion. “Please do, Mr. Potter,” she said.
Професорка Макґонеґел кивнула, її непохитне обличчя не виказувало нічого з її
внутрішньої невпевненості.

-- Будь ласка, так і зробіть, містере Поттер, -- сказала вона.

// 5914
//“All right…” Harry said slowly.
-- Гаразд... -- повільно сказав Гаррі.

// 5915
//“Once we have finished examining your materials,” Dumbledore added, “you may
//practice partial Transfiguration, on glass to steel and steel to glass
//__only__, with Miss Granger to act as your spotter. Naturally, if either
//of you suspect any symptom of any form of Transfiguration sickness, inform a
//professor at once.”
-- Щойно ми завершимо перевіряти твої матеріали, -- додав Дамблдор, -- ти можеш
тренувати часткову трансфігурацію. __Тільки__ скло на сталь і сталь на скло, а
міс Ґрейнджер може спостерігати. Звісно, якщо хтось із вас запідозрить будь-які
симптоми будь-якої форми трансфігураційної хвороби, негайно повідомте
професора.

// 5916
//Just before Harry left the workroom, with his hand on the doorhandle, the boy
//turned back and said, “As long as we’re here, have either of you noticed
//anything different about Professor Snape?”
І коли вже Гаррі майже вийшов з робочої кімнати, а його рука була на дверній
ручці, хлопець озирнувся й запитав:

-- Доки ми всі тут, чи не помітив хтось з вас чогось незвичного від професора Снейпа?

// 5917
//“Different?” said the Headmaster.
-- Незвичного? -- запитав директор.

// 5918
//Minerva didn’t let her wry smile show on her face. Of course the boy was
//apprehensive about the ‘evil Potions Master’, since he had no way of knowing
//why Severus was to be trusted. It would have been odd to say the least,
//explaining to Harry that Severus was still in love with his mother.
Мінерва стримала суху посмішку. Звісно, хлопець передчуває недобре від
"`Злого професора настійок`", адже він ніяк не може знати, чому Северусові
можна довіряти. Було б принаймні дивно пояснювати Гаррі, що Северус досі
кохає його матір.

// 5919
//“I mean, has his behavior changed recently in any way?” said Harry.
-- Я маю на увазі, чи його поведінка якось змінилася останнім часом?

// 5920
//“Not that I have seen…” the Headmaster said slowly. “Why do you ask?”
-- Я такого не помічав, -- повільно відповів директор. -- Чому ти питаєш?

// 5921
//Harry shook his head. “I don’t want to prejudice your own observations by
//saying. Just keep an eye out, maybe?”
Гаррі похитав головою.

-- Не хотілося б псувати ваші спостереження, створивши упередження своєю
думкою. Просто будьте пильними, добре?

// 5922
//That sent a quiver of unease through Minerva in a way that no outright
//accusation of Severus could have.
Від цих слів у Мінерви пробігли спиною мурахи -- жодне пряме звинувачення
Северуса не досягло б такого ефекту.

// 5923
//Harry bowed to both of them respectfully, and took his leave.
Гаррі з повагою вклонився їм обом та пішов.

***

// 5924
//“Albus,” Minerva said after the boy had gone, “how did you __know__ to
//take Harry seriously? I would have thought his idea merely impossible!”
-- Албусе, -- сказала Мінерва, коли хлопець пішов, -- звідки ти __знав__, що
Гаррі треба сприймати серйозно? Я б подумала, що його ідея просто неможлива!

// 5925
//The old wizard’s face turned grave. “The same reason it must be kept secret,
//Minerva. The same reason I told you to come to me, if Harry made any such
//claim. Because it is a power that Voldemort knows not.”
Лице старого чарівника посуворішало.

-- З тієї ж причини, чому треба це зберігати в таємниці, Мінерво. З тієї ж
причини, чому я сказав тобі приходити одразу до мене, якщо Гаррі стверджуватиме
щось подібне. Бо це сила, якої Волдеморт не відає.

// 5926
//The words took a few seconds to sink in.
Вона усвідомила слова за декілька секунд.

// 5927
//And then the cold shiver went down her spine, as it always did when she
//remembered.
І мороз пробіг її шкірою, як і завжди, коли вона згадувала.

// 5928
//It had started out as an ordinary job interview, Sybill Trelawney applying for
//the position of Professor of Divination.
Усе починалося, як звичайна співбесіда на роботу, Сивіла Трелоні хотіла отримати
посаду професорки з віщування.

// 5929
//__THE ONE WITH THE POWER TO VANQUISH THE DARK LORD APPROACHES,__
// hedrok: #пророцтво
__НАБЛИЖАЄТЬСЯ ТОЙ, ХТО ЗМОЖЕ ПЕРЕМОГТИ ТЕМНОГО ЛОРДА,__

// 5930
//__BORN TO THOSE WHO HAVE THRICE DEFIED HIM,__
__НАРОДЖЕНИЙ У РОДИНІ ТИХ, ХТО ТРИЧІ КИДАВ ЙОМУ ВИКЛИК,__

// 5931
//__BORN AS THE SEVENTH MONTH DIES,__
__НАРОДЖЕНИЙ НАПРИКІНЦІ СЬОМОГО МІСЯЦЯ,__

// 5932
//__AND THE DARK LORD WILL MARK HIM AS HIS EQUAL,__
__І ТЕМНИЙ ЛОРД ПОЗНАЧИТЬ ЙОГО ЯК РІВНОГО СОБІ,__

// 5933
//__BUT HE WILL HAVE POWER THE DARK LORD KNOWS NOT,__
__АЛЕ ВІН ВОЛОДІТИМЕ СИЛОЮ, ЯКОЇ ТЕМНИЙ ЛОРД НЕ ВІДАЄ,__

// 5934
//__AND EITHER MUST DESTROY ALL BUT A REMNANT OF THE OTHER,__
__І КОЖНИЙ МУСИТЬ ЗНИЩИТИ ВСЕ, КРІМ ЗАЛИШКУ ІНШОГО,__

// 5935
//__FOR THOSE TWO DIFFERENT SPIRITS CANNOT EXIST IN THE SAME WORLD.__
__БО РАЗОМ ЦІ ДВА РІЗНІ ДУХИ НЕ МОЖУТЬ ІСНУВАТИ В ОДНОМУ СВІТІ.__

// 5936
//Those dreadful words, spoken in that terrible booming voice, didn’t seem to fit
//something like partial Transfiguration.
Ці страхітливі слова, що були вимовлені жахливим гулким голосом, якось не пасували
до часткової трансфігурації.

// 5937
//“Perhaps not, then,” Dumbledore said after Minerva tried to explain. “I confess
//I had been hoping for something that would help in finding Voldemort’s horcrux,
//wherever he may have hidden it. But…” The old wizard shrugged. “Prophecies are
//tricky things, Minerva, and it is best to take no chances. The smallest thing
//may prove decisive if it remains unexpected.”
-- Ну, може й ні, -- сказав Дамблдор після спроби Мінерви пояснити. -- Зізнаюся, що я
сподівався на щось, що допоможе нам знайти горокракс Волдеморта, хай де він
захований. Але... -- старий чарівник знизав плечима. -- Пророцтва -- заплутані
штуки, Мінерво, і краще не ризикувати. Найдрібніша річ може виявитися
вирішальною, якщо вона залишається неочікуваною.

// 5938
//“And what do you suppose he meant about __Severus?__” said Minerva.
-- А що він мав на увазі про __Северуса__? -- запитала Мінерва.

// 5939
//“There I have no idea,” sighed Dumbledore. “Unless Harry is making a move
//against Severus, and thought that an open question might be taken seriously
//where a direct allegation would be dismissed. And if that was indeed what
//happened, Harry correctly reasoned that I would not trust that it was so. Let
//us simply keep watch, without prejudice, as he asks.”
-- Тут я гадки не маю, -- зітхнув Дамблдор. -- Хіба що Гаррі зробив хід проти
Северуса і вирішив, що відкрите питання буде сприйнято серйозно, а пряме
голослівне звинувачення просто проігноровано. І якщо сталося саме це, то Гаррі
правильно розрахував, що я не вважатиму, що це так. Просто спостерігаймо, без
упереджень, як він і просив.

***

// 5940
//__Aftermath, 1:__
__Наслідки, 1:__

// 5941
//“Um, Hermione?” Harry said in a very small voice. “I think I owe you a really,
//really, really big apology.”
-- Ем, Герміоно? -- ледь чутно сказав Гаррі. -- Гадаю, я винен тобі дуже, дуже,
дуже велике вибачення.

***

// 5942
//__Aftermath, 2:__
__Наслідки, 2:__

// 5943
//Alissa Cornfoot’s eyes were slightly glazed as she gazed upon the Potions
//Master giving her class a stern lecture, holding up a tiny bronze bean and
//saying something about screaming puddles of human flesh. Ever since the start
//of this year she’d been having trouble listening in Potions. She kept staring
//at their awful, mean, greasy professor and fantasizing about special
//detentions. There was probably something really __wrong__ with her but she
//just couldn’t seem to stop doing it -
Очі Аліси Корнфут трохи потьмяніли, доки вона роздивлялася майстра
зіллєваріння, що, високо тримаючи дрібненький
бронзовий біб, суворо щось казав її класу про якісь волаючі калюжі людської плоті.
Відколи почався цей рік, їй було складно слухати на настійках. Вона
безперестанно витріщалася на їхнього жахливого, злого, брудного професора та
фантазувала про особливі покарання. Напевно з нею щось було справді __не так__,
проте вона, видається, просто не могла припинити це...

// 5944
//“Ow!” Alissa said then.
-- Ай! -- вигукнула Аліса.

// 5945
//Snape had just flicked the bronze bean unerringly at Alissa’s forehead.
Снейп щойно влучно кинув бобом їй у лоба.

// 5946
//“Miss Cornfoot,” said the Potions Master, his voice cutting, “this is a
//delicate potion and if you cannot pay attention you will hurt your classmates,
//not just yourself. See me after class.”
-- Міс Корнфут, -- різко сказав майстер настійок, -- це витончене зілля, і якщо
ви не можете приділити увагу, то ви нашкодите своїм однокласникам, а не тільки
собі. Залиштеся після заняття.

// 5947
//The last four words didn’t help her any, but she tried harder, and managed to
//get through the day without melting anyone.
Останні три слова зовсім не допомогли, проте вона дуже старалася й упоралася
пережити день, нікого не розплавивши.

// 5948
//After class, Alissa approached the desk. Part of her wanted to stand there
//meekly with her face abashed and her hands clasped penitently behind her back,
//just in case, but some quiet instinct told her this might be a __bad
//idea__. So instead she just stood there with her face neutral, in a posture that
//was very proper for a young lady, and said, “Professor?”
Після заняття Аліса підійшла до стола. Якась її частина хотіла покірно стати
там зі сконфуженим обличчям та покаянно закласти руки за спину -- про всяк
випадок, але якийсь тихий інстинкт підказував їй, що це __погана ідея__. Тому
вона натомість просто стала з нейтральним виразом обличчя, і прийняла позу, що
дуже личила чемній юній леді.

-- Професоре? -- сказала вона.

// 5949
//“Miss Cornfoot,” Snape said without looking up from the sheets he was grading,
//“I do not return your affections, I begin to find your stares disturbing, and
//you will restrain your eyes henceforth. Is that quite clear?”
-- Міс Корнфут, -- сказав Снейп, не підводячи погляду зі сторінок, на яких він
проставляв оцінки. -- Ваші почуття не взаємні, і мене починають непокоїти ваші
витріщання, тому віднині ви стримуватимете свої очі. Це зрозуміло?

// 5950
//“Yes,” said Alissa in a strangled squeak, and Snape dismissed her, and she fled
//the classroom with her cheeks flaming like molten lava.
-- Так, -- придушено пискнула Аліса.

Снейп її відпустив, і вона кинулася з кімнати. Її щоки палали, мов розплавлена
лава.
