// 7320
//== The Cardinal Sin
== Розділ 38. Смертний гріх

// 7321
//Bright the sun, bright the air, bright the students and bright their parents,
//clean the paved ground of Platform 9.75, the winter Sun hanging low in the sky
//at 9:45AM in the morning on January 5th, 1992. Some of the younger students
//wore scarves and mittens, but most simply wore their robes; they were wizards,
//after all.
Сонце яскраве, повітря чисте, учні радісні, як і їхні батьки, брукована платформа
девʼять і сімдесят пʼять сотих чиста, зимове сонце висить низько в небі, за чверть
десята ранку пʼятого січня 1992 року. Деякі молодші учні були в шарфах та
рукавичках, проте більшість була лише в мантіях. Зрештою, вони чарівники.

// 7322
//After Harry had moved away from the landing platform, he took off his scarf and
//coat, opened a compartment of his trunk, and stowed away his winter things.
Коли Гаррі вийшов з посадкової платформи, він зняв шарф та пальто, відкрив
відділення своєї валізи та запхав туди зимові речі.

// 7323
//For a long moment, he stood there letting the January air bite at him, just to
//see what it was like.
Деякий час він просто стояв і мерз у січневому повітрі -- просто щоб знати, як
воно.

// 7324
//Harry took out his wizards’ robes, shrugged them on.
Тоді він дістав мантію чарівника й натягнув її.

// 7325
//And finally, Harry drew his wand; and he couldn’t help thinking of the parents
//he’d only just kissed goodbye, of the world whose problems he was leaving
//behind…
І нарешті Гаррі дістав свою паличку. Він не міг не думати про батьків, яких він
щойно поцілував на прощання, про світ, чиї проблеми він залишав позаду...

// 7326
//With a strange feeling of guilt for the unavoidable, Harry said,
//“__Thermos.__”
З дивним відчуттям провини за неминуче, Гаррі сказав: "`__Термос__`".

// 7327
//The warmth flowed through him.
Тепло наповнило його тіло.

// 7328
//And the Boy-Who-Lived was back.
І Хлопчик-Що-Вижив повернувся.

// 7329
//Harry yawned and stretched, feeling more lethargic than anything else at the
//conclusion of his vacation. He didn’t feel like reading his textbooks, or even
//any serious science fiction, this morning; what he needed was something
//completely frivolous to occupy his attention…
Гаррі позіхнув та потягнувся, наприкінці канікул його стан найвлучніше
описувало слово "`апатія`". Зранку йому не хотілося читати підручники чи навіть
серйозну наукову фантастику. Йому хотілося чогось цілковито розважального,
щоб відволіктися...

// 7330
//Well, that wouldn’t be hard to come by, if he was willing to part with four
//Knuts.
Ну, таке нескладно знайти, якщо готовий розпрощатися з чотирма кнатами.

// 7331
//Besides, if the __Daily Prophet__ was corrupt and the __Quibbler__
//was the only competing newspaper, there might be some suppressed real news in
//there.
Крім того, якщо "`Щоденний віщун`" був корумпованим, а "`Базікало`" був єдиною
конкуруючою газетою, то там навіть могли бути справжні новини, що їх придушили
в іншій газеті.

// 7332
//Harry trudged back over to the same newsstand from last time, wondering if the
//__Quibbler__ could top the headline he’d seen before.
Гаррі поплентався до тієї ж стійки з новинами, що й минулого разу. Йому було
цікаво, чи вдасться "`Базікалу`" перевершити попередній заголовок.

// 7333
//The vendor started to smile as Harry approached, and then the man’s face
//suddenly changed, as he caught sight of the scar.
Торговець почав усміхатися, коли побачив наближення Гаррі, а потім раптом
його лице змінилося, коли він помітив шрам.

// 7334
//“__Harry Potter?__” gasped the vendor.
-- __Гаррі Поттер?__ -- задихаючись запитав продавець.

// 7335
//“No, Mr. Durian,” said Harry, eyes dipping briefly to the man’s nametag, “just
//an amazing imitation -”
-- Ні, містере Дуріан, -- сказав Гаррі, ненадовго поглянувши на нагрудний знак
чоловіка, -- лише неймовірна імітація...

// 7336
//And then Harry’s voice stopped in his throat, as he caught sight of the top
//fold of the __Quibbler.__
Гаррі затнувся, щойно побачив верхню частину складеного "`Базікала`".

// 7337
//__SLOSHED SEER SPILLS SECRETS:__
__ПРОВИДИЦЯ НАБРАЛАСЯ ТА ВИДАЄ ТАЄМНИЦІ:__

// 7338
//__DARK LORD TO RETURN,__
__ТЕМНИЙ ЛОРД ПОВЕРНЕТЬСЯ,__

// 7339
//For just an instant, Harry tried to clamp down on his face, before realizing
//that __not__ being shocked could be just as revealing, in a sense -
Мить Гаррі намагався не виказувати емоцій на обличчі, доки не усвідомив, що
якщо __не буде__ шокованим, то це насправді теж може його видати...

// 7340
//“Excuse me,” Harry said. His voice sounded a little alarmed, and he didn’t even
//know whether that was too revealing, or just what his normal reaction
//__would__ be if he didn’t know anything. He’d spent too much time around
//Slytherins, he was forgetting how to keep secrets from ordinary people. Four
//Knuts hit the counter. “One copy of the __Quibbler,__ please.”
-- Перепрошую, -- сказав Гаррі.

Його голос був трохи занепокоєним, і він навіть не знав, чи видає це щось. Не
знав, __якою__ була б реакція, якби він нічого не знав. Він надто багато часу
був зі слизеринцями, він уже забував, як зберігати таємниці від звичайних
людей. Чотири кнати стукнули по прилавку.

-- Один примірник "`Базікала`", будь ласка.

// 7341
//“Oh, no worries, Mr. Potter!” said the vendor hastily, waving his hands. “It’s
//- never mind, just -”
-- О, не варто, містере Поттер! -- квапливо сказав торговець, махаючи руками.
-- Це -- не зважайте, просто...

// 7342
//A newspaper flew through the air and hit Harry’s fingers, and he unfolded it.
Газета пролетіла повітрям та вдарила пальці Гаррі, і він розгорнув її.

// 7343
//__SLOSHED SEER SPILLS SECRETS:__
__ПРОВИДИЦЯ НАБРАЛАСЯ ТА ВИДАЄ ТАЄМНИЦІ:__

// 7344
//__DARK LORD TO RETURN,__
__ТЕМНИЙ ЛОРД ПОВЕРНЕТЬСЯ,__

// 7345
//__WED DRACO MALFOY__
__ОДРУЖЕНИЙ ДРАКО МЕЛФОЙ__

// 7346
//“It’s free,” said the vendor, “for __you__, I mean -”
-- Це безкоштовно, -- сказав торговець, -- для __вас__, тобто...

// 7347
//“No,” Harry said, “I was going to buy one anyway.”
-- Ні, -- сказав Гаррі, -- я все одно збирався її купити.

// 7348
//The vendor took the coins, and Harry read on.
Торговець забрав монети, а Гаррі читав далі.

// 7349
//“Gosh,” Harry said half a minute later, “you get a seer smashed on six slugs of
//Scotch and she spills all __sorts__ of secret stuff. I mean, who’d have
//thought that Sirius Black and Peter Pettigrew were secretly the same person?”
-- Господи, -- сказав Гаррі за пів хвилини, -- даєш провидиці шість ковтків віскі,
і вона вибовкує __найрізноманітніші__ таємниці. Я маю на увазі, хто б міг подумати,
що Сіріус Блек та Пітер Петіґру -- це насправді одна людина?

// 7350
//“Not me,” said the vendor.
-- Не я, -- відповів торговець.

// 7351
//“They’ve even got a picture of the two of them together, so we know who it is
//that’s secretly the same person.”
-- Вони навіть надрукували світлину, де вони вдвох разом, щоб ми знали, хто
насправді таємно одна людина.

// 7352
//“Yup,” said the vendor. “Pretty clever disguise, innit?”
-- Ага, -- сказав торговець. -- Маскування вражає, правда?

// 7353
//“And I’m secretly sixty-five years old.”
-- А ще мені таємно шістдесят пʼять років.

// 7354
//“You don’t look half that,” the vendor said amiably.
-- Я не дав би вам і половини цього, -- привітно сказав торговець.

// 7355
//“And I’m betrothed to Hermione Granger, __and__ Bellatrix Black,
//__and__ Luna Lovegood, and oh yes, Draco Malfoy too…”
-- А ще я заручений з Герміоною Ґрейнджер, __і__ Белатрисою Блек, __і__ Луною
Лавґуд, і ну звісно, з Драко Мелфоєм теж...

// 7356
//“Goin’ ter be one interesting wedding,” said the vendor.
-- Оце так весіллячко буде, -- сказав торговець.

// 7357
//Harry looked up from the newspaper, and said in a pleasant voice, “You know, I
//heard at first that Luna Lovegood was insane, and I wondered if she really was,
//or if she was just making stuff up and giggling to herself the whole time. Then
//when I read my second __Quibbler__ headline, I decided that she
//__couldn’t__ be insane, I mean, it can’t be __easy__ to make this
//stuff up, you couldn’t do it by __accident__. And __now__ do you know
//what I think? I think she must be mad after all. When ordinary people try to
//make stuff up, it doesn’t come out like __this__. Something’s got to go
//really __wrong__ with the inside of your head before __this__ is what
//comes out when you start making stuff up!”
Гаррі підвів погляд з газети й сказав приємним голосом:

-- Знаєте, коли я вперше почув, що Луна Лавґуд божевільна, то засумнівався:
це справді так, чи вона просто вигадує це все й хихикає весь час. Потім, коли я
прочитав другий заголовок "`Базікала`", то вирішив, що вона __просто не може__
бути божевільною -- вигадувати таке не може бути __легко__, неможливо зробити
це __випадково__. А __тепер__ знаєте, що я думаю? Я вважаю, що вона все ж таки
несповна розуму. Коли нормальна людина намагається щось вигадати, то __такого__
не виходить. Щось справді __неправильне__ має відбуватися в тебе в голові, щоб
__отаке__ виходило, коли ти починаєш вигадувати!

// 7358
//The vendor stared at Harry.
Торговець витріщився на Гаррі.

// 7359
//“Seriously,” said Harry. “Who __reads__ this stuff?”
-- Ну серйозно, -- сказав Гаррі. -- __Хто__ читає цю маячню?

// 7360
//“You,” said the vendor.
-- Ти, -- сказав продавець.

// 7361
//Harry wandered off to read his newspaper.
Гаррі відійшов, щоб почитати газету.

// 7362
//He didn’t sit at the same nearby table he’d sat down at with Draco, the
//__first__ time he’d prepared to board this train. That seemed like
//tempting history to repeat itself.
Він не сів за той самий столик поряд, де вони з Драко сіли __першого__ разу,
коли готувалися сісти на потяг. Йому не хотілося спокушати долю -- раптом все
повториться.

// 7363
//It wasn’t __just__ that his first week at Hogwarts had been, judging by
//the __Quibbler__, fifty-four years long. It was that, in Harry’s humble
//opinion, his life did not __need__ any new threads of complexity.
Проблема була навіть не в тому, що згідно з "`Базікалом`" його перший тиждень у
Гоґвортсі тривав пʼятдесят чотири роки. А в тому, що на неавторитетну думку
Гаррі, його життя __не потребувало__ жодних нових рівнів складнощів.

// 7364
//So Harry found a small iron chair somewhere else, distant from the main crowd
//and the occasional muffled cracks of parents Apparating in with their children,
//and sat down and read the __Quibbler__ to see if it contained any
//suppressed news.
Тому Гаррі знайшов невеличкий залізний стілець деінде -- далеко від
натовпу й частих приглушених лясків явлення батьків з дітьми, і він сів
почитати "`Базікало`", щоб побачити, чи є там якісь придушені новини.

// 7365
//And besides the obvious craziness (heaven help them all if any of __that__
//was real) there was a good deal of snide romantic gossip; but nothing that
//would really be all that __important__ if it was true.
Крім очевидного божевілля (хай допоможе їм небо, якщо щось із __цього__ було
правдою), газета містила чимало фальшивих романтичних чуток, але нічого, що
було б справді __важливим__, якби було правдою.

// 7366
//Harry was just reading about the Ministry’s proposed marriage law, to ban all
//marriages, when -
Гаррі саме читав про запропонований міністерством закон про шлюби -- заборонити
всі шлюби, -- коли...

// 7367
//“Harry Potter,” said a silken voice that sent a shock of adrenaline jolting
//through Harry’s blood.
-- Гаррі Поттер, -- пролунав шовковий голос, що наповнив кров Гаррі
адреналіном.

// 7368
//Harry looked up.
Гаррі підвів погляд.

// 7369
//“Lucius Malfoy,” Harry said, his voice weary. Next time he was going to do the
//smart thing, and wait outside in the Muggle part of King’s Cross until 10:55am.
-- Луціус Мелфой, -- втомлено сказав Гаррі. Наступного разу він вчинить
розумно: зачекає зовні у маґлівській частині вокзалу Кінґс-Крос до десятої
пʼятдесят пʼять.

// 7370
//Lucius inclined his head courteously, sending his long white hair drifting over
//his shoulders. The man was still carrying that same cane, lacquered in black
//with a silver snake’s head for its handle; and something about his grip
//silently said __this is a weapon of deadly power,__ not __I am
//feeble and leaning on this.__ His face was expressionless.
Луціус ввічливо нахилив голову, його довге біле волосся накрило його плечі.
Чоловік досі був з тим же лакованим чорним ціпком з держаком у формі срібної
змії. Щось у його хватці без слів казало __це смертельна зброя__, а не __я слабкий
та спираюся на це__. Його обличчя було нейтральним.

// 7371
//Two men flanked him, their eyes continuously scanning, their wands already
//gripped low in their hands. The two of them moved like a single organism with
//four legs and four arms, the senior Crabbe-and-Goyle, and Harry thought he
//could guess which was which, but then it didn’t really matter. They were merely
//Lucius’s appendages, as certainly as if they’d been the two rightmost toes on
//his left foot.
Два чоловіки розташовувалися обабіч від нього, їхні очі постійно роззиралися,
вони низько тримали палички. Вони рухалися мов єдиний організм з чотирма ногами
й чотирма руками -- старші Креб та Ґойл, і Гаррі навіть гадав, що може вгадати,
хто є хто, але це насправді не мало значення. Вони були лише додатками до
Луціуса -- не більше, ніж два найправіші пальці його лівої ноги.

// 7372
//“I apologize for disturbing you, Mr. Potter,” said the smooth, silken voice.
//“But you have answered none of my owls; and this, I thought, might be my only
//opportunity to meet you.”
-- Перепрошую, що турбую вас, містере Поттер, -- промовив мʼякий, шовковий голос.
-- Проте ви не відповіли на жодну з моїх сов. І це, подумав я, може бути моєю
єдиною можливістю зустрітися з вами.

// 7373
//“I have received none of your owls,” Harry said calmly. “Dumbledore intercepted
//them, I presume. But I would not have answered them if I had, except through
//Draco. For me to deal with you directly, without Draco’s knowledge, would
//trespass on our friendship.”
-- Я не отримував від вас жодної сови, -- спокійно сказав Гаррі. -- Я так
розумію їх перехоплював Дамблдор. Але я б не відповів на них, навіть якби
отримав, хіба що через Драко. Для мене спілкуватися з вами напряму без відома
Драко означає порушення нашої дружби.

// 7374
//__Please go away, please go away…__
__Будь ласка, іди геть, будь ласка, іди геть.__

// 7375
//The grey eyes glittered at him. “Is that your pose, then…” said the senior
//Malfoy. “Well. I shall play along a little. What was your purpose in
//maneuvering your good friend, my son, into a public alliance with that girl?”
Сірі очі зблиснули.

-- То он в яку гру ви граєте... -- сказав старший Мелфой. -- Гаразд, я трохи
пограю з вами. Навіщо ви змусили свого чудового друга, мого сина, публічно
заявити про союз з цією дівчиною?

// 7376
//“Oh,” Harry said lightly, “that’s obvious, right? Draco’s working with Granger
//will make him realize that Muggleborns are human after all. Bwa. Ha. Ha.”
-- О, -- легковажно сказав Гаррі, -- це ж очевидно, хіба ні? Драко
співпрацюватиме з Ґрейнджер та зрозуміє, що чаклуни маґлівського роду, зрештою,
теж люди. Ва. Ха. Ха.

// 7377
//A thin trace of a smile moved over Lucius’s lips. “Yes, that does sound like
//one of Dumbledore’s plans. Which it is __not__.”
Тонка усмішка ледве виднілася на губах Луціуса.

-- Так, це скидається на один з планів Дамблдора. Але ним __не є__.

// 7378
//“Indeed,” said Harry. “It is part of my game with Draco, and no work of
//Dumbledore’s, and that is all I will say.”
-- Дійсно, -- сказав Гаррі. -- Це частина моєї гри з Драко, а не результат
дій Дамблдора, і більшого я не скажу.

// 7379
//“Let us dispense with games,” said the senior Malfoy, the grey eyes suddenly
//hardening. “If my suspicions are true, you would hardly do Dumbledore’s bidding
//in any case, __Mr. Potter.__”
-- Відкиньмо ці ігри, -- сказав старший Мелфой, його сірі очі раптом посуворішали.
-- Якщо мої підозри правильні, то ви все одно жодним чином не грали б на руку
Дамблдорові, __містере Поттер__.

// 7380
//There was a slight pause.
Ненадовго запанувала тиша.

// 7381
//“So you know,” Harry said, his voice cold. “Tell me. At which point, exactly,
//did you realize?”
-- То ви знаєте, -- холодно сказав Гаррі. -- Скажіть, коли саме ви зрозуміли?

// 7382
//“When I read your response to Professor Quirrell’s little speech,” said the
//white-haired man, and chuckled grimly. “I was puzzled, at first, for it seemed
//not in your own interest; it took me days to understand whose interest was
//being served, and then it all finally became clear. And it is also obvious that
//you are weak, in some ways if not others.”
-- Коли прочитав вашу відповідь на невеличку промову професора Квірела, --
сказав біловолосий чоловік та зло хихикнув. -- Спочатку я був спантеличений, бо
мені здавалося, що це було не у ваших власних інтересах. Лише декілька днів
потому я збагнув, у чиїх інтересах була ваша відповідь, і нарешті все стало
зрозуміло. А також очевидно, що ви слабкий, принаймні частково.

// 7383
//“Very clever of you,” said Harry, still cold. “But perhaps you mistake my
//interests.”
-- Дуже кмітливо, -- так само холодно сказав Гаррі. -- Але, можливо, ви
помиляєтеся щодо моїх інтересів.

// 7384
//“Perhaps I do.” A hint of steel came into the silken voice. “Indeed, that is
//precisely what I fear. You are playing strange games with my son, to a purpose
//I cannot guess. That is not a friendly act, and you cannot but __expect__
//me to be concerned!”
-- Можливо, так, -- у шовковому голосі почулися сталеві нотки. -- Дійсно, саме
цього я й боюся. Ви граєте в дивні ігри з моїм сином, і про вашу мету я
навіть не здогадуюся. Це недружньо, і ви не можете __очікувати__, що я не буду
непокоїтися!

// 7385
//Lucius was leaning upon his cane with both hands now, and both those hands
//white, and his bodyguards had suddenly tensed.
Тепер Луціус спирався на свій ціпок обома побілілими руками, а його охоронці
раптом напружилися.

// 7386
//Some instinct within Harry claimed that it would be a very bad idea to show his
//fear, to let Lucius see that he could be intimidated. They were in a public
//train station anyway -
Якийсь внутрішній голос Гаррі стверджував, що показувати зараз страх буде вкрай
поганою ідеєю. Не можна дозволяти Луціусові побачити, що його можна залякати. Та
й все одно вони були на людній залізничній станції...

// 7387
//“I find it interesting,” Harry said, putting steel into his own voice, “that
//you think I could benefit from doing Draco harm. But it is irrelevant, Lucius.
//__He__ is my friend, and I do not betray my friends.”
-- Мені здається дивним, -- сказав Гаррі, намагаючись зробити й свій голос
сталевим, -- що ви вважаєте, ніби мені може бути корисною якась шкода для
Драко. Але це неважливо, Луціусе. __Він__ мій друг, а я друзів не зраджую.

// 7388
//“__What?__” whispered Lucius. His face showed sheer shock.
-- __Що?__ -- прошепотів Луціус. Його обличчя переповнював подив.

// 7389
//Then -
А тоді...

// 7390
//“Company,” said one of the minions, and Harry thought, from the voice, that it
//must be the senior Crabbe.
-- Гості, -- сказав один з посіпак, і Гаррі здалося, що це був старший Креб,
судячи з голосу.

// 7391
//Lucius straightened and turned, then let out a hiss of disapproval.
Луціус випростався й обернувся, та видав несхвальне шипіння.

// 7392
//Neville was approaching, looking scared but determined, in tow behind a tall
//woman who didn’t look scared at all.
Наближався Невіл. Він здавався переляканим, проте рішучим, він йшов слідом за високою
жінкою, що не була анітрохи наляканою.

// 7393
//“Madam Longbottom,” Lucius said icily.
-- Мадам Лонґботом, -- льодяним тоном сказав Луціус.

// 7394
//“Mr. Malfoy,” returned the woman with equal ice. “Are you being an annoyance to
//our Harry Potter?”
-- Містере Мелфой, -- таким самим тоном відповіла жінка. -- Чи не набридаєте ви
нашому Гаррі Поттеру?

// 7395
//The bark of laughter that came from Lucius seemed strangely bitter. “Oh, I
//rather think not. Come to protect him from me, have you?” The white-haired head
//shifted toward Neville. “And this would be Mr. Potter’s loyal lieutenant, the
//last scion of Longbottom, Neville, self-styled of Chaos. How strangely does the
//world turn. Sometimes I think it must all be mad.”
Луціус на диво гірко реготнув.

-- О, дуже сумніваюся. Прийшли захистити його від мене, чи не так? --
біловолосий чоловік обернувся до Невіла. -- А це, певно, вірний лейтенант
містера Поттера, останній нащадок Лонґботомів, Невіл, як він себе називає, з
Хаосу. Який же наш світ дивний. Інколи мені здається, що навіть божевільний.

// 7396
//Harry had no idea at all what to say to that, and Neville looked confused, and
//frightened.
Гаррі гадки не мав, що на це відповісти, а Невіл здавався спантеличеним та
наляканим.

// 7397
//“I doubt it is the world that is mad,” said Madam Longbottom. Her voice took on
//a gloating tone. “You seem in a poor mood, Mr. Malfoy. Did the speech of our
//dear Professor Quirrell cost you a few allies?”
-- Сумніваюся, що це світ божевільний, -- сказала мадам Лонґботом. Її голос
став насмішкуватим. -- Видається, ви в поганому настрої, містере Мелфой.
Промова нашого любого професора Квірела позбавила вас декількох союзників?

// 7398
//“It was a clever enough slander of my abilities,” Lucius said coldly, “though
//only effective upon the fools who believe that I was truly a Death Eater.”
-- Це був доволі розумний наклеп на мої здібності, -- холодно сказав Луціус, --
хоча він міг подіяти лише на тих дурнів, що вірять у те, що я справді був
смертежером.

// 7399
//“__What?__” blurted Neville.
-- __Що?__ -- бовкнув Невіл.

// 7400
//“I was under the __Imperius,__ young man,” said Lucius, now sounding
//tired. “The Dark Lord could hardly have begun recruiting among pureblood
//families without the support of House Malfoy. I demurred, and he simply made
//sure of me. His own Death Eaters did not know it until afterward, hence the
//false Mark I bear; though since I did not truly consent, it does not bind me.
//Some of the Death Eaters still believe I was foremost among their number, and
//for the peace of this nation I let them believe it, to keep them controlled.
//But I was not such a fool as to support that ill-fated adventurer of my own
//choice -”
-- Я був під дією "`Імперіуса`", юначе, -- стомлено сказав Луціус. -- Темному
Лордові навряд чи вдалося б бодай почати вербувати чистокровні родини без
підтримки дому Мелфоїв. Я відхилив його пропозицію, тому він просто змусив мене.
Його власні смертежери дізналися про це лише опісля, тому я й ношу цю хибну
мітку. Хоча через те, що я не давав справжньої згоди, вона насправді не
зобовʼязує мене. Деякі смертежери досі вірять, що я їхній лідер, і заради миру
нашої країни я дозволяю їм вірити в це, щоб контролювати їх. Але я не був таким
дурним, щоб підтримувати цього нещасливого пройдисвіта з власної волі...

// 7401
//“Ignore him,” Madam Longbottom said, the instruction addressed to Harry as well
//as Neville. “He must spend the rest of his life pretending, for fear of your
//testimony under Veritaserum.” Said with malicious satisfaction.
-- Не зважайте, -- сказала мадам Лонґботом Гаррі та Невілові. -- Він змушений
до кінця життя прикидатися через страх перед вашими свідченнями під сироваткою
правди, -- її голос сповнювала зловтіха.

// 7402
//Lucius turned his back on her dismissively, and faced Harry again. “Will you
//request this harridan to depart, __Mr. Potter?__”
Луціус повернувся до неї спиною та знову звернувся до Гаррі:

-- Чи не попросите ви цю стару каргу піти, __містере Поттер?__

// 7403
//“I think not,” said Harry in a dry voice. “I prefer to deal with the part of
//House Malfoy that’s my own age.”
// hedrok: @ якщо хтось знає, про що тут йдеться - скажіть, будь ласочка.
// https://www.reddit.com/r/HPMOR/comments/60cm4x/what_convinced_lucius_and_why_spoilers_all/?st=j87r0u9z&sh=5b73ba15
-- Гадаю, ні, -- сухо сказав Гаррі. -- Я бажаю вести справи з частиною дому
Мелфоїв мого віку.

// 7404
//There was a long pause, then. The grey eyes searched him.
Надовго запанувала тиша. Сірі очі роздивлялися його.

// 7405
//“Of course…” said Lucius slowly. “I __do__ feel the fool now. This whole
//time you were just pretending to have no idea what we were talking about.”
-- Ну звісно... -- повільно сказав Луціус. -- Тепер я почуваюся __дурнем__.
Увесь цей час ви лише вдавали, що гадки не маєте, про що йдеться.

// 7406
//Harry met the gaze, and said nothing.
Гаррі зустрів його погляд, проте нічого не сказав.

// 7407
//Lucius raised his cane a few centimeters and struck it hard on the ground.
Луціус підняв свій ціпок на кілька сантиметрів та сильно вдарив ним об землю.

// 7408
//The world vanished in a pale haze, all sounds went quiet, there was nothing in
//the universe but Harry and Lucius Malfoy and the snake-headed cane.
Світ зникнув у сірій імлі, усі звуки вщухли, у всесвіті не залишилося нічого
крім Гаррі, Луціуса Мелфоя та ціпка з держаком у формі зміїної голови.

// 7409
//“My son is my heart,” said the senior Malfoy, “the last worthwhile thing I have
//left in this world, and this I say to you in a spirit of friendship: if he were
//to come to harm, I would give my life over to vengeance. But so long as my son
//does __not__ come to harm, I wish you the best of luck in your endeavors.
//And as you have asked nothing more of me, I will ask nothing more of you.”
-- Мій син -- це моє серце, -- сказав старший Мелфой, -- останнє в цьому світі,
що має для мене сенс. І ось моє дружнє застереження: якщо він зазнає шкоди, то
я присвячу решту життя помсті. Але доки він __не__ зазнає шкоди, я бажаю вам
успіхів у всіх ваших починаннях. І оскільки ви не просили від мене більшого, то
і я не проситиму вас ні про що.

// 7410
//Then the pale haze vanished, showing an outraged Madam Longbottom being blocked
//from moving forward by the senior Crabbe; her wand was in her hand, now.
Тоді сіра імла зникла, і зʼявилася розлючена мадам Лонґботом, що їй не давав
пройти старший Креб. Тепер вона тримала свою паличку в руці.

// 7411
//“How __dare__ you!” she hissed.
-- Як ви __смієте__! -- прошипіла вона.

// 7412
//Lucius’s dark robes swirled around him, and his white hair, as he turned to the
//senior Goyle. “We return to Malfoy Manor.”
Темна мантія та волосся Луціуса закрутилися, коли він повернувся до старшого Ґойла.

-- Ми повертаємося до маєтку Мелфоїв.

// 7413
//There were three pops of Apparition, and they were gone.
Пролунало три звуки явлення, і вони зникли.

// 7414
//A silence followed.
Далі запанувала тиша.

// 7415
//“Dear __heavens__,” said Madam Longbottom. “What was that about?”
-- __О небеса__, -- сказала мадам Лонґботом. -- Що це все було?

// 7416
//Harry shrugged helplessly. Then he looked at Neville.
Гаррі безпорадно знизав плечима. А тоді подивився на Невіла.

// 7417
//There was sweat on Neville’s forehead.
На лобі Невіла видно було крапельки поту.

// 7418
//“Thank you very much, Neville,” said Harry. “Your help was greatly appreciated,
//Neville. And now, Neville, I think you should sit down.”
-- Дуже дякую, Невіле, -- сказав Гаррі. -- Я дуже ціную твою допомогу, Невіле.
А тепер, Невіле, гадаю, тобі варто сісти.

// 7419
//“Yes, General,” said Neville, and instead of coming over to one of the other
//chairs near Harry, he semi-collapsed into a sitting position on the pavement.
-- Так, генерале, -- сказав Невіл, і замість того, щоб підійти до одного зі
стільців поряд з Гаррі, він осів на бруківку.

// 7420
//“You have wrought many changes in my grandson,” said Madam Longbottom. “I
//approve of some, but not others.”
-- Ви призвели до багатьох змін у моєму онукові, -- сказала мадам Лонґботом. --
Деякі з них я схвалюю, проте не всі.

// 7421
//“Send me the list of which is which,” said Harry. “I’ll see what I can do.”
-- Надішліть мені список, які з них які, -- сказав Гаррі. -- Я подивлюся, що
можна зробити.

// 7422
//Neville groaned, but said nothing.
Невіл застогнав, але промовчав.

// 7423
//Madam Longbottom gave a chuckle. “I shall, young man, thank you.” Her voice
//lowered. “Mr. Potter… the speech given by Professor Quirrell is something our
//nation has long needed to hear. I cannot say as much of your comment on it.”
Мадам Лонґботом трохи посміялася.

-- Я так і зроблю, юначе, дякую, -- вона стишила голос. -- Містере Поттер...
Промова професора Квірела -- це те, чого наша нація давно потребувала. Не можу
сказати того ж про ваш коментар до неї.

// 7424
//“I will take your opinion under advisement,” Harry said mildly.
-- Я врахую вашу думку, -- мʼяко сказав Гаррі.

// 7425
//“I dearly hope that you do,” said Madam Longbottom, and turned back to her
//grandson. “Do I still need to -”
-- Я щиро на це сподіваюся, -- сказала мадам Лонґботом та обернулася до свого
онука. -- Чи тобі досі треба, щоб я...

// 7426
//“It’s okay for you to go, Granma,” said Neville. “I’ll be fine on my own, this
//time.”
-- Можеш іти, бабусю, -- сказав Невіл. -- Цього разу зі мною все буде гаразд.

// 7427
//“Now __that__ I approve of,” she said, and popped and vanished like a soap
//bubble.
-- Ось __це__ я схвалюю, -- сказала вона та з ляскотом зникла ніби мильна
бульбашка.

// 7428
//The two boys sat quietly for a moment.
Двоє хлопців трохи посиділи в тиші.

// 7429
//Neville spoke first, his voice weary. “You’re going to try to fix all the
//changes she __approves__ of, right?”
Невіл заговорив перший, його голос був втомленим.

-- Ти збираєшся виправити всі зміни, які вона __схвалює__, так?

// 7430
//“Not __all__ of them,” Harry said innocently. “I just want to make sure
//I’m not corrupting you.”
-- Не __всі__ з них, -- невинно сказав Гаррі. -- Я лише хочу переконатися, що
не псую тебе.

***

// 7431
//Draco looked __very__ worried. His head kept darting around, despite the
//fact that Draco had insisted on them going down into Harry’s trunk, and using a
//true Quieting Charm and not just the sound-blurring barrier.
Драко здавався __вкрай__ стурбованим. Він весь час озирався, незважаючи на те,
що за його наполегливим проханням вони спустилися у валізу Гаррі та використали
справжні чари тиші "`Квієтус`", а не просто барʼєр, що розмиває звуки.

// 7432
//“__What__ did you say to Father?” blurted Draco, the moment the Quieting
//Charm went up and the sounds of Platform 9 3/4 vanished.
-- __Що__ ти сказав батькові? -- випалив Драко, щойно почали діяти "`Квієтус`",
і звуки платформи девʼять і три чверті зникли.

// 7433
//“I… look, can you tell me what he said to __you,__ before he dropped you
//off?” said Harry.
-- Я... слухай, можеш розповісти мені, що він сказав __тобі__ перед тим, як
привів тебе? -- запитав Гаррі.

// 7434
//“That I should tell him right away if you seemed to be threatening me,” said
//Draco. “That I should tell him right away if there was anything __I__ was
//doing that could pose a threat to __you!__ Father thinks you’re
//__dangerous,__ Harry, whatever you said to him today it __scared__
//him! __It’s not a good idea to scare Father!__”
-- Що я маю негайно його повідомити, якщо мені здасться, що ти мені погрожуєш.
Що я маю негайно його повідомити, якщо __я__ зроблю щось, що може загрожувати
__тобі__! Батько вважає тебе __небезпечним__, Гаррі. Хай що ти сказав йому
сьогодні, це __налякало__ його! __Лякати мого батька -- погана ідея!__

// 7435
//__Oh, hell…__
__От прокляття...__

// 7436
//“__What__ did you talk about?” demanded Draco.
-- __Про що__ ви розмовляли? -- вимагав відповіді Драко.

// 7437
//Harry leaned back wearily in the small folding chair that sat at the bottom of
//his trunk’s cavern. “You know, Draco, just as the fundamental question of
//rationality is ‘What do I think I know and how do I think I know it?’, there’s
//also a cardinal sin, a way of thinking that’s the opposite of that. Like the
//ancient Greek philosophers. They had no clue what was going on, so they’d go
//around saying things like ‘All is water’ or ‘All is fire’, and they never asked
//themselves, ‘Wait a minute, even if everything __is__ water, how could I
//possibly __know__ that?’ They didn’t ask themselves if they had evidence
//which discriminated __that__ possibility from all the __other__
//possibilities you could imagine, evidence they’d be very unlikely to encounter
//if the theory __wasn’t__ true -”
// hedrok: копія "What do you think you know and how do you think you know it?"
// у 007:866, 053:9403, 077:13677 та 095:16843
Гаррі стомлено відкинувся на спинку складного стільця, що був на дні
підвального рівня його валізи.

-- Знаєш, Драко, фундаментальним питанням раціональності є "`Що ти знаєш, і як
ти гадаєш, звідки ти це знаєш?`". Але існує також смертельний гріх
раціональності -- тип мислення прямо протилежний їй. Як мислили древньогрецькі
філософи. Вони й гадки не мали, що коїться, тому вони просто ходили й казали
"`усе -- вода`" чи "`усе -- вогонь`" і ніколи не питали себе "`заждіть-но,
навіть якщо все __справді__ вода, звідки я можу про це __знати__?`" Їх не
цікавило, які є докази, що свідчать на корись __цієї__ можливості й проти
__усіх інших__ можливостей, що їх можна уявити, чи свідчення, яких би не
існувало, якби їхня теорія була __хибною__...

// 7438
//“__Harry__,” Draco said, his voice strained, “__What did you talk
//about with Father?__”
-- __Гаррі__, -- Драко ледве стримував емоції, -- __про що ти розмовляв з
батьком?__

// 7439
//“I don’t know, actually,” said Harry, “so it’s very important that I
//__not__ just make stuff up -”
-- Насправді, я не знаю, -- сказав Гаррі, -- тому дуже важливо, щоб я __не__
почав просто вигадувати відповідь...

// 7440
//Harry had never heard Draco shriek in horror in quite that high a pitch before.
Гаррі ще не чув настільки сповненого жаху, високого тону зойку від Драко.
