// 7910
//== Humanism, Pt 1
== Розділ 43. Гуманізм, ч.1

// 7911
//The gentle sun of January shone on the cold fields outside Hogwarts.
Лагідне січневе сонце світило на холодні поля навколо Гоґвортсу.

// 7912
//For some of the students it was a study hour, and others had been let out of
//class. The first-years who’d signed up for it were practicing a certain spell,
//a spell that was most advantageously learned outdoors, beneath the bright sun
//and a clear blue sky, rather than within the confines of any classroom. Cookies
//and lemonade were also considered helpful.
Деякі учні були на заняттях, інших випустили з кабінету -- першачків, що
записалися попрактикуватися певного закляття; закляття, що його легше було опанувати
просто неба, під яскравим сонцем та блакитним небом, ніж у будь-якій класній
кімнаті. Печиво та лимонад також вважалися доречними.

// 7913
//The early gestures of the spell were complex and precise; you twitched your
//wand once, twice, thrice, and four times with small tilts at exactly the right
//relative angles, you shifted your forefinger and thumb exactly the right
//distances…
Початкові жести закляття були складними та вимагали точності. Треба повернути
паличку один, два, три й чотири рази невеличкими нахилами на правильні
відносні кути, посунути вказівний та великий пальці на правильні відстані...

// 7914
//The Ministry thought this meant it was futile to try and teach anyone the spell
//before their fifth year. There had been a few known cases of younger children
//learning it, and this had been dismissed as “genius”.
Цього було достатньо, щоб Міністерство вважало, що немає сенсу навчати когось цього закляття
до пʼятого класу. Були широко відомі декілька випадків, коли молодші діти вивчили його,
проте їх просто назвали "`геніями`".

// 7915
//It might not have been a very polite way of putting it, but Harry was beginning
//to see why Professor Quirrell had claimed that the Ministry Committee of
//Curriculum would have been of greater benefit to wizardkind if they had been
//used as landfill.
Мабуть, це не надто ввічливе формулювання, проте Гаррі починав розуміти, чому
професор Квірел стверджував, що Комітет з Навчальної Програми прислужився б
чаклунському роду краще, якби їх використали як перегній.

// 7916
//So the gestures were complicated and delicate. That didn’t stop you from
//learning it when you were eleven. It meant you had to be extra careful and
//practice each part for a lot longer than usual, that was all.
Ну були жести складними та витонченими. Це не заважало вивчити закляття в
одинадцять. Це означало, що треба бути стараннішим та відпрацьовувати кожну
частину довше, ніж зазвичай, от і все.

// 7917
//Most Charms that could only be learned by older students were like that because
//they required more strength of magic than any young student could muster. But
//the Patronus Charm __wasn’t__ like that, it wasn’t difficult because it
//needed too much magic, it was difficult because it took __more__ than mere
//magic.
Більшість чарів могли вивчати лише старші учні через те, що вони вимагали сильнішого
рівня магії, що був поза можливостями молодших учнів. Але чари патронуса __не були__
такими, вони не були складними через те, що вимагали забагато магії. Вони були складними,
бо вимагали __не лише__ магії.

// 7918
//It took the warm, happy feelings that you kept close in your heart, the loving
//memories, a different kind of strength that you didn’t need for ordinary
//spells.
Потрібні були щасливі, теплі почуття, що були близькі до твого серця, спогади
любові -- інша сила, що не потрібна для звичайних заклять.

// 7919
//Harry twitched his wand once, twice, thrice and four times, shifted his fingers
//exactly the right distances…
Гаррі повернув паличку один, два, три й чотири рази, посунув пальці на правильні
відстані...

// 7920
//__“Good luck at school, Harry. Do you think I bought you enough books?”__
// hedrok: копія 7:732
"`__Хай щастить у школі, Гаррі. Як гадаєш, я купив тобі достатньо книжок?__`"

// 7921
//__“You can never have enough books… but you certainly tried, it was a
//really, really, really good try…”__
"`__Книжок достатньо не буває... проте ти, безперечно, спробував, це була
дійсно, дійсно, дійсно гарна спроба.__`"

// 7922
//It had brought tears to his eyes, the first time Harry had remembered and tried
//to put it into the spell.
До його очей підступили сльози першого разу, коли Гаррі спробував був вкласти
цей спогад у закляття.

// 7923
//Harry brought the wand up and around and brandished it, a gesture that didn’t
//have to be precise, only bold and defiant.
Гаррі підвів паличку вгору й змахнув нею -- цей жест не мав бути точним, лише
впевненим та зухвалим.

// 7924
//“__Expecto Patronum!__” cried Harry.
-- __Експекто Патронум!__ -- вигукнув Гаррі.

// 7925
//Nothing happened.
Нічого не сталося.

// 7926
//Not a single flicker of light.
Ані проблиску світла.

// 7927
//When Harry looked up, Remus Lupin was still studying the wand, a rather
//troubled look on his faintly scarred face.
Коли Гаррі підвів погляд, Ремус Люпин досі вивчав його паличку з доволі
збентеженим виразом злегка пошрамованого обличчя.

// 7928
//Finally Remus shook his head. “I’m sorry, Harry,” the man said quietly. “Your
//wandwork was exactly right.”
Нарешті Ремус похитав головою.

-- Вибач, Гаррі, -- тихо сказав він. -- Твоя робота паличкою була бездоганною.

// 7929
//And there wasn’t a flicker of light anywhere else, either, because all the
//other first-years who were supposed to be practicing their Patronus Charms had
//been glancing out of the corners of their eyes at Harry instead.
І навкруги не було видно жодного спалаху світла, адже всі інші першокласники,
що мали відпрацьовувати чари патронуса, натомість кидали оком на Гаррі.

// 7930
//The tears were threatening to come back into Harry’s eyes, and they weren’t
//happy tears. Of all the things, of all the things, Harry had never expected
//this.
Сльози ледь не повернулися до очей Гаррі, і цього разу це були не сльози щастя.
Серед усього можливого, серед усього, Гаррі ніколи не очікував такого.

// 7931
//There was something horribly humiliating about being informed that you weren’t
//happy enough.
Страшенно принизливо, коли тебе повідомляють, що ти недостатньо щасливий.

// 7932
//What did Anthony Goldstein have inside him that Harry didn’t, that made
//Anthony’s wand shine with that bright light?
Що такого було в Ентоні Ґольдштейна, чого не мав Гаррі, що наповнювало
паличку Ентоні яскравим світлом?

// 7933
//Did Anthony love his own father more?
Чи любив Ентоні батька більше, ніж він?

// 7934
//“What thought were you using to cast it?” said Remus.
-- Яку думку ти використовував? -- запитав Ремус.

// 7935
//“My father,” Harry said, his voice trembling. “I asked him to buy me some books
//before I came to Hogwarts, and he did, and they were expensive, and then he
//asked me if they were enough -”
-- Мій батько, -- голос Гаррі тремтів. -- Я попросив його купити мені декілька
книжок перед відправленням до Гоґвортсу, він купив, і вони були дорогі, і тоді
він спитав, чи цього достатньо...

// 7936
//Harry didn’t try to explain about the Verres family motto.
Гаррі й не намагався пояснити про гасло родини Верресів.

// 7937
//“Take a rest before you try a different thought, Harry,” said Remus. He
//gestured toward where some other students were sitting on the ground, looking
//disappointed or embarrassed or regretful. “You won’t be able to cast a Patronus
//Charm while you’re feeling ashamed of not being grateful enough.” There was a
//gentle compassion in Mr. Lupin’s voice, and for a moment, Harry felt like
//hitting something.
-- Відпочинь, а потім спробуй іншу думку, Гаррі, -- сказав Ремус та вказав на
місце, де інші розчаровані, збентежені та пригнічені учні сиділи на землі. -- Ти
не зможеш використати чари патронуса, доки тобі соромно, що ти недостатньо вдячний.

У голосі містера Люпина відчувалося співчуття, через що Гаррі хотілося щось
вдарити.

// 7938
//Instead Harry turned around, and stalked to where the other failures were
//sitting. The other students whose wandwork had also been proclaimed perfect,
//and who were now supposed to be searching for happier thoughts; by the looks of
//them they weren’t making much progress. There were many robes there trimmed in
//dark blue, and a handful of red, and one lone Hufflepuff girl who was still
//crying. The Slytherins hadn’t even bothered showing up, except for Daphne
//Greengrass and Tracey Davis, who were still trying to get the gestures.
Натомість Гаррі розвернувся та поплентався туди, де сиділа решта невдах. Інші
учні, чия робота паличкою теж була визнана ідеальною і кому тепер треба шукати
більш щасливі спогади; судячи з виразів їхніх облич, особливих успіхів вони не
досягли. Багато мантій учнів були оздоблені темно-синім, декілька -- червоним,
та самотня дівчина з Гафелпафу досі плакала. Слизеринці навіть не прийшли, крім
Дафни Ґрінґрас та Трейсі Девіс, що досі намагалися вивчити жести.

// 7939
//Harry plopped down on the cold dead grass of winter, next to the student whose
//failure had surprised him the most.
Гаррі шльопнувся на холодну мертву зимову траву поряд з ученицею, чия невдача
здивувала його найбільше.

// 7940
//“So you couldn’t do it either,” Hermione said. She’d fled the field at first,
//but she’d come back after that, and you had to look closely at her reddened
//eyes to see that she’d been crying.
-- Отже в тебе теж не вийшло, -- сказала Герміона.

Вона першою покинула поле, проте згодом повернулася, і треба було дуже
уважно придивитися до її злегка почервонілих очей, щоб побачити, що вона
плакала.

// 7941
//“I,” Harry said, “I, I’d probably feel a lot worse about that if you hadn’t
//failed, you’re the nicest, person I know, that I’ve ever met, Hermione, and if
//__you__ also can’t do it, it means I might still be, be good…”
-- Я, -- сказав Гаррі, -- я, я б напевно почувався значно гірше, якби в тебе
все вийшло: ти найчудовіша людина з усіх, що я знаю, Герміоно, і якщо __ти__
не можеш цього зробити, то я, можливо, все одно... хороший...

// 7942
//“I should have gone to Gryffindor,” Hermione whispered. She blinked hard a few
//times, but she didn’t wipe her eyes.
-- Треба було йти до Ґрифіндору, -- прошепотіла Герміона. Вона сильно кліпнула
кілька разів, проте не витирала очей.

***

// 7943
//The boy and the girl walked forward together, definitely not holding hands, but
//each drawing a kind of strength from the other’s presence, something that let
//them ignore the whispers of their year-mates, as they walked through the
//hallway approaching the great doors of Hogwarts.
Хлопець та дівчина йшли вперед разом, точно не тримаючись за руки, проте
якимось чином присутність іншого додавала кожному з них сили, дозволяла
ігнорувати перешіптування їхніх однокласників дорогою коридорами до великих
дверей Гоґвортсу.

// 7944
//Harry hadn’t been able to cast the Patronus Charm no matter what happy thought
//he tried. People hadn’t seemed surprised by that, which made it even worse.
//Hermione hadn’t been able to do it either. People had been __very__
//surprised by that, and Harry had seen her starting to get the same sidelong
//looks as him. The other Ravenclaws who’d failed weren’t getting those looks.
//But Hermione was the Sunshine General, and her fans were treating it like she’d
//failed them, somehow, like she’d betrayed a promise she’d never made.
Гаррі досі не міг викликати патронуса, хай які щасливі думки він пробував.
Видається, нікого це не здивувало, через що йому було ще гірше. Герміона також
не досягла успіху. Це __дуже__ здивувало всіх, і Гаррі помітив, що вона почала
отримувати багато косих поглядів, до яких Гаррі вже звикнув. Решта
рейвенкловців, що зазнали невдачі, не отримували таких поглядів. Але Герміона
була генералом Сонечка, і її фанатам здавалося, що вона якимось чином їх
підвела, ніби вона порушила обіцянку, якої ніколи не давала.

// 7945
//The two of them had gone to the library to research the Patronus Charm, which
//was Hermione’s way of dealing with distress, as it was sometimes also Harry’s.
//Study, learn, try to understand __why…__
Вони вдвох пішли були до бібліотеки досліджувати чари патронуса: так зазвичай
Герміона давала собі раду з неспокоєм. Інколи так само робив Гаррі. Вчитися,
шукати, намагатися зрозуміти __чому__...

// 7946
//The books had confirmed what the Headmaster had told Harry; often, wizards who
//couldn’t cast the Patronus Charm in practice would be able to do so in the
//presence of a real Dementor, going from flat failure all the way to a full
//corporeal Patronus. It defied all logic, the Dementor’s aura of fear ought to
//make it __harder__ to wield a happy thought; but that was the way it was.
Книжки підтверджували те, що директор вже розповів Гаррі: часто чарівники, що
не були здатні використовувати чари патронуса, могли це зробити в присутності
справжнього дементора: від повної невдачі одразу до матеріального патронуса.
Це суперечило здоровому ґлузду, аура страху від дементора мала б __заважати__
зосередитися на щасливій думці. Проте такою була дійсність.

// 7947
//So the two of them were both going to give it one last try, there was no way
//either of them wouldn’t give it one last try.
І ось вони вдвох робили останню спробу, жоден з них не міг не спробувати
востаннє.

// 7948
//It was the day the Dementor came to Hogwarts.
Настав день, коли дементор прибув до Гоґвортсу.

// 7949
//Earlier, Harry had unTransfigured his father’s rock from where it usually
//rested on his pinky ring in the form of a tiny diamond, and placed the huge
//gray stone back into his pouch. Just in case Harry’s magic failed entirely,
//when he confronted the darkest of all creatures.
Гаррі заздалегідь детрансфігурував камінь батька зі звичайного місця: персня на
мізинці, де він був у формі діаманта, та поклав величезний сірий камінь до
капшучка. Просто на випадок, якщо Гаррі цілковито втратить контроль над своєю
магією перед найтемнішим зі створінь.

// 7950
//Harry had already started to feel pessimistic, and he wasn’t even in front of a
//Dementor yet.
Гаррі __вже__ почав був почуватися песимістично, а він ще навіть не був поряд із дементором.

// 7951
//“I bet you can do it and I can’t,” Harry said in a whisper. “I bet that’s what
//happens.”
-- Закладаюся, що в тебе вийде, а в мене ні, -- прошепотів Гаррі. -- Закладаюся,
що так і буде.

// 7952
//“It felt wrong to me,” Hermione said, her voice even quieter than his. “I tried
//it this morning and I realized. When I was doing the brandish at the end, even
//before I said the words, it felt wrong.”
-- Я відчула, що не виходить, -- сказала Герміона навіть тихішим голосом. -- Я
спробувала зранку та збагнула. Коли я змахнула паличкою наприкінці, ще перед
словами, я відчула, що не виходить.

// 7953
//Harry didn’t say anything. He’d felt the same thing, right from the start,
//though it had taken another five attempts using five other happy thoughts
//before he’d been able to acknowledge it to himself. Every time he tried to
//brandish his wand, it had felt hollow; the spell he was trying to learn didn’t
//fit him.
Гаррі нічого не сказав. Він відчував те ж саме, ще з першої спроби, хоча йому
були потрібні ще пʼять інших щасливих думок перед тим, як він визнав це. Щоразу,
як він змахував паличкою, вона здавалася пустою. Закляття, що він його намагався
вивчити, не пасувало йому.

// 7954
//“It doesn’t mean we’re going to be Dark Wizards,” said Harry. “Lots of people
//who can’t cast the Patronus Charm aren’t Dark Wizards. Godric Gryffindor wasn’t
//a Dark Wizard…”
-- Це не означає, що ми станемо темними чарівниками, -- сказав Гаррі. -- Більшість
людей, що не може застосовувати чари патронуса, не є темними чарівниками. Ґодрик
Ґрифіндор не був темним чарівником...

// 7955
//Godric had defeated Dark Lords, fought to protect commoners from Noble Houses
//and Muggles from wizards. He’d had many fine friends and true, and lost no more
//than half of them in one good cause or another. He’d listened to the screams of
//the wounded, in the armies he’d raised to defend the innocent; young wizards of
//courage had rallied to his calls, and he’d buried them afterward. Until
//finally, when his wizardry had only just begun to fail him in his old age, he’d
//brought together the three other most powerful wizards of his era to raise
//Hogwarts from the bare ground; the one great accomplishment to Godric’s name
//that wasn’t about war, any kind of war, no matter how just. It was Salazar, and
//not Godric, who’d taught the first Hogwarts class in Battle Magic. Godric had
//taught the first Hogwarts class in Herbology, the magics of green growing life.
Ґодрик перемагав був темних лордів, боровся за захист звичайних людей від шляхетних
домів та маґлів від чарівників. У нього було багато чудових та вірних друзів, і
він втратив не більше половини з них заради тієї чи іншої мети. Він слухав
крики поранених у військах, що він зібрав на захист невинних... Юні відважні чарівники
прибували на його заклики, а потім він їх ховав у землі. Доки нарешті,
коли чаклунство тілько-но почало покидати його в старому віці, він зібрав разом
трьох інших наймогутніших чарівників своєї ери, щоб звести із землі Гоґвортс --
велике досягнення, щоб його ім'я пам'ятали не через війну, будь-яку війну, хай
як справедливу. Салазар, а не Ґодрик, викладав бойову магію першого року. Ґодрик
викладав перший рік гербалогії -- магії зеленого росту життя.

// 7956
//To his last day he’d never been able to cast the Patronus Charm.
До останнього дня свого життя він так і не опанував чари патронуса.

// 7957
//Godric Gryffindor had been a good man, not a happy one.
Ґодрик Ґрифіндор був чудовою людиною, але не щасливою.

// 7958
//Harry didn’t believe in angst, he couldn’t stand reading about whiny heroes, he
//knew a billion other people in the world would have given anything to trade
//places with him, and…
Гаррі не поважав зневіру в себе чи світ, він ненавидів читати про плаксивих героїв, він
знав, що мільярд людей у світі віддали б усе, щоб помінятися з ним місцями, та...

// 7959
//And on his deathbed, Godric had told Helga (for Salazar had abandoned him, and
//Rowena passed before) that he didn’t regret any of it, and he was __not__
//warning his students not to follow in his footsteps, no one was __ever__
//to say he’d told anyone not to follow in his footsteps. If it had been the
//right thing for __him__ to do, then he wouldn’t tell anyone else to choose
//wrongly, not even the youngest student in Hogwarts. And yet for those who
//__did__ follow in his footsteps, he hoped they would remember that
//Gryffindor had told his House that it was all right for them to be happier than
//him. That red and gold would be bright warm colors, from now on.
// hedrok: Від "If it had been the" до "youngest student in Hogwarts." копія
// в 065:11670
А перед смертю Ґодрик сказав був Гелдзі (адже Салазар вже покинув їх, а Ровена
раніше пішла з життя), що не жалкує ні про що, що він __не застерігає__ своїх
учнів не йти його шляхом, ніхто __ніколи__ не має казати, ніби він порадив
комусь не йти його шляхом. Якщо для __нього__ цей шлях був правильним, то він
не радитиме нікому чинити неправильно, навіть наймолодшому учневі Гоґвортсу.
Проте він сподівався, що всі, хто __піде__ його шляхом, пам'ятатимуть його
звернення до свого гуртожитку: якщо вони будуть щасливішими за нього, це добре.
А червоний та золотий віднині будуть яскравими, теплими кольорами.

// 7960
//And Helga had promised him, weeping, that when she was Headmistress she would
//make sure of it.
І Гелґа, схлипуючи, пообіцяла йому, що, як директорка, попіклується про це.

// 7961
//Whereupon Godric had died, and left no ghost behind him; and Harry had shoved
//the book back to Hermione and walked away a little, so she wouldn’t see him
//crying.
Після чого Ґодрик помер, і не залишив по собі привиду. І Гаррі кинув книжку
назад Герміоні й трохи відійшов, щоб вона не побачила його сліз.

// 7962
//You wouldn’t think that a book with an innocent title like “The Patronus Charm:
//Wizards Who Could and Couldn’t” would be the saddest book Harry had ever read.
Хто б міг подумати, що книжка з невинною назвою "`Чари патронуса: ті, що
могли, і ті, що не могли`" буде найсумнішою з усіх, що Гаррі коли-небудь читав.

// 7963
//Harry…
Гаррі...

// 7964
//Harry didn’t want that.
Гаррі не хотів цього.

// 7965
//To be in that book.
Потрапити у цю книжку.

// 7966
//Harry didn’t want that.
Гаррі не хотів цього.

// 7967
//The rest of the school just seemed to think that __No Patronus__ meant
//__Bad Person,__ plain and simple. Somehow the fact that Godric Gryffindor
//also hadn’t been able to cast the Patronus Charm seemed not to get repeated.
//Maybe people didn’t talk about it to respect his last wish, Fred and George
//probably didn’t know and Harry certainly wasn’t about to tell them. Or maybe
//the other failures didn’t mention it because it was less shameful, the smaller
//loss of pride and status, to be thought Dark rather than unhappy.
Решта школи, видається, вважала, що "`немає патронуса`" означало "`погана
людина`": прямолінійно й просто. Чомусь той факт, що Ґодрик Ґрифіндор також не
був здатен на патронуса, не повторювали. Можливо, люди не розповідали про це з
поваги до його останнього бажання. Фред та Джордж напевно не знали, і Гаррі
точно не збирався їм розповідати. Чи, можливо, інші невдахи не згадували про
це, бо так було менш ганебно, меншою втратою для гордості та статусу: вважатися
темним, а не нещасним.

// 7968
//Harry saw that Hermione, beside him, was blinking hard; and he wondered if she
//was thinking of Rowena Ravenclaw, who’d also loved books.
Гаррі бачив, що Герміона поряд сильно кліпала, цікаво, чи думала вона про
Ровену Рейвенклов, що також полюбляла книжки.

// 7969
//“Okay,” Harry whispered. “Happier thoughts. If you do go to a full corporeal
//Patronus, what do you think your animal will be?”
-- Гаразд, -- прошепотів Гаррі. -- Щасливіші думки. Якщо в тебе вийде
матеріальний патронус, як гадаєш, яка це буде тварина?

// 7970
//“An otter,” Hermione said at once.
-- Видра, -- миттєво відповіла Герміона.

// 7971
//“An __otter?__” Harry whispered incredulously.
-- __Видра__? -- здивовано прошепотів Гаррі.

// 7972
//“Yes, an otter,” said Hermione. “What about yours?”
-- Так, видра. А як щодо тебе?

// 7973
//“Peregrine falcon,” Harry said without hesitation. “It can dive faster than
//three hundred kilometers per hour, it’s the fastest living creature there is.”
//The peregrine falcon had been Harry’s favorite animal since forever. Harry was
//determined to become an Animagus someday, just to get that as his form, and fly
//by the strength of his own wings, and see the land below with sharper eyes…
//“But why an __otter?__”
-- Сапсан, -- без вагань сказав Гаррі. -- Він може пікірувати швидше за триста
кілометрів на годину, це найшвидше живе створіння.

Сапсан був його улюбленою твариною все життя. Гаррі збирався колись стати
анімагом, щоб отримати таку форму й літати силою власних крил, роздивлятися
землю внизу гострими очима...

-- Але чому __видра__? -- запитав він.

// 7974
//Hermione smiled, but didn’t say anything.
Герміона всміхнулася, проте промовчала.

// 7975
//And the vast doors of Hogwarts swung open.
Тоді гігантські двері Гоґвортсу розчахнулися.

// 7976
//They walked for a time, the children, over a pathway that led toward the
//unforbidden forest, and continued through the forest itself. The Sun was
//lowering to near the horizon, the shadows long, the sunlight filtered through
//the bare branches of the winter trees; for it was January, and the first-years
//the last to learn, that day.
Деякий час діти йшли шляхом до незабороненого лісу і далі самим лісом. Сонце
вже хилилося до обрію, тіні були довгими, а сонячне світло пробивалося крізь
голі гілки зимових дерев. Бо був січень, а перший клас був останнім у черзі
на урок того дня.

// 7977
//Then the path swerved and took a new direction, and they all saw it in the
//distance, the clearing in the forest, and the sere winter grounds, yellowing
//dried grass whitened by a few small remnants of snow.
А потім шлях звертав убік та йшов у іншому напрямку, і всі вони побачили на
відстані галявину в лісі, суху зимову землю, пожовтілу траву, припорошену
невеличкими залишками снігу.

// 7978
//The human figures still small at that range. The two spots of dim white light
//from the Aurors’ Patronuses, and the brighter spot of silver light from the
//Headmaster’s, next to something…
Людські фігури досі здавалися маленькими. Дві плями бляклого білого світла від
патронусів аврорів, та яскравіша пляма срібного світла від директорського
патронуса поряд з чимось...

// 7979
//Harry squinted.
Гаррі примружив очі.

// 7980
//Something…
Чимось...

// 7981
//It must have been purely Harry’s imagination, because there shouldn’t have been
//any way for a Dementor to reach past three corporeal Patronuses, but he thought
//he could feel a touch of emptiness brushing at his mind, brushing straight at
//the soft inner center of himself without any respect for Occlumency barriers.
Це мала бути лише уява Гаррі, адже дементор жодним чином не міг поширити свій
вплив крізь трьох матеріальних патронусів, проте йому здавалося, ніби він відчував
доторк порожнечі до свого розуму, доторк просто до внутрішнього мʼякого центру
без жодної поваги до барʼєрів блокології.

***

// 7982
//Seamus Finnigan was ashen and trembling as he rejoined the students milling
//about on the withered and snow-spotted grass. Seamus’s Patronus Charm had been
//successful, but there was still that interval between when the Headmaster
//dispelled his own Patronus and when you were supposed to cast your own, when
//you faced the Dementor’s fear unshielded.
Шеймус Фініґан був мертвотно блідий та тремтів, коли приєднався до учнів, що
товклися на зівʼялій та припорошеній снігом траві. Шеймус успішно застосував
чари патронуса, проте після того, як директор скасовував власного патронуса, і
перед тим, як ти мав викликати свого, все одно залишався деякий проміжок часу,
впродовж якого ти протистояв жаху дементора без жодного захисту.

// 7983
//Up to twenty seconds of exposure at five paces was certainly safe, even for an
//eleven-year-old wizard with weak resistance and a still-maturing brain. There
//was a lot of variance in how hard the Dementor’s power hit people, which was
//another thing not quite understood; but twenty seconds was definitely safe.
Двадцять секунд на відстані пʼяти кроків безперечно було безпечно, навіть для
одинадцятирічного чарівника зі слабкою опірністю та незрілим мозком. Дементори
впливали на людей вкрай різноманітно -- ще одна незрозуміла річ. Але двадцять
секунд точно мало бути безпечно.

// 7984
//Forty seconds of Dementor exposure at five paces might __possibly__ have
//been enough to cause permanent damage, though only to the most sensitive
//subjects.
Сорок секунд дії дементора в пʼяти кроках, __можливо__, достатньо для
безповоротної шкоди, хоча лише для найчутливіших людей.

// 7985
//It was harsh training even by the standards of Hogwarts, where the way you
//learned to fly on a hippogriff was by being tossed on one and told to get
//going. Harry was no fan of overprotectiveness, and if you looked at the
//difference in maturity between a fourth-year in Hogwarts and a
//fourteen-year-old Muggle, it was clear that Muggles were smothering their
//children… but even Harry had started to wonder if this was pushing it. Not
//every hurt could be healed afterward.
Це було суворим тренуванням навіть за шкалою Гоґвортсу, де навчали літати на
гіпогрифах простим методом: кидали тебе на нього й казали летіти. Гаррі не був
прибічником надмірної опіки, і якщо поглянути на різницю в зрілості між
четвертокласниками в Гоґвортсі та чотирнадцятирічними маґлами, то ставало
очевидним, що маґли занадто турбувалися про своїх дітей... Але навіть Гаррі
сумнівався, чи не перегинають тут палицю. Не кожне поранення можна вилікувати.

// 7986
//But if you couldn’t cast the spell under those conditions, it meant you
//couldn’t rely on using the Patronus Charm to defend yourself; overconfidence
//was even more dangerous to wizards than to Muggles. Dementors could drain your
//magic and your physical vitality, not just your happy thoughts, which meant you
//might __not__ be able to Apparate away if you waited too long, or if you
//didn’t recognize the approaching fear until the Dementor was within range for
//its attack. (During his reading, Harry had discovered with considerable horror
//that some books claimed the Dementor’s Kiss would __eat your soul__ and
//that this was the reason for the permanent mindless coma into which it put the
//victims. And that wizards who __believed this__ had deliberately used the
//Dementor’s Kiss to __execute criminals.__ It was a certainty that some
//called criminals were innocent, and even if they weren’t, __destroying
//their souls?__ If Harry had believed in souls, he would have… drawn a blank, he
//just couldn’t think of an appropriate response to that.)
Але якщо ти не в змозі використати закляття за цих умов, це означало, що ти не
можеш покладатися на чари патронуса для самозахисту. Надмірна самовпевненість
навіть більш небезпечна для чаклунів, ніж для маґлів. Дементори можуть
висмоктувати магію та фізичну силу, а не лише щасливі думки, тобто в тебе може
__не вийти__ розʼявитися, якщо чекатимеш надто довго чи якщо не зможеш
розпізнати наближення страху, доки дементор не буде достатньо близько для атаки.
(Під час читання Гаррі із жахом дізнався був, що, згідно з деякими книжками,
Цілунок дементора __пожирав душу__, через що в жертви наступала безповоротна
постійна кома. І чарівники, що __вірили в це__, зумисно використовували
Цілунок дементора для __страти злочинців__. Безсумнівно, деякі з цих так званих
злочинців були невинними, та навіть якщо ні, __знищувати їхні душі__? Якби
Гаррі вірив у душі, він би... уявлення не мав, він просто не може вигадати
доречну відповідь на це.)

// 7987
//The Headmaster was taking security seriously, and so were the three Aurors
//standing guard. Their leader was an Asianish-looking man, solemn without being
//grim, Auror Komodo, whose wand never left his hand. His Patronus, an orangutan
//of solid moonlight, paced back and forth between the Dementor and the
//first-years awaiting their turn; beside the orangutan moved the bright white
//panther of Auror Butnaru, a man with a piercing gaze, long black hair in a
//ponytail, and a long braided goatee. Those two Aurors, and their two
//Patronuses, were all watching the Dementor. On the opposite side of the
//students was the resting Auror Goryanof, tall and thin and pale and unshaven,
//sitting back on a chair he’d conjured without word or wand, and maintaining an
//absentminded pokerface as he scanned the entire scene. Professor Quirrell had
//shown up not long after the first-years began their attempts, and his eyes
//never strayed far from Harry. The tiny Professor Flitwick, who had been a
//champion duellist, was fiddling absently with his wand; and __his__ eyes,
//peering out from within the huge puffy beard that served as his face, stayed
//focused on Professor Quirrell.
Директор серйозно поставився до безпеки, як і три аврори, що були насторожі. Їхнім
лідером був чоловік з азіатською зовнішністю, поважний, але не похмурий --
аврор Комодо, паличка ніколи не зникала з його руки. Його патронус -- орангутан
із суцільного місячного світла -- крокував туди-сюди між дементором та
першокласниками, що чекали на свою чергу. Поряд з орангутаном рухалася
яскраво-біла пантера аврора Бутнару, чоловіка з пронизливим поглядом, довгим
чорним волоссям, зібраним у хвостик, та довгою стриженою козлиною
борідкою. Ці два аврори та їхні патронуси вчотирьох спостерігали за дементором.
З протилежного від учнів боку відпочивав аврор Ґоряноф -- високий, худий,
блідий та неголений, він сидів позаду на стільці, що він його створив без
жодного слова та без палички; його обличчя мало дещо віддалений та цілковито нейтральний
вираз обличчя, проте поглядом він сканував усе дійство. Професор Квірел зʼявився
невдовзі після того, як першокласники почали свої перші спроби, а його очі ніколи
не випускали Гаррі з поля зору. Крихітний професор Флитвік, колишній чемпіон дуелей,
безцільно метушився зі своєю паличкою, та __його__ погляд, що визирав із-за
пишної пухнастої бороди, що, по суті, і була його обличчям, був сфокусований на професорові
Квірелі.

// 7988
//And it must have been Harry’s imagination, but Professor Quirrell seemed to
//wince slightly each time the Headmaster’s Patronus winked out to test the next
//student. Maybe Professor Quirrell was imagining the same placebo effect as
//Harry, that backwash of emptiness caressing at his mind.
І певно це була лише уява Гаррі, проте професор Квірел здригався щоразу, як
патронус директора зникав перед спробою чергового учня. Можливо, професор
Квірел уявляв такий саме ефект плацебо, як і Гаррі, -- цей доторк порожнечі, що
огортав розум.

// 7989
//“Anthony Goldstein,” called the voice of the Headmaster.
-- Ентоні Ґольдштейн, -- пролунав голос директора.

// 7990
//Harry quietly walked toward Seamus, even as Anthony began to approach the
//shining silver phoenix, and… whatever it was beneath the tattered cloak.
Гаррі тихо підійшов до Шеймуса, доки Ентоні почав наближатися до яскравого
срібного фенікса та... хай там що було під подраним плащем.

// 7991
//“What did you see?” Harry asked Seamus in a low voice.
-- Що ти бачив? -- тихо запитав Гаррі Шеймуса.

// 7992
//A lot of students hadn’t answered Harry, when he’d tried to gather the data;
//but Seamus was Finnigan of Chaos, one of Harry’s lieutenants. Maybe that wasn’t
//fair, but…
Багато учнів не відповіли Гаррі, коли він намагався зібрати дані; проте Шеймус
був Фініґаном з Хаосу, одним з лейтенантів Гаррі. Можливо, це було нечесно, проте...

// 7993
//“Dead,” said Seamus in a whisper, “grayish and slimy… dead and left in water
//for a while… ”
-- Мертвець, -- прошепотів Шеймус, -- сірий та слизький... мертвий та залишений
у воді на деякий час...

// 7994
//Harry nodded. “That’s what a lot of people see,” Harry said. He projected
//confidence, even though it was fake, because Seamus needed it. “Go eat some
//chocolate, you’ll feel better.”
Гаррі кивнув.

-- Таке бачить багато хто, -- сказав Гаррі. Він випромінював впевненість, хоч
і не відчував її, проте Шеймусу це було потрібно. -- Піди зʼїж шоколаду, тобі
полегшає.

// 7995
//Seamus nodded and stumbled off toward the table of healing sweets.
Шеймус кивнув та поплентався до столу з цілющими солодощами.

// 7996
//“__Expecto Patronum!__” cried a young boy’s voice.
-- __Експекто Патронум!__ -- крикнув хлопчик.

// 7997
//Then there were gasps of shock, even from the Aurors.
Почулися здивовані зойки, навіть від аврорів.

// 7998
//Harry spun around to look -
Гаррі обернувся й побачив...

// 7999
//There was a brilliant silver bird standing between Anthony Goldstein and the
//cage. The bird reared its head and let out a cry, and the cry was also silver,
//as bright and hard and beautiful as metal.
Між кліткою та Ентоні Ґольдштейном був яскравий срібний птах. Він підвів голову
та видав звук, що також був срібним: яскравим, міцним та прекрасним, мов метал.

// 8000
//And something in the back of Harry’s mind said, __if that’s a peregrine
//falcon, I’m going to strangle him in his sleep.__
І якийсь голос всередині розуму Гаррі сказав: __якщо це сапсан, то я задушу
його уві сні__.

// 8001
//__Shut up,__ Harry said to the thought, __do you want us to be a
//Dark Wizard?__
__Замовкни,__ відповів Гаррі на цю думку, __ти що, хочеш, щоб ми стали темним
чарівником?__

// 8002
//__What’s the point? You’re going to end up as one eventually.__
__А яка різниця? Ми все одно станемо таким зрештою.__

// 8003
//That… wasn’t something Harry would usually have thought…
Це... було не схоже на звичайні думки Гаррі...

// 8004
//__It’s a placebo effect,__ Harry told himself again. __The Dementor
//can’t actually get to me through three corporeal Patronuses, I’m just imagining
//what I think it’s like. When I actually face the Dementor, it’ll feel
//completely different, and then I’ll know I was just being silly before.__
__Це ефект плацебо__, сказав собі Гаррі. __Дементор не може справді дістати
мене крізь три матеріальні патронуси, я просто уявляю, як це. Коли я справді
зустрінуся з дементором, все буде геть інакше, і я знатиму, що просто дуркував
раніше.__

// 8005
//A slight chill went down Harry’s spine then, because he had a feeling that yes,
//it __would__ be completely different, and not in a positive direction.
Тоді спиною Гаррі пробігли мурахи, бо він передчував, що так, __буде__ зовсім
інакше, і зовсім не в хорошому напрямку.

// 8006
//The blazing silver phoenix sprang back into existence from the Headmaster’s
//wand, the lesser bird vanished; and Anthony Goldstein began to walk back.
Палаючий срібний фенікс повернувся в буття з палички директора, менший птах
зник. І Ентоні Ґольдштейн покрокував назад.

// 8007
//The Headmaster was coming with Anthony instead of calling out the next name,
//the Patronus waiting behind to guard the Dementor.
Директор підійшов разом з Ентоні замість того, щоб викликати наступне імʼя,
патронус чекав позаду й стеріг дементора.

// 8008
//Harry glanced over to where Hermione was standing, just behind the glowing
//panther. Hermione’s turn would have come next, but had apparently just been
//delayed.
Гаррі поглянув туди, де стояла Герміона, -- прямо за яскравою пантерою. Герміона
була б наступною, проте, видається, її черга відкладалася.

// 8009
//She looked stressed.
Вона здавалася занепокоєною.

// 8010
//Earlier, she’d politely asked Harry to please stop trying to destress her.
Раніше вона ввічливо попросила була Гаррі припинити спроби заспокоїти її.

// 8011
//Dumbledore was smiling slightly as he escorted Anthony back toward the others;
//smiling only slightly, because the Headmaster looked very, very tired.
Дамблдор злегка всміхався, доки супроводжував Ентоні назад до інших. Він
усміхався лише злегка, бо директор виглядав дуже, дуже стомленим.

// 8012
//“Unbelievable,” said Dumbledore in a voice that sounded much weaker than his
//accustomed boom. “A corporeal Patronus, in his first year. And an astounding
//number of successes among the other young students. Quirinus, I must
//acknowledge that you have proved your point.”
-- Неймовірно, -- сказав Дамблдор голосом, що був значно слабшим, ніж його
звичайне гудіння. -- Матеріальний патронус, у першому році. І дивовижна
кількість успіхів серед інших молодих учнів. Квіріне, я маю визнати, ти
довів, що мав рацію.

// 8013
//Professor Quirrell inclined his head. “A simple enough guess, I should think. A
//Dementor attacks through fear, and children are less afraid.”
Професор Квірел нахилив голову.

-- Доволі очевидний здогад, як мені здається. Дементор атакує страхом, а діти
бояться менше.

// 8014
//“__Less__ afraid?” said Auror Goryanof from where he was sitting.
-- Бояться __менше__? -- запитав аврор Ґоряноф зі свого стільця.

// 8015
//“So I said as well,” said Dumbledore. “And Professor Quirrell pointed out that
//adults had more courage, not less to fear; which thought, I confess, had never
//occurred to me before.”
-- Саме так відреагував і я, -- сказав Дамблдор. -- А професор Квірел відповів,
що дорослі мають більше сміливості, не менше страху. Це, зізнаюся, ніколи не
спадало мені на думку.

// 8016
//“That was not my __precise__ phrasing,” Professor Quirrell said dryly,
//“but it will do. And the rest of our agreement, Headmaster?”
-- Це __не точні__ мої слова, -- сухо сказав професор Квірел, -- але згодиться.
А як щодо решти нашої угоди, директоре?

// 8017
//“As you say,” Dumbledore said reluctantly. “I admit I was not expecting to lose
//that wager, Quirinus, but you have proven your wisdom.”
-- Як скажеш, -- неохоче сказав Дамблдор. -- Я визнаю, що не очікував програти
це парі, Квіріне, проте ти довів свою мудрість.

// 8018
//All the students were looking at them, puzzled; except Hermione, who was
//staring in the direction of the cage and the tall decaying robes; and Harry,
//who was watching everyone, since he was imagining himself feeling paranoid.
Усі учні спантеличено дивилися на них. Крім Герміони, що витріщалася в напрямку
клітки з високою загниваючою мантією. Та крім Гаррі, що спостерігав за всіма,
бо уявляв, що в нього напад параної.

// 8019
//Professor Quirrell said, in tones that did not invite further comments, “I am
//allowed to teach the Killing Curse to students who wish to learn it. Which will
//render them considerably safer from Dark Wizards and other pests, and it is
//foolish to think they will otherwise know no deadly magics.” Professor Quirrell
//paused, his eyes narrowing. “Headmaster, I respectfully observe that you are
//not looking well. I suggest leaving the remainder of the day’s task to
//Professor Flitwick.”
Професор Квірел сказав тоном, що не допускав подальших коментарів:

-- Мені дозволено навчати смертельного прокляття учнів, що бажають навчитися.
Це значно підвищить їхню безпеку від темних чаклунів та інших паразитів, і лише
дурні можуть вважати, що учні й без того не володіють смертельною магією, --
професор Квірел зробив паузу, зіщуливши очі. -- Директоре, з усією пошаною, я
бачу, що вам зле. Пропоную доручити решту сьогоднішнього завдання професорові
Флитвіку.

// 8020
//Dumbledore shook his head. “We are almost done for the day, Quirinus. I will
//last.”
Дамблдор заперечно похитав головою.

-- На сьогодні вже майже все, я протягну.

// 8021
//Hermione had approached Anthony. “Captain Goldstein,” she said, and her voice
//trembled only a little, “can you give me any advice?”
Герміона наблизилася до Ентоні.

-- Капітане Ґольдштейн, -- сказала вона, і її голос тремтів лише трошки, -- чи
можеш ти мені щось порадити?

// 8022
//“Don’t be afraid,” Anthony said firmly. “Don’t think about anything it tries to
//make you think about. You’re not just holding up the wand in front of you as a
//shield against the fear, you’re __brandishing__ your wand to drive the
//fear away, that’s how you make a happy thought into something solid…” Anthony
//shrugged helplessly. “I mean, I __heard__ all that before, but…”
-- Не бійся, -- твердо сказав Ентоні. -- Не думай про те, про що воно
намагається тебе змусити думати. Ти не просто тримаєш паличку перед собою як
щит проти страху, ти __змахуєш__ паличкою, щоб відігнати страх геть, ось як ти
робиш щасливу думку чимось матеріальним... -- Ентоні безпорадно знизав плечима.
-- Тобто, я вже __чув__ це все раніше, проте...

// 8023
//Other students were starting to congregate around Anthony, with their own
//questions.
Інші учні вже почали скупчуватися навколо Ентоні з власними питаннями.

// 8024
//“Miss Granger?” the Headmaster said. His voice might have been gentle, or just
//weakened.
-- Міс Ґрейнджер? -- покликав директор. Можливо його голос був лагідним, а може
просто слабким.

// 8025
//Hermione straightened her shoulders, and followed him.
Герміона розправила плечі й пішла за ним.

// 8026
//“What did you see under the cloak?” Harry said to Anthony.
-- Що ти бачив під плащем? -- запитав Гаррі в Ентоні.

// 8027
//Anthony looked at Harry, surprised, and then answered, “A very tall man who was
//dead, I mean, sort of dead-shaped and dead-colored… it hurt to see him and I
//knew that was the Dementor trying to get at me.”
Ентоні здивовано поглянув на Гаррі перед тим, як відповісти.

-- Дуже високого чоловіка, що був мертвим, тобто, мав форму та колір мерця... дивитися
на нього було боляче, і я знав, що це спроби дементора дістати мене.

// 8028
//Harry looked back out at where Hermione was confronting the cage and the cloak.
Гаррі озирнувся на Герміону, що стояла навпроти клітки та плаща.

// 8029
//Hermione raised her wand into position for the first gestures.
Герміона підняла паличку в позицію для перших жестів.

// 8030
//The Headmaster’s phoenix winked out of existence.
Фенікс директора зникнув.

// 8031
//And Hermione gave a tiny, pathetic shriek, flinched -
Герміона коротко, жалюгідно вереснула, відсахнулася...

// 8032
//- took a step back, Harry could see her wand moving, and then she brandished it
//and said “Expecto Patronum!”
...зробила крок назад, Гаррі міг бачити, як рухається її паличка, а потім вона змахнула
нею та сказала "`Експекто Патронум!`"

// 8033
//Nothing happened.
Нічого не сталося.

// 8034
//Hermione turned and ran.
Герміона розвернулася й побігла.

// 8035
//“__Expecto Patronum!__” said the Headmaster’s deeper voice, and the silver
//phoenix blazed back to life.
-- __Експекто Патронум!__ -- вимовив глибший голос директора, і срібний фенікс
знову запалав.

// 8036
//The young girl stumbled, and kept running, strange sounds beginning to come
//from her throat.
Дівчинка оступилася, але продовжувала бігти, вона почала видавати дивні звуки.

// 8037
//“__Hermione!__” Susan yelled it, and Hannah, and Daphne, and Ernie, and
//they all started to run toward her; even as Harry, who was always thinking one
//step ahead, spun on his own heel and ran for the table with the chocolate.
-- __Герміоно!__ -- крикнули Сьюзен, Анна, Дафна та Ерні. І всі вони почали
бігти до неї; Гаррі тим часом, бо він завжди думав на крок уперед, розвернувся
та побіг до стола з шоколадом.

// 8038
//Even after Harry had shoved the chocolate into Hermione’s mouth and she’d
//chewed and swallowed, she was still breathing in great gasps and crying, her
//eyes still seemed unfocused.
Навіть після того, як Гаррі запхав шоколад Герміоні до рота, і вона його
прожувала та проковтнула, вона все одно рвучко дихала й плакала, а очі досі
були розфокусовані.

// 8039
//__She can’t have been permanently Demented,__ Harry thought desperately at
//the confusion inside him, the horrible fear and deathly fury beginning to twist
//around each other, __she can’t have been, she wasn’t exposed for even ten
//seconds let alone forty -__
__Вона не може бути незворотно дементованою,__ подумки відчайдушно відповідав Гаррі
внутрішній збентеженості, жахливому страху та смертельній люті, що почали
переплітатися разом, __не могла, вона не була під впливом навіть десять секунд,
і близько не сорок...__

// 8040
//But she could be __temporarily__ Demented, as Harry realized in that
//moment, there wasn’t any rule that you couldn’t be __temporarily__ injured
//by a Dementor in just ten seconds if you were sensitive enough.
Але вона могла бути __тимчасово__ дементованою, як Гаррі усвідомив. Не було
правила, що не можна було отримати __тимчасових__ пошкоджень від дементора
протягом лише десяти секунд, якщо ти був достатньо чутливим.

// 8041
//Then Hermione’s eyes seemed to focus, and dart around, and settle on him.
Потім очі Герміони ніби сфокусувалися, заметалися навкруги та зупинилися на ньому.

// 8042
//“Harry,” she gasped, and the other students went silent. “Harry, don’t.
//__Don’t!__”
-- Гаррі, -- палко кинула вона, і решта учнів затихли. -- Гаррі, ні. __Ні!__

// 8043
//Harry was suddenly afraid to ask what he shouldn’t do, was __he__ in her
//worst memories, or some sleep’s nightmare that she was now reliving in waking
//life?
Гаррі раптом стало страшно питати Герміону, що йому не треба робити, чи був
__він__ у її найгірших спогадах, чи якомусь нічному жахітті, яке вона тепер
знову побачила наяву?

// 8044
//“__Don’t go near it!”__ said Hermione. Her hand reached out, grabbed him
//by the lapel of his robes. “You mustn’t go near it, Harry! __It spoke to
//me, Harry, it knows you, it knows you’re here!__”
-- __Не підходь до нього!__ -- сказала Герміона. Вона простягла руку й схопилася
за лацкан його мантії. -- Тобі не можна підходити до нього, Гаррі! __Він
розмовляв зі мною, Гаррі, він знає тебе, він знає, що ти тут!__

// 8045
//“What -” Harry said, and then cursed himself for asking.
-- Що... -- запитав Гаррі, і прокляв себе за це.

// 8046
//“__The Dementor!__” said Hermione. Her voice rose to a shriek.
//”__Professor Quirrell wants it to eat you!__”
-- __Дементор!__ -- сказала Герміона, її голос перейшов на вереск. --
__Професор Квірел хоче, щоб він тебе зʼїв!__

// 8047
//In the sudden hush, Professor Quirrell came forward a few steps; but he didn’t
//approach any closer (Harry was there, after all). “Miss Granger,” he said, and
//his voice was grave, “I think you should have some more chocolate.”
У раптовій тиші професор Квірел підійшов на кілька кроків, але більше не
наблизився (зрештою, там був Гаррі).

-- Міс Ґрейнджер, -- сказав він суворим голосом, -- гадаю, вам варто
зʼїсти ще шоколаду.

// 8048
//“__Professor Flitwick, don’t let Harry try, send him back!__”
-- __Професоре Флитвік, не дозволяйте Гаррі спробувати, відправте його назад!__

// 8049
//The Headmaster had arrived by then, and he and Professor Flitwick were
//exchanging worried looks.
Тоді підійшов директор, і він з професором Флитвіком обмінялися стурбованими
поглядами.

// 8050
//“I did not hear the Dementor speak,” the Headmaster said. “Still…”
-- Я не чув, щоб дементор розмовляв, -- сказав директор. -- Та все ж...

// 8051
//“Just ask,” said Professor Quirrell, sounding a little weary.
-- Просто спитайте, -- дещо втомлено сказав професор Квірел.

// 8052
//“Did the Dementor say __how__ it would get to Harry?” said the Headmaster.
-- Чи не казав дементор, __як__ він дістанеться Гаррі? -- запитав директор.

// 8053
//“All his tastiest parts first,” said Hermione, “it would - it would eat -”
-- Спочатку найсмачніші частини, -- сказала Герміона, -- він... він зʼїсть...

// 8054
//Hermione blinked. Some sanity seemed to come back into her eyes.
Герміона кліпнула очима. Розум частково повернувся до її очей.

// 8055
//Then she started crying.
Потім вона почала плакати.

// 8056
//“You were too brave, Hermione Granger,” the Headmaster said. His voice was
//gentle, and clearly audible. “Too much braver than I comprehended. You should
//have turned and run, not endured and tried to complete your Charm. When you are
//older and stronger, Miss Granger, I know that you will try again, and I know
//that you will succeed.”
-- Ви були надто сміливою, Герміоно Ґрейнджер, -- сказав директор. Його голос
був лагідними, і дуже розбірливим. -- Значно сміливішою, ніж я гадав. Вам варто
було розвернутися й тікати, а не триматися й спробувати завершити свої чари.
Коли ви будете старшою й сильнішою, міс Ґрейнджер, я знаю, що ви спробуєте
знову, і знаю, що у вас вийде.

// 8057
//“I’m sorry,” Hermione said in gasps, “I’m sorry, I’m sorry, I’m sorry… I’m
//sorry, Harry, I can’t tell you what I saw, I didn’t look at it, I didn’t dare
//look at it, I knew it was too horrible to ever be seen…”
-- Вибач, -- казала Герміона, задихаючись. -- Вибач, вибач, вибач... Вибач,
Гаррі, я не можу сказати, що я бачила, я не дивилася, я не наважилася
подивитися, я знала, що це надто жахливо, щоб це бачити...

// 8058
//It should have been Harry, but he’d hesitated, because his hands were all
//chocolatey; and then Ernie and Susan were there, helping Hermione from where
//she’d fallen on the grass, leading her toward the snacks table.
Це мав би зробити Гаррі, проте він завагався, бо в нього всі руки були в
шоколаді; і, крім того, Ерні та Сьюзен були поряд, тому вони допомогли Герміоні
підвестися з місця, де вона впала на траву, та провели її до столу з
солодощами.

// 8059
//Five bars of chocolate later, Hermione seemed to be all right again, and she
//went over and apologized to Professor Quirrell; but she was always watching
//Harry, every time that he glanced in her direction. He’d stepped toward her
//only once, and stopped when she’d stepped away. Her eyes had silently
//apologized, and silently pleaded for him to leave her be.
П'ятьма шоколадками потому Герміона ніби знову стала собою, підійшла до професора
Квірела та вибачилася. Але відтоді вона весь час дивилася на Гаррі -- щоразу, як
він дивився в її напрямку. Він зробив крок до неї лише раз, і зупинився, коли
вона відступила на крок. Її очі безмовно вибачалися й тихо благали облишити її
в спокої.

***

// 8060
//Neville Longbottom had seen something dead and half-dissolved, oozing and
//running with a face like a squashed sponge.
Невіл Лонґботом побачив був щось мертве, воно ніби напіврозклалося, з нього
щось сочилося, його обличчя скидалося на розчавлену губку.

// 8061
//It was the worst thing anyone had yet described seeing. Neville had been able
//to produce a small flicker of light from his wand before, but he had,
//intelligently and with great presence of mind, turned and run away instead of
//trying to cast his own Patronus Charm.
Це було найгірше з того, що Гаррі розповідали. Невіл уже міг був створювати
невеличке тремтіння світла зі своєї палички, проте він у повному спокої
розвернувся та втік, а не спробував використати чари патронуса.

// 8062
//(The Headmaster had said nothing to the other students, told no one else to be
//less brave; but Professor Quirrell had calmly observed that if you made the
//mistake __after__ being warned, that was when ignorance became stupidity.)
(Директор нічого не сказав іншим учням, нікому не сказав бути менш сміливим;
але професор Квірел холоднокровно зазначив, що якщо хтось коїть помилку
__після__ попередження, то незнання стає дурістю.)

// 8063
//“Professor Quirrell?” Harry said in a low voice, having come as close to the
//Defense Professor as he dared. “What do __you__ see when you -”
-- Професоре Квірел? -- тихо запитав Гаррі, підійшовши до професора так
близько, як наважився. -- Що __ви__ бачите, коли...

// 8064
//“Don’t ask.” The voice was very flat.
-- Не питайте, -- без емоцій відповів той.

// 8065
//Harry nodded respectfully. “What was your __original__ phrasing to the
//Headmaster, if I can ask?”
Гаррі з повагою кивнув.

-- А якими __саме__ були ваші слова до директора, якщо можна спитати?

// 8066
//Dryly. “Our worst memories can only grow worse as we grow older.”
-- Наші найгірші спогади можуть лише гіршати, коли ми дорослішаємо, -- сухо.

// 8067
//“Ah,” Harry said. “Logical.”
-- А... Логічно.

// 8068
//Something strange flickered in Professor Quirrell’s eyes, then, as he looked at
//Harry. “Let us hope,” Professor Quirrell said, “that you succeed upon this try,
//Mr. Potter. For if you do, the Headmaster may teach you his trick of using a
//Patronus to send messages that cannot be forged or intercepted, and the
//military importance of that is impossible to overstate. It would be a
//tremendous advantage to the Chaos Legion, and someday, I suspect, this entire
//country. But if you do __not__ succeed, Mr. Potter… well, __I__ shall
//understand.”
Щось промайнуло в очах професора Квірела тоді, коли він дивився на Гаррі.

-- Сподіватимемося, -- сказав він, -- що ви досягнете успіху цього разу, містере
Поттер. Бо тоді директор, можливо, навчить вас свого фокуса: використанню
патронуса для надсилання повідомлень, що їх не можна підробити чи перехопити. Військову
важливість цього неможливо переоцінити. Це буде величезною перевагою для Легіону
Хаосу і колись, гадаю, для всієї країни. Але якщо ви __не досягнете__ успіху,
містере Поттер... ну, __я__ зрозумію.

// 8069
//Morag MacDougal had said, in a wavering voice, “Ouch”, and Dumbledore had
//recast his Patronus right away.
Мораґ Макдуґал сказала "`Ай`", її голос тремтів, і Дамблдор одразу відновив
свого патронуса.

// 8070
//Parvati Patil had produced a corporeal Patronus in the form of a tiger, larger
//than Dumbledore’s phoenix, though not nearly as bright. There had been a great
//burst of applause from all the watchers, though not the same shock as when
//Anthony had done it.
Парваті Патіл створила матеріального патронуса у формі тигра, більшого за фенікса
Дамблдора, хоч і зовсім не такого яскравого. Її привітали гучними оплесками всі
глядачі, хоча це не призвело до такого ж здивування, яке викликав Ентоні.

// 8071
//And then it was Harry’s turn.
І ось прийшла черга Гаррі.

// 8072
//The Headmaster called the name of Harry Potter, and Harry was afraid.
Директор вигукнув імʼя Гаррі Поттера. Гаррі боявся.

// 8073
//Harry knew, he knew that he was going to fail, and he knew that it was going to
//hurt.
Він знав, __знав__ що зазнає невдачі, і знав, що йому буде боляче.

// 8074
//But he still had to try; because sometimes, in the presence of a Dementor, a
//wizard went from not a flicker of light to a full corporeal Patronus, and no
//one understood why.
Але він все одно спробує, адже подеколи в присутності дементора чарівник, що ніколи
не міг отримати й проблиску світла, раптом здатен створити матеріального патронуса,
і ніхто не розумів, чому це так.

// 8075
//And because if Harry __couldn’t__ defend himself from Dementors, he had to
//be able to recognize their approach, recognize the feeling of them in his mind,
//and run before it was too late.
Крім того, якщо Гаррі __не може__ захистити себе від дементорів, то він має
вміти розпізнати їхнє наближення, розпізнати, коли вони впливають на його розум,
та втекти, доки не запізно.

// 8076
//__What is my worst memory…?__
__Який мій найгірший спогад?..__

// 8077
//Harry had expected the Headmaster to give him a worried look, or a hopeful
//look, or deeply wise advice; but instead Albus Dumbledore only watched him with
//quiet calm.
Гаррі очікував, що директор стурбовано на нього погляне, чи погляне на нього з
надією або дасть якусь глибоку мудру пораду. Але натомість Албус Дамблдор лише
тихо й спокійно спостерігав за ним.

// 8078
//__He thinks I’m going to fail, but he won’t sabotage me by telling me
//so,__ thought Harry, __if he had true words of encouragement to speak, he
//would speak them…__
__Він гадає, що в мене не вийде, але він не хоче завадити мені, сказавши це__,
подумав Гаррі, __якби в нього були якісь підбадьорливі слова, він би вимовив
їх...__

// 8079
//The cage came closer. It was already tarnished, but not rusted away to nothing,
//not yet.
Клітка наближалася. Вона вже окиснилася, але ще не перетворилася на іржу, ще
ні.

// 8080
//The cloak came closer. It was unraveling and shot through with unpatched holes;
//it had been new that morning, Auror Goryanof had said.
Плащ наблизився. Він розплутувався й був вкритий нелатаними дірками. Аврор
Ґоряноф казав був, що зранку плащ був новим.

// 8081
//“Headmaster?” Harry said. “What do you see?”
-- Директоре? Що ви бачите? -- запитав Гаррі.

// 8082
//The Headmaster’s voice was also calm. “The Dementors are creatures of fear, and
//as your fear of the Dementor diminishes, so does the fearsomeness of its form.
//I see a tall, thin, naked man. He is not decaying. He is only slightly painful
//to look upon. That is all. What do you see, Harry?”
Голос директора теж був спокійним.

// hedrok: "naked man", "painful to look upon" - копія в 80:14358
-- Дементори -- це створіння страху, і зі зменшенням страху дементора
зменшується й моторошність його форми. Я бачу високого, худого, голого
чоловіка. Він не розкладається. На нього лише трохи боляче дивитися. Ось і
все. А що бачиш ти, Гаррі?

// 8083
//…Harry couldn’t see under the cloak.
...Гаррі не міг бачити, що під плащем.

// 8084
//Or that wasn’t right, it was that his mind was __refusing__ to see what
//was under the cloak…
Чи не зовсім так, його розум __відмовлявся__ бачити, що під плащем...

// 8085
//No, his mind was trying to see the __wrong__ thing under the cloak, Harry
//could feel it, his eyes trying to force a mistake. But Harry had done his best
//to train himself to notice that tiny feeling of confusion, to automatically
//flinch away from making stuff up; and every time his mind tried to start
//inventing a lie about what was under the cloak, that reflex was fast enough to
//shut it down.
Ні, його розум намагався побачити __неправильне__ під плащем, Гаррі відчував
це, його очі намагалися зробити помилку. Але Гаррі зробив був усе можливе, щоб
натренувати себе помічати навіть крихітне спантеличення й автоматично не
дозволяти собі вигадувати. Щоразу, як його розум намагався вигадати брехню
щодо того, що під плащем, цей рефлекс достатньо швидко зупиняв спробу.

// 8086
//Harry looked under the cloak and saw…
Гаррі подивився під плащ і побачив...

// 8087
//An open question. Harry wouldn’t let his mind see something false, and so he
//didn’t see anything, like the part of his visual cortex getting that signal was
//just ceasing to exist. There was a blind spot under the cloak. Harry couldn’t
//know what was under there.
Відкрите питання. Гаррі не дозволяв розуму побачити неправду, тому він не бачив
нічого, ніби частина візуальної кори, що отримувала сигнал, просто припиняла
своє існування. Під плащем була сліпа зона. Гаррі не міг знати, що там.

// 8088
//Just that it was far worse than any decaying mummy.
Він лише знав, що це щось значно гірше за мумію, що розкладається.

// 8089
//The unseeable horror beneath the cloak was very close, now, but the blazing
//bird of moonlight, the white phoenix, yet lay between them.
Незримий жах під плащем тепер був дуже близько, але палаючий птах місячного
світла, білий фенікс, досі був між ними.

// 8090
//Harry wanted to run away like some of the other students had. Half the ones
//who’d had no luck with their Patronus Charms just hadn’t shown up today in the
//first place. Of those remaining, half had fled before the Headmaster had even
//dispelled his own Patronus, and no one had said a word. There’d been a little
//laughter when Terry had turned and walked back before his own try; and Susan
//and Hannah, who’d gone before, had yelled at everyone to shut up.
Гаррі хотілося втекти, як зробили були деякі інші учні. Половина з тих, хто
не міг створити патронуса, просто не прийшли сьогодні. З решти половина втекли ще
до того, як директор скасував свого патронуса, і ніхто їм аніслова не сказав. Дехто
засміявся, коли Террі розвернувся й пішов перед своєю спробою, але Сьюзен та Анна,
що вже спробували були, сказали всім замовкнути.

// 8091
//But Harry was the Boy-Who-Lived, and he would lose much respect if he was seen
//to give up without even trying…
Але Гаррі був Хлопчиком-Що-Вижив, і він втратить чимало поваги, якщо здасться
навіть без спроби.

// 8092
//Pride and roles seemed to diminish and fall away, in the presence of whatever
//lay beneath the cloak.
Гордість вщухала, маски спадали в присутності тієї невідомості під плащем.

// 8093
//__Why am I still here?__
__Чому я досі тут?__

// 8094
//It wasn’t the shame of others thinking him cowardly, that kept Harry’s feet in
//place.
Не сором виглядати боягузом утримував ноги Гаррі на місці.

// 8095
//It wasn’t the hope of repairing his reputation that brought up his wand.
Не надія відновити свою репутацію підвела його паличку.

// 8096
//It wasn’t the desire to master the Patronus Charm as magic, that moved his
//fingers into the initial position.
Не жага опанувати магію чарів патронуса виставила його пальці в початкову
позицію.

// 8097
//It was something else, something that __had__ to oppose whatever lay
//beneath the cloak, this was the true darkness and Harry had to find out whether
//it lay within him, the power to drive it back.
А щось зовсім інше, щось, що __мусило__ протистояти тому, що було під
плащем, адже воно було істинною пітьмою, і Гаррі мав дізнатися, чи є в нього
сила протистояти їй.

// 8098
//Harry had planned to try one final time to think of his book-shopping spree
//with his father, but instead, at the last minute, facing the Dementor, a
//different memory occurred to him, something he hadn’t tried before; a thought
//that wasn’t warm and happy in the ordinary way, but felt righter, somehow.
Гаррі планував був спробувати востаннє використати свій набіг на книгарні разом
із батьком, проте натомість, в останню мить, у присутності дементора, згадався
інший спогад, щось, що він не пробував раніше. Ця думка не була теплою та
щасливою у звичайному розумінні, але вона чомусь здавалася доречнішою.

// 8099
//And Harry remembered the stars, remembered them burning terribly bright and
//unwavering in the Silent Night; he let that image fill him, fill all of him
//like an Occlumency barrier across his entire mind, became once again the
//bodiless awareness of the void.
І Гаррі згадав зірки, згадав, як вони страшенно яскраво, незмигно світили
тихої ночі. Він дозволив зображенню заполонити себе, заполонити повністю, ніби
барʼєр блокології над усім розумом, щоб знову перетворитися на безтілесну
свідомість посеред порожнечі.

// 8100
//The bright silver shining phoenix vanished.
Яскравий срібний фенікс зникнув.

// 8101
//And the Dementor smashed into his mind like the fist of God.
І дементор вдарив його розум, ніби кулак Бога.

// 8102
//**FEAR / COLD / DARKNESS**
**СТРАХ / ХОЛОД / ПІТЬМА**

// 8103
//There was an instant when the two forces clashed head-on, when the peaceful
//starlit memory held its own against the fear, even as Harry’s fingers began the
//wand motions, practiced until they had become automatic. They weren’t warm and
//happy, those blazing points of light in perfect blackness; but it was an image
//the Dementor could not easily pierce. For the silent burning stars were vast
//and unafraid, and to shine in the cold and darkness was their natural state.
На мить дві сили зіткнулися чимдуж: мирний залитий зорями спогад тримав тиск
страху, доки пальці Гаррі почали рухи, що вже були завчені до автоматизму. Вони
не були ані теплими, ані щасливими, ці палаючі точки світла в абсолютній
темряві. Але дементор не міг легко проникнути крізь це зображення, бо тихе
горіння зірок було величезним та непідвладним страху, і світитися в холоді й
темряві було для них природним.

// 8104
//But there was a flaw, a crack, a fault-line in the immovable object trying to
//resist that irresistible force. Harry felt a twinge of anger at the Dementor
//for trying to feed on him, and it was like slipping on wet ice. Harry’s mind
//began to slide sideways, into bitterness, black fury, deathly hatred -
// hedrok: 56:9943 "a flaw, a crack, a fault-line" копія
Але була якась вада, тріщина, розлам у нерухомому обʼєкті, що намагався чинити
опір цій нездоланній силі. Гаррі відчув напад злості від того, що дементор
хотів харчуватися ним, і це було як послизнутися на мокрому льоду. Розум
Гаррі почав зʼїжджати в прірву: до образи, чорної люті, смертельної ненависті...

// 8105
//Harry’s wand came up in the final brandish.
Гаррі підняв паличку для фінального змаху.

// 8106
//It felt wrong.
Він відчув, що не вийде.

// 8107
//“Expecto Patronum,” his voice spoke, the words hollow and pointless.
-- Експекто Патронум, -- вимовив його голос. Слова були пустими й безґлуздими.

// 8108
//And Harry fell into his dark side, fell down into his dark side, further and
//faster and deeper than ever before, down down down as the slide accelerated, as
//the Dementor latched onto the exposed and vulnerable parts and fed on them,
//eating away the light. A fading reflex scrabbled for warmth, but even as an
//image of Hermione came to him, or an image of Mum and Dad, the Dementor twisted
//it, showed him Hermione lying dead on the ground, the corpses of his mother and
//father, and then even that was sucked away.
І Гаррі почав падати у свою темну сторону, падати вниз у свою темну сторону.
Далі, швидше й глибше, ніж будь-коли, униз, униз, униз, а зʼїзд у прірву
прискорювався, бо дементор огортав собою оголені й вразливі частини та поїдав
їх, поглинаючи світло. Рефлекс, що вже майже зник, нишпорив у пошуках тепла,
але коли згадувалися спогади про Герміону, маму й тата, то дементор спотворював
їх, показував Герміону, що лежала мертва на землі, трупи його батьків, а потім
навіть це з нього висмоктало.

// 8109
//Into the vacuum rose the memory, the worst memory, something forgotten so long
//ago that the neural patterns shouldn’t have still existed.
На місце вакууму піднявся спогад, найгірший зі спогадів, щось забуте так давно,
що нейронні звʼязки вже не мали б існувати.

// 8110
//__“Lily, take Harry and go! It’s him!” shouted a man’s voice. “Go! Run!
//I’ll hold him off!”__
// hedrok: пряма мова з канону
-- __Лілі, бери Гаррі й тікай! Це він! -- кричав чоловічий голос. -- Біжи!
Тікай! Я його затримаю!__

// 8111
//__And Harry couldn’t help but think, in the empty depths of his dark
//side, how ridiculously overconfident James Potter had been. Hold off Lord
//Voldemort? With what?__
__І Гаррі не міг стримати думки, посеред порожніх глибин своєї темної сторони,
як сміховинно самовпевненим був Джеймс Поттер. Затримати Лорда Волдеморта? Чим
це?__

// 8112
//__Then the other voice spoke, high-pitched like the hiss of a teakettle,
//and it was like dry ice laid on Harry’s every nerve, like a brand of metal
//cooled to liquid helium temperatures and laid on every part of him. And the
//voice said:__
// hedrok: 'high-pitched like the hiss of a teakettle' копія у
__Потім заговорив інший голос, високий, ніби шипіння чайника, цей голос
ніби приклав сухий лід до кожного нерва Гаррі, ніби металеве тавро охолодили
до температури рідкого гелію та доторкнулися ним до кожної частини його тіла.
Цей голос сказав:__

// 8113
//__“Avadakedavra.”__
-- __Авадакедавра.__

// 8114
//(The wand flew from the boy’s nerveless fingers as his body began to convulse
//and fall, the Headmaster’s eyes widening in alarm as he began his own Patronus
//Charm.)
(Паличка вилетіла з безсилих пальців хлопця, коли його тіло почало битися в
конвульсіях та падати, очі директора стривожено розширилися та він почав
створювати патронуса.)

// 8115
//__“Not Harry, not Harry, please not Harry!” screamed the woman’s voice.__
// hedrok: пряма мова з канону.
// Абабагаламага переклала "please not Harry" як "тільки не Гаррі".
// але через наступний абзац додав "будь ласка"
-- __Не Гаррі, не Гаррі, будь ласка, тільки не Гаррі!.. -- кричав жіночий
голос.__

// 8116
//__Whatever was left of Harry listened with all the light drained out of
//him, in the dead void of his heart, and wondered if she thought that Lord
//Voldemort would stop because she asked politely.__
__Хай що залишилося від Гаррі, слухало без жодного промінчика світла
всередині, у мертвій порожнечі його серця, і йому було цікаво, чи вона справді
гадала, що Лорд Волдеморт зупиниться, якщо попросити ввічливо.__

// 8117
//__“Step aside, woman!” said the shrill voice of burning cold. “For you I
//am not come, only the boy.”__
// hedrok: З канону лише "Step aside"
// hedrok: копія в 086:15755
-- __Відійди, жінко! -- вереснув пекуче холодний голос. -- Бо я прийшов не
по тебе, а лише по хлопця.__

// 8118
//__“Not Harry! Please… have mercy… have mercy…”__
// hedrok: канон, хоча Елізер поміняв наступну й цю репліки Лілі місцями.
-- __Не Гаррі! Прошу... помилуй його... помилуй...__

// 8119
//__Lily Potter, Harry thought, seemed not to understand what type of
//people became Dark Lords in the first place; and if this was the best strategy
//she could conceive to save her child’s life, that was her final failure as a
//mother.__
__Лілі Поттер, міркував Гаррі, видається, не розуміла, що за люди стають
темними лордами. І якщо це найкраща стратегія, яку вона могла вигадати, щоб
врятувати життя своєї дитини, то це була її остання невдача в ролі матері.__

// 8120
//__“I give you this rare chance to flee,” said the shrill voice. “But I
//will not trouble myself to subdue you, and your death here will not save your
//child. Step aside, foolish woman, if you have any sense in you at all!”__
// hedrok: копія в 046:8492, 082:14716, 086:15758
-- __Я даю тобі рідкісну можливість втекти, -- промовив пронизливий голос. --
Але я не марнуватиму час, щоб підкоряти тебе, і твоя смерть тут не врятує твоєї
дитини. Відійди, дурна жінко, якщо в тебе є бодай крапля розуму!__

// 8121
//__“Not Harry, please no, take me, kill me instead!”__
// hedrok: канон. Тільки в перекладі чомусь крапки, пунктуацію змінив.
-- __Не Гаррі, прошу, тільки не Гаррі, убий замість нього мене!__

// 8122
//__The empty thing that was Harry wondered if Lily Potter seriously
//imagined that Lord Voldemort would say yes, kill her, and then depart leaving
//her son unharmed.__
__Порожній істоті, що нею був Гаррі, було цікаво, чи Лілі Поттер справді могла
собі уявити, що Лорд Волдеморт погодиться, убʼє її, а потім піде й залишить її
сина неушкодженим.__

// 8123
//__“Very well,” said the voice of death, now sounding coldly amused, “I
//accept the bargain. Yourself to die, and the child to live. Now drop your wand
//so that I can murder you.”__
// hedrok: копія в 086:15760
// hedrok: копія в 108:18367
-- __Ну гаразд, -- сказав голос смерті, тепер здавалося, що йому весело, -- я
приймаю цю угоду. Ти помреш, а дитина житиме. Тепер кинь паличку, щоб я міг
тебе вбити.__

// 8124
//__There was a hideous silence.__
__Запала жахлива тиша.__

// 8125
//__Lord Voldemort began to laugh, horrible contemptuous laughter.__
__Лорд Волдеморт почав сміятися, огидно презирливо сміятися.__

// 8126
//__And then, at last, Lily Potter’s voice shrieked in desperate hate,
//“Avada ke-”__
__А потім, нарешті, голос Лілі Поттер верескнув з відчайдушною ненавистю
"`Авада ке...`".__

// 8127
//__The lethal voice finished first, the curse rapid and precise.__
__Смертельний голос завершив першим, закляття було швидким та точним.__

// 8128
//__“Avadakedavra.”__
-- __Авадакедавра.__

// 8129
//__A blinding flare of green marked the end of Lily Potter.__
__Сліпучий відблиск зеленого позначив кінець Лілі Поттер.__

// 8130
//__And the boy in the crib saw it, the eyes, those two crimson eyes,
//seeming to glow bright red, to blaze like miniature suns, filling Harry’s whole
//vision as they locked to his own -__
__І дитина в дитячому ліжечку побачила їх -- очі, два малинових ока, що
ніби світилися багряно-червоним, палали, ніби крихітні сонця, заполонили все
поле зору, коли зустрілися з його власними...__

***

// 8131
//The other children saw Harry Potter fall, they heard Harry Potter scream, a
//thin high-pitched scream that seemed to pierce their ears like knives.
Решта дітей бачили, як Гаррі Поттер упав, чули, як Гаррі Поттер кричав; це був
високий крик, що пронизував їхні вуха, наче ніж.

// 8132
//There was a brilliant silver flash as the Headmaster bellowed “__Expecto
//Patronum!__” and the blazing phoenix returned to being.
Був яскравий срібний спалах і директор заревів "`Експекто Патронум!`", тоді
повернувся палаючий фенікс.

// 8133
//But Harry Potter’s horrible scream went on and on and on, even as the
//Headmaster scooped up the boy in his arms and bore him away from the Dementor,
//even as Neville Longbottom and Professor Flitwick both went for the chocolate
//at the same time and -
Але жахливий крик Гаррі Поттера усе тривав і тривав, навіть коли директор
схопив його на руки й відніс подалі від дементора, навіть коли Невіл Лонґботом
та професор Флитвік одночасно пішли за шоколадом і...

// 8134
//Hermione knew it, she knew it as she saw it, she knew that her nightmare had
//been real, it was coming true, somehow it was coming true.
Герміона знала, вона знала, щойно побачила, знала, що її жахіття стало
дійсністю, якимось чином здійснювалося.

// 8135
//“Get him chocolate!” demanded the voice of Professor Quirrell, pointlessly,
//because Professor Flitwick’s tiny form was already cannonballing toward where
//the Headmaster was racing toward the students.
-- Дайте йому шоколаду! -- вимагав професор Квірел. Безґлуздо, адже крихітний
професор Флитвік уже летів кулею до директора, що біг до учнів.

// 8136
//Hermione was moving forward herself, though she didn’t know what else she meant
//to do -
Герміона й сама рухалася до них, хоча не знала, що збирається робити...

// 8137
//“__Cast Patronuses!__” shouted the Headmaster, as he brought Harry behind
//the Aurors. ”__Everyone who can! Get them between Harry and the Dementor!
//It’s still feeding on him!__”
-- __Створіть патронусів!__ -- крикнув директор, коли виніс Гаррі за аврорів.
-- __Усі, хто може! Хай вони стануть між Гаррі та дементором! Він досі
харчується ним!__

// 8138
//There was a moment of frozen horror.
На мить усі застигли від жаху.

// 8139
//“__Expecto Patronum!__” shouted Professor Flitwick and Auror Goryanof, and
//then Anthony Goldstein, but he failed the first time, and then Parvati Patil,
//who succeeded, and then Anthony tried again and his silver bird spread its
//wings and screamed at the Dementor, and Dean Thomas roared the words like they
//had been written in letters of fire and his wand gave birth to a towering white
//bear; there were eight blazing Patronuses all in a line between Harry and the
//Dementor, and Harry went on screaming and screaming as the Headmaster laid him
//on the dried grass.
-- Експекто Патронум! -- крикнули професор Флитвік, аврор Ґоряноф, а тоді
й Ентоні Ґольдштейн, хоча в нього не вийшло першого разу, потім Парваті Патіл
(у неї вийшло), а тоді Ентоні спробував знову, і його срібний птах розправив
крила та закричав на дементора. Дін Томас рикнув слова, ніби вони були написані
літерами з вогню, і його паличка народила височенного білого ведмедя. Вісім
палаючих патронусів були між Гаррі та дементором, та Гаррі все кричав і кричав,
коли директор поклав його на суху траву.

// 8140
//Hermione couldn’t cast a Patronus Charm, so she ran toward where Harry lay. In
//her mind, something tried to guess how long it had been already. Was it twenty
//seconds? More?
Герміона не могла створити патронуса, тому підбігла до Гаррі. Подумки вона
намагалася визначити, як довго вже. Двадцять секунд? Більше?

// 8141
//There was a dreadful agony and bewilderment on the face of Albus Dumbledore.
//His long black wand was in his hand, but he spoke no spells, only looked down
//at Harry’s convulsing body in horror -
На обличчі Албуса Дамблдора було видно страшенну муку й збентеження. Його довга
чорна паличка була в його руці, проте він не вимовляв жодних заклять, а лише
з жахом дивився на тіло Гаррі, що смикалося...

// 8142
//Hermione didn’t know what to do, she didn’t know what to do, she didn’t
//understand what was happening, and the most powerful wizard in the world seemed
//equally at a loss.
Герміона не знала, що робити, вона не знала, що робити, вона не розуміла, що
коїться, а наймогутніший чарівник у світі, видавалося, був не менш розгубленим.

// 8143
//“__Use your phoenix!__” bellowed Professor Quirrell. ”__Take him far
//away from that Dementor!__”
-- __Використайте фенікса!__ -- заревів професор Квірел. -- __Заберіть його
подалі від дементора!__

// 8144
//Without a single word the Headmaster scooped up Harry in his arms and vanished
//in a crack of fire along with the suddenly appearing Fawkes; and the
//Headmaster’s Patronus winked out, where it had guarded the Dementor.
Без жодного слова директор охопив Гаррі руками й зник з тріскотом вогню за
допомогою Фоукса, що раптово зʼявився. Патронус директора зник зі свого
місця, де стеріг дементора.

// 8145
//Horror and confusion and sudden babble.
Жах, спантеличення та раптовий гомін.

// 8146
//“Mr. Potter should recover,” Professor Quirrell said, raising his voice, but
//his tone now calm once again, “I think it was just over twenty seconds.”
-- Містер Поттер має одужати, -- підвищеним, проте знову спокійним тоном сказав
професор Квірел. -- Гадаю, це продовжувалося лише трохи більше за двадцять
секунд.

// 8147
//Then the blazing white phoenix appeared again, like it was flying before them
//from elsewhere, to Hermione Granger came the creature of moonlight, and it
//cried to her in Albus Dumbledore’s voice:
Тоді палаючий білий фенікс знову зʼявився, це створіння місячного світла
прилетіло нізвідки до Герміони Ґрейнджер та сказало голосом Албуса Дамблдора:

// 8148
//“__It still feeds on him, even here! How? If you know, Hermione Granger,
//you must tell me! Tell me!__”
-- __Воно досі харчується ним, навіть тут! Як? Якщо ти знаєш, Герміоно
Ґрейнджер, то маєш сказати! Скажи мені!__

// 8149
//The senior Auror turned to stare at her, and so did many students. Professor
//Flitwick didn’t turn, he was now leveling his wand on Professor Quirrell, who
//was holding out clearly empty hands.
Старший аврор обернувся, щоб поглянути на неї, як і багато учнів. Професор
Флитвік не озирнувся, він направляв паличку на професора Квірела, що
демонстративно тримав порожні руки в повітрі.

// 8150
//Seconds ticked past, uncounted.
Секунди тікали, ніхто їх не рахував.

// 8151
//She couldn’t remember it, she couldn’t remember the nightmare clearly, she
//couldn’t remember why she had thought it was possible, why she had been afraid
//-
Вона не могла згадати, не могла ясно згадати жахіття, не памʼятала, чому
гадала, що це можливо, чому вона боялася...

// 8152
//Hermione realized then what she ought to do, and it was the hardest decision of
//her life.
І тоді Герміона зрозуміла, що вона має зробити, і це було найскладніше рішення в
її житті.

// 8153
//What if whatever had happened to Harry, happened to her too?
Що, як з нею станеться те саме, що з Гаррі?

// 8154
//All her limbs cold as death, her vision gone dark, fear overwhelming
//everything; she’d seen Harry dying, Mum and Dad dying, all her friends dying,
//everyone dying, so that in the end, when she died, she would be alone. That was
//her secret nightmare she’d never talked about with anyone, that had given the
//Dementor its power over her, the loneliest thing was to die alone.
Всі її кінцівки стали холодними, мов смерть, в голові запаморочилося, страх
пересилював усе. Вона бачила була, як помер Гаррі, як померли мама й тато, і
всі її друзі, всі померли, і зрештою, коли вона померла, вона була сама. Це
було її таємним жахіттям, що про нього вона ніколи ні з ким не розмовляла, і
воно надало дементору владу над нею. Найсамотніше, що може бути, -- померти
самотньо.

// 8155
//She didn’t want to go to that place again, she, she didn’t, she didn’t want to
//stay there forever -
Вона не хотіла туди повертатися, вона... вона не... вона не хотіла залишитися
там назавжди...

// 8156
//__You have courage enough for Gryffindor,__ said the calm voice of the
//Sorting Hat in her memory, __but you will do what is right in any House I
//give you. You will learn, you will stand by your friends, in any House you
//choose. So don’t be afraid, Hermione Granger, just decide where you belong…__
__У тебе достатньо сміливості для Ґрифіндору,__ сказав спокійний голос
Сортувального Капелюха з її спогадів, __але ти чинитимеш правильно в будь-якому
гуртожитку, який я назву. Ти навчатимешся, ти стоятимеш поряд з друзями у
будь-якому гуртожитку, що ти вибереш. Тому не бійся, Герміоно Ґрейнджер, просто
виріши, де тобі місце...__

// 8157
//There was no time for deciding, Harry was dying.
Не було часу на роздуми -- Гаррі помирав.

// 8158
//“I can’t remember now,” said Hermione, her voice cracking, “but just hold on,
//I’ll go in front of the Dementor again…”
-- Зараз я не памʼятаю, -- сказала Герміона надломленим голосом, -- але
зачекайте, я знову стану перед дементором...

// 8159
//She started to run toward the Dementor.
Вона почала бігти до дементора.

// 8160
//“Miss Granger!” squeaked Professor Flitwick, but he made no move to stop her,
//only kept holding his wand on Professor Quirrell.
-- Міс Ґрейнджер! -- пискнув професор Флитвік, але не поворухнувся, щоб зупинити
її, -- лише тримав свою паличку направленою на професора Квірела.

// 8161
//“__Everyone!__” shouted Auror Komodo in a voice of military command.
//”__Get your Patronuses out of her way!__”
-- __Усі!__ -- крикнув аврор Комодо як військову команду. -- __Приберіть
свої патронуси з її шляху!__

// 8162
//“__FLITWICK!__” roared Professor Quirrell. ”__SUMMON POTTER’S
//WAND!__”
// hedrok: Summoning Charm -> замовляння викликання, Абабагаламага
-- __ФЛИТВІКУ!__ -- гаркнув професор Квірел. -- __ВИКЛИЧ ПАЛИЧКУ
ПОТТЕРА!__

// 8163
//Even as Hermione understood, Professor Flitwick was already crying
//“__Accio!__”, and she saw the stick of wood zooming up from where it had
//lain almost touching the Dementor’s cage.
Герміона тільки-но збагнула, а професор Флитвік уже кричав "`__Акціо!__`", і
вона побачила, як шматок дерева прилетів з місця, де він лежав і ледь не
торкався клітки дементора.

***

// 8164
//The eyes opened, dead and vacant.
Очі розплющилися, мертві й порожні.

// 8165
//“__Harry!__” gasped a voice in the colorless world. ”__Harry! Speak
//to me!__”
-- __Гаррі!__ -- крикнув голос у світі без кольорів. -- __Гаррі! Скажи
мені щось!__

// 8166
//The face of Albus Dumbledore leaned over into the field of vision, which had
//been occupied by a distant marble ceiling.
Обличчя Албуса Дамблдора схилилося в поле зору, де раніше була лише далека
мармурова стеля.

// 8167
//“You’re annoying,” said the empty voice. “You should die.”
-- Ти дратуєш, -- сказав порожній голос. -- Ти маєш померти.
