// 8373
//== Humanism, Pt 4
== Розділ 46. Гуманізм, ч.4

// 8374
//The last tip of the Sun was sinking below the horizon, the red light fading
//from the treetops, only the blue sky illuminating the six people standing upon
//the winter-dried and snow-spotted grass, near a vacant cage on whose floor lay
//an empty, tattered cloak.
Сонце повністю сховалося за обрієм, червоне світло зникало з верхівок дерев,
лише синє небо освітлювало шістьох людей, що стояли на висушеній зимою та
припорошеній снігом траві поряд з вільною кліткою, на дні якої лежав подраний
плащ.

// 8375
//Harry felt… well, __normal__ again. Sane-ish. The spell hadn’t undone the
//day and its damage, hadn’t made the injuries as if they had never been, but his
//hurts had been… bandaged, meliorated? It was hard to describe.
Гаррі почувався... ну, знову __нормальним__. При своєму розумі. Закляття не
скасувало цього дня та шкоди від нього, не змусило рани зникнути, але воно
їх... перевʼязало, зняло біль? Це було складно описати.

// 8376
//Dumbledore was also looking healthier, though not fully restored. The old
//wizard’s head turned for a moment, locked eyes with Professor Quirrell, then
//looked back to Harry. “Harry,” Dumbledore said, “are you about to collapse in
//exhaustion and possibly die?”
Дамблдор також здавався більш здоровим, хоч і не в повній силі. Старий чарівник
ненадовго повернув голову та схрестив погляди з професором Квірелом, а потім знову
поглянув на Гаррі.

-- Гаррі, -- сказав Дамблдор, -- ти збираєшся впасти від утоми й можливо
померти?

// 8377
//“No, strangely enough,” Harry said. “That took something out of me, but a lot
//less than I thought it would.” __Or maybe it gave something back, as well
//as taking… __“Honestly, I expected my body to be hitting the ground with a thud
//about now.”
-- Як не дивно, ні. Щось я втратив через закляття, але значно менше, ніж я
очікував, -- __а можливо навіть щось отримав, а не лише втратив...__ -- Чесно,
я гадав, що моє тіло приблизно зараз гепнеться на землю.

// 8378
//There was a distinct body-hitting-the-ground-with-a-thuddish sort of sound.
Почулися виразні звуки гепання тіл об землю.

// 8379
//“Thank you for taking care of that, Quirinus,” said Dumbledore to Professor
//Quirrell, who was now standing above and behind the unconscious forms of the
//three Aurors. “I confess I am still feeling a bit peaky. Though I shall handle
//the Memory Charms myself.”
// hedrok: @ peaky (єдина інша зустріч - 017:2921, можливо, це щось означає...
-- Дякую, що попіклувався про це, Квіріне, -- сказав Дамблдор професорові
Квірелу, що тепер стояв над і за непритомними тілами трьох аврорів. --
Зізнаюся, що мені досі трохи зле. Проте з чарами памʼяті я розберуся
сам.

// 8380
//Professor Quirrell inclined his head, and then looked at Harry. “I will omit a
//good deal of useless incredulity,” said Professor Quirrell, “remarks to the
//effect that Merlin himself failed to do that, et cetera. Let us go straight to
//asking the important question. What the sweet slithering snakes was
//__that?__”
Професор Квірел схилив голову, а потім поглянув на Гаррі.

// hedrok: the sweet slithering snakes копія у 049:8946
-- Я знехтую даремним висловлюванням подиву, -- сказав професор Квірел, --
зауваженнями про те, що самому Мерлінові це не вдалося й таке інше. Перейдімо
одразу до важливого питання. Що, заради всіх повзучих змій, __це було__?

// 8381
//“The Patronus Charm,” Harry said. “Version 2.0.”
-- Чари патронуса, -- сказав Гаррі. -- Версія 2.0.

// 8382
//“I rejoice to see that you are your usual self again,” said Dumbledore. “But
//you are not going __anywhere__, young Ravenclaw, until you tell me what
//exactly was that warm and happy thought.”
-- Я безмежно радий, що ти знову став собою, -- сказав Дамблдор. -- Проте ти
__з місця не зійдеш__, юний рейвенкловцю, доки не розкажеш мені, яку саме теплу
й щасливу думку ти використав.

// 8383
//“Hm…” said Harry. He tapped a contemplative finger on his cheek. “I wonder if I
//should?”
-- Гм... -- сказав Гаррі. Він задумливо постукав пальцем по щоці. -- Чи варто
розповідати?..

// 8384
//Professor Quirrell suddenly grinned.
Професор Квірел раптом вишкірився.

// 8385
//“Please?” said the Headmaster. “Pretty please with sugar on top?”
-- Будь ласка? -- сказав директор. -- Дуже дуже прошу будь ласочка?

// 8386
//Harry felt an impulse and decided to go with it. It was dangerous, but there
//might not ever be a better opportunity until the end of time.
Гаррі відчув порив і вирішив не опиратися йому. Це було небезпечно, проте
кращої нагоди може не трапитися до кінця всесвіту.

// 8387
//“Three sodas,” Harry said to his pouch, then looked up at the Defense Professor
//and the Headmaster of Hogwarts. “Gentlemen,” Harry said, “I bought these sodas
//on my first visit to Platform Nine and Three-Quarters, on the day I entered
//into Hogwarts. I have been saving them for special occasions; there is a minor
//enchantment on them to ensure they are drunk at the right time. This is the
//last of my supply, but I do not think there will ever come a finer occasion.
//Shall we?”
-- Три газовані напої, -- сказав Гаррі капшучку та поглянув на професора із
захисту й директора Гоґвортсу. -- Панове, я купив ці напої під час першого
відвідування платформи девʼять і три чверті, того дня, коли я вступив до
Гоґвортсу. Я зберігав їх для якоїсь особливої події. На них накладено невеличке
заклинання, що гарантує, що їх випʼють у правильний час. Це останні з мого
запасу, але навряд чи колись буде краща нагода. Будьмо?

// 8388
//Dumbledore took a soda can from Harry, and Harry tossed another to Professor
//Quirrell. The two older men each muttered identical charms over the can and
//frowned briefly at the result. Harry, for his part, simply popped the top and
//drank.
Дамблдор взяв бляшанку з рук Гаррі, і Гаррі кинув другу професорові Квірелу.
Два старших чоловіки пробурмотіли однакові чари над бляшанками й трохи
спохмурніли від результату. Гаррі зі свого боку просто відкрив бляшанку та
почав пити.

// 8389
//The Defense Professor and the Headmaster of Hogwarts politely followed suit.
Професор із захисту й директор Гоґвортсу чемно зробили так само.

// 8390
//Harry said, “I thought of my absolute rejection of death as the natural order.”
// hedrok: копія в 055:9635
І тоді Гаррі сказав:

-- Моя думка була про цілковите невизнання смерті як природного порядку.

// 8391
//It might not be the right kind of warm feeling you needed to cast a Patronus
//Charm, but it was going into Harry’s Top 10 nonetheless.
Мабуть, це тепле відчуття не використати для чарів патронуса, проте воно
все одно посіло місце в десятці найліпших спогадів Гаррі.

// 8392
//The looks he got from the Defense Professor and the Headmaster briefly made
//Harry nervous, as the spilled Comed-Tea faded out of existence; but then the
//two of them each glanced at the other and both apparently decided that they
//couldn’t get away with doing anything really awful to Harry in the other’s
//presence.
Те, як професор із захисту та директор поглянули на Гаррі, змусило його
нервувати, доки пирсконад зникав. Проте потім вони поглянули один на одного
і, напевно, обидва вирішили, що вони не в змозі зробити з Гаррі щось справді
жахливе в присутності іншого.

// 8393
//“Mr. Potter,” said Professor Quirrell, “even __I__ know that is not how
//things are supposed to work.”
-- Містере Поттер, -- сказав професор Квірел, -- навіть __я__ знаю, що
ці чари працюють не так.

// 8394
//“Indeed,” said Dumbledore. “Explain.”
-- Дійсно, -- сказав Дамблдор, -- розʼясни.

// 8395
//Harry opened his mouth, and then, as realization hit him, rapidly snapped his
//mouth shut again. Godric hadn’t told anyone, nor had Rowena if she’d known;
//there might have been any number of wizards who’d figured it out and kept their
//mouths shut. You couldn’t forget if you __knew__ that was what you were
//trying to do; once you realized __how__ it worked, the animal form of the
//Patronus Charm would never work for you again - and most wizards didn’t have
//the right upbringing to turn on Dementors and destroy them -
Гаррі розкрив рота, а потім він раптом усвідомив та хутко стулив губи.
Ґодрик нікому не сказав, як і Ровена, якщо вона знала. Могло існувати скільки
завгодно чарівників, що здогадалися й тримали язика за зубами. Неможливо
забути щось, якщо ти __знаєш__, що намагаєшся це зробити. Щойно ти усвідомиш,
__як__ вона працювала, тваринна форма чарів патронуса у тебе більше ніколи не
вийде -- а більшість чарівників не мали відповідного виховання, щоб знищувати
дементорів...

// 8396
//“Erm, sorry about this,” said Harry. “But I’ve just this instant realized that
//explaining would be an __incredibly__ bad idea until you work some things
//out on your own.”
-- Кгем, мені прикро, -- сказав Гаррі. -- Проте я ось щойно збагнув, що
пояснювати це буде __надзвичайно__ поганою ідеєю, доки ви дещо не зрозумієте
самі.

// 8397
//“Is that the truth, Harry?” Dumbledore said slowly. “Or are you just pretending
//to be wise -”
-- Це правда, Гаррі? -- повільно запитав Дамблдор. -- Чи ти лише вдаєш
мудрість...

// 8398
//“__Headmaster!__” said Professor Quirrell, sounding genuinely shocked.
//“Mr. Potter has told you that this spell is not spoken of with those who cannot
//cast it! You do not press a wizard on such matters!”
-- __Директоре!__ -- сказав професор Квірел, і видавалося, що він щиро
шокований. -- Містер Поттер сказав вам, що про це закляття не можна говорити
з тими, хто його ще не опанував! Не можна тиснути на чарівника в таких
справах!

// 8399
//“If I told you -” Harry began.
-- Якби я розповів вам... -- почав Гаррі.

// 8400
//“No,” Professor Quirrell said, sounding rather severe. “You don’t tell us
//__why,__ Mr. Potter, you simply tell us that we are not to know. If you
//wish to devise a hint, you do so carefully, at leisure, not in the midst of
//conversation.”
-- Ні, -- доволі суворо сказав професор Квірел. -- Ви не розповідаєте нам
__чому__, містере Поттер, ви просто кажете, що нам не треба знати. Якщо ви
бажаєте вигадати підказку, то зробіть це вдумливо, у вільний час, а не посеред
розмови.

// 8401
//Harry nodded.
Гаррі кивнув.

// 8402
//“But,” said the Headmaster. “But, but what am I to tell the Ministry? You can’t
//just __lose__ a Dementor!”
-- Але, -- сказав директор. -- Але, але що я скажу міністерству? Не можна
просто __загубити__ дементора!

// 8403
//“Tell them I ate it,” said Professor Quirrell, causing Harry to choke on the
//soda he had unthinkingly raised to his lips. “I don’t mind. Shall we head on
//back, Mr. Potter?”
-- Скажіть їм, що я його зʼїв, -- сказав професор Квірел, через що Гаррі похлинувся
пирсконадом, що він його бездумно пригубив. -- Я не проти. Ходімо назад, містере
Поттер?

// 8404
//The two of them began to walk the dirt path back to Hogwarts, leaving behind
//Albus Dumbledore staring forlornly at the empty cage and the three sleeping
//Aurors awaiting their Memory Charms.
Вони вдвох пішли ґрунтовою стежкою назад до Гоґвортсу. Албус Дамблдор залишився
позаду, він витріщався на порожню клітку та трьох аврорів, що спали в
очікуванні на свої чари памʼяті.

***

// 8405
//__Aftermath, Harry Potter and Professor Quirrell:__
__Наслідки, Гаррі Поттер і професор Квірел:__

// 8406
//They walked for a while before Professor Quirrell spoke, and all background
//noise dropped into silence when he did.
Деякий час вони йшли мовчки, доки професор Квірел не заговорив. Весь фоновий
шум миттю вщухнув.

// 8407
//“You are exceptionally good at killing things, my student,” said Professor
//Quirrell.
-- Ви надзвичайно вправні у вбивстві речей, мій учню, -- сказав професор
Квірел.

// 8408
//“Thank you,” Harry said sincerely.
-- Дякую, -- щиро відповів Гаррі.

// 8409
//“I am not prying,” said Professor Quirrell, “but on the off-chance that it was
//__only__ the Headmaster who you did not trust with the secret…?”
-- Я не намагаюся щось винюхати, -- сказав професор Квірел, -- проте чи існує
невеличка імовірність, що ви не хочете довірити цей секрет __лише__
директорові?..

// 8410
//Harry considered this. Professor Quirrell already couldn’t cast the animal
//Patronus Charm.
Гаррі обміркував це. Професор Квірел все одно не міг використовувати тваринні
чари патронуса.

// 8411
//But you couldn’t untell a secret, and Harry was a fast enough learner to
//realize that he ought to at least __think__ for a while before unleashing
//this one upon the world.
Але що вимовиш язиком, того не витягнеш і волом, і Гаррі достатньо швидко
вчився, щоб зрозуміти, що він має принаймні __подумати__ перед тим, як
вивільнити цю таємницю.

// 8412
//Harry shook his head, and Professor Quirrell nodded acceptance.
Гаррі похитав головою, і професор Квірел кивнув на знак згоди.

// 8413
//“Out of curiosity, Professor Quirrell,” said Harry, “if your bringing the
//Dementor to Hogwarts had been part of an evil plot, what would have been its
//goal?”
-- З цікавості, професоре Квірел, якби ви привели дементора до Гоґвортсу для
здійснення якогось злого плану, то якою була б мета цього плану?

// 8414
//“Assassinate Dumbledore while he was weakened,” Professor Quirrell said without
//even hesitating. “Hm. The Headmaster told you he was suspicious of me?”
-- Вбити Дамблдора, доки він ослаблений, -- без жодних роздумів відповів
професор Квірел. -- Гм. Директор сказав вам, що підозрює мене?

// 8415
//Harry said nothing for a second while he tried to think of a reply, and then
//gave up when he realized he’d already answered.
Гаррі мовчав протягом тої секунди, доки намагався вигадати відповідь, а потім
здався, коли зрозумів, що вже відповів.

// 8416
//“Interesting…” Professor Quirrell said. “Mr. Potter, it is not out of the
//question that there __was__ a plot at work today. Your wand ending up that
//close to the Dementor’s cage __could__ have been an accident. Or one of
//the Aurors could have been Imperiused, Confunded, or Legilimized to exert an
//influence. Flitwick and myself should not be excluded as suspects, in your
//calculation. One notes that Professor Snape canceled all his classes today, and
//I suspect he is powerful enough to Disillusion himself; the Aurors cast
//detection charms early on, but they did not repeat them immediately before your
//turn. But most easily of all, Mr. Potter, the deed could have been plotted by
//Dumbledore himself; and if he __did__, why, he might also take steps in
//advance to cast your suspicion elsewhere.”
-- Цікаво... Містере Поттер, не варто виключати, що сьогоднішні події __були__
результатом якогось плану. Ваша паличка __могла__ впасти так близько до клітки
дементора випадково. Або одного з аврорів за допомогою Імперіуса, Конфундуса чи
виманології змусили допомогти цьому. Флитвік і я не повинні оминути ваші підозри.
Також цікаво, що професор Снейп скасував усі свої заняття сьогодні, а я гадаю,
що він достатньо могутній, щоб розілюзнити себе. Аврори використовували чари
виявлення на початку, проте вони не повторювали їх прямо перед вашою спробою.
Але найлегше, містере Поттер, все це спланувати було самому Дамблдорові.
І __якщо__ він це зробив, ну, він міг також заздалегідь вжити заходів, щоб ви
підозрювали когось іншого.

// 8417
//They walked on for a few steps.
Вони пройшли кілька кроків.

// 8418
//“But why __would__ he?” Harry said.
-- Але __навіщо__ це йому?

// 8419
//The Defense Professor stayed quiet a moment, and then said, “Mr. Potter, what
//steps have you taken to investigate the Headmaster’s character?”
Професор із захисту трохи помовчав, а потім запитав:

-- Містере Поттер, а що ви зробили, щоб дослідити характер директора?

// 8420
//“Not many,” said Harry. He’d only recently realized… “Not nearly enough.”
-- Небагато чого, -- відповів Гаррі. Він лише зараз зрозумів... -- Замало
зробив.

// 8421
//“Then I will observe,” said Professor Quirrell, “that you do not find out all
//there is to know about a man by asking only his friends.”
-- Тоді я зазначу, що не можна дізнатися про людину все, якщо розпитувати лише
її друзів.

// 8422
//Now it was Harry’s turn to walk a few steps in silence on the slightly beaten
//dirt path that led back to Hogwarts. He’d really been supposed to know better
//than that already. Confirmation bias was the technical term; it meant, among
//other things, that when you chose your information sources, there was a notable
//tendency to choose information sources that agreed with your current opinions.
Тепер Гаррі зробив кілька кроків мовчки дещо битим ґрунтовим шляхом, що вів до
Гоґвортсу. Йому слід би було й самому про це не забувати. Технічно це
називалося "`підтверджувальне упередження`" -- це означало, серед іншого, що
при виборі джерел інформації була помітна схильність вибирати ті джерела
інформації, що підтримували ваші поточні погляди.

// 8423
//“Thank you,” Harry said. “Actually… I didn’t say it earlier, did I? Thank you
//for __everything__. If another Dementor ever threatens you, or for that
//matter, slightly annoys you, just let me know and I’ll introduce it to Mister
//Glowy Person. I don’t like it when Dementors slightly annoy my friends.”
-- Дякую, -- сказав Гаррі. -- Насправді... Я ж раніше цього не казав? Дякую вам
за __все__. Якщо якийсь дементор колись погрожуватиме вам чи, насправді, трохи
дратуватиме вас, дайте мені знати, і я познайомлю його з "`паном Сяйво`". Мені не
до вподоби, коли дементори трохи дратують моїх друзів.

// 8424
//That got him an indecipherable glance from Professor Quirrell. “You destroyed
//the Dementor because it threatened me?”
Відповіддю йому був незбагненний погляд професора Квірела.

-- Ви знищили дементора, бо він погрожував мені?

// 8425
//“Erm,” Harry said, “I’d sort of decided on it before then, but yes, that would
//have been sufficient reason by itself.”
-- Ем, насправді я вирішив це зробити раніше, але так, це окремо теж було б
достатньою причиною.

// 8426
//“I see,” said Professor Quirrell. “And what would you have done about the
//threat to me if your spell __hadn’t__ worked for destroying the Dementor?”
-- Ясно. А що б ви зробили щодо цієї погрози мені, якби ваше закляття __не
знищило__ дементора?

// 8427
//“Plan B,” said Harry. “Encase the Dementor in dense metal with a high melting
//point, probably tungsten, drop it into an active volcano, and hope it ends up
//inside Earth’s mantle. Ah, the whole planet is filled with molten lava under
//its surface -”
// hedrok: копія в 108:18351 (вулкан)
-- План Б: заточити дементора в щільному металі з високою температурою плавлення,
напевно у вольфрамі, кинути в активний вулкан і сподіватися, що він опиниться в
мантії Землі. О, вся планета наповнена рідкою лавою під поверхнею...


// 8428
//“Yes,” said Professor Quirrell. “I know.” The Defense Professor was wearing a
//very odd smile. “I really should have thought of that myself, all things
//considered. Tell me, Mr. Potter, if you wanted to lose something where no one
//would ever find it again, where would you put it?”
// hedrok: копія в 108:18351 (питання)
-- Так, я знаю, -- професор із захисту дуже дивно всміхався. -- Я справді мав
сам про це подумати, зважаючи на все. Скажіть, містере Поттер, якби ви хотіли
загубити щось там, де ніхто ніколи його більше не знайде, куди б ви це щось
заховали?

// 8429
//Harry considered this question. “I suppose I shouldn’t ask __what__ you’ve
//found that needs losing -”
Гаррі обміркував питання.

-- Гадаю, я не маю питати __що__ ви знайшли, що треба загубити...

// 8430
//“Quite,” said Professor Quirrell, as Harry had expected; and then, “Perhaps you
//will be told when you are older,” which Harry hadn’t.
// hedrok: "Perhaps...older" копія в 108:18348
-- Звісно, -- сказав професор Квірел, як Гаррі й очікував. -- Можливо, вам
скажуть, коли ви будете старші, -- цього Гаррі аж ніяк не очікував.

// 8431
//“Well,” said Harry, “besides trying to get it into the molten core of the
//planet, you could bury it in solid rock a kilometer underground in a randomly
//selected location - maybe teleport it in, if there’s some way to do that
//blindly, or drill a hole and repair the hole afterward; the important thing
//would be not to leave any traces leading there, so it’s just an anonymous cubic
//meter somewhere in the Earth’s crust. You could drop it into the Mariana
//Trench, that’s the deepest depth of ocean on the planet - or just pick some
//random other ocean trench, to make it less obvious. If you could make it
//buoyant and invisible, then you could throw it into the stratosphere. Or
//ideally you would launch it into space, with a cloak against detection, and a
//randomly fluctuating acceleration factor that would take it out of the Solar
//System. And afterward, of course, you’d Obliviate yourself, so even you didn’t
//know exactly where it was.”
// hedrok: копія в 108:18351
-- Ну, крім спроби занурити це щось у розплавлену кору планети, можна поховати
його в твердій скелі на кілометр під землю у випадковому місці -- можливо,
телепортувати його туди, якщо є метод зробити це всліпу, або просвердлити діру
й полагодити її після. Важливо не залишати жодних слідів, це має бути
непримітний кубічний метр десь на земній корі. Можна кинути це щось у
Маріанський жолоб -- це найглибше місце океану нашої планети -- або просто
вибрати якийсь випадковий океанський жолоб, щоб було не так очевидно. Можна
зробити його невагомим та невидимим, тоді можна закинути його в стратосферу. Чи,
в ідеалі, закинути його в космос із прикриттям від виявлення й випадковими
змінами прискорення, щоб воно покинуло Сонячну систему. А після цього, звісно,
треба забуттятнути себе, навіть якщо ви не знаєте точно, де воно.

// 8432
//The Defense Professor was laughing, and it sounded even odder than his smile.
Професор із захисту сміявся, і сміх його був навіть дивнішим за усмішку.

// 8433
//“Professor Quirrell?” Harry said.
-- Професоре Квірел?

// 8434
//“All excellent suggestions,” said Professor Quirrell. “But tell me, Mr. Potter,
//why those exact five?”
-- Кожна пропозиція чудова. Але скажіть мені, містере Поттер, чому саме ці пʼять
варіантів?

// 8435
//“Huh?” said Harry. “They just seemed like the obvious sorts of ideas.”
-- Га? Вони просто здалися мені очевидними.

// 8436
//“Oh?” said Professor Quirrell. “But there is an interesting pattern to them,
//you see. One might say it sounds like something of a riddle. I must admit, Mr.
//Potter, that although it has had its ups and downs, on the whole, this has been
//a surprisingly good day.”
// hedrok: "something of a riddle" 108:18351
// hedrok: остання фраза дуже схожа на 89:16237
-- Он як? Але в них є цікава закономірність, знаєте. Можна сказати, що є в них
щось... душевне. Маю визнати, містере Поттер, що незважаючи на злети й падіння
впродовж цього дня, загалом день видався на диво добрим.

// 8437
//And they continued walking down the path that led to the gates of Hogwarts,
//quite some distance apart; as Harry, without even thinking about it,
//automatically stayed far enough away from the Defense Professor not to trigger
//that sense of doom, which for some reason seemed unusually strong right now.
І вони продовжили йти до брами Гоґвортсу на деякій відстані один від одного.
Гаррі, навіть не усвідомлюючи цього, автоматично тримався достатньо далеко від
професора із захисту, щоб не викликати відчуття невідворотного, що з
якоїсь причини було зараз особливо сильним.

***

// 8438
//__Aftermath, Daphne Greengrass:__
__Наслідки, Дафна Ґрінґрас:__

// 8439
//Hermione had refused to answer any questions, and as soon as they’d passed the
//split leading to the Slytherin dungeons, Daphne and Tracey had peeled off at
//once, walking as quickly as they could. Rumor traveled fast in Hogwarts, so
//they’d have to go to the dungeons right away if they wanted to be the first to
//tell everyone the story.
Герміона відмовилася була відповісти бодай на одне питання, і щойно вони
підійшли до розвилки до підземель Слизерину, Дафна та Трейсі одразу відділилися
від решти. Плітки ширилися Гоґвортсом швидко, вони мали дістатися підземель
негайно, якщо хотіли розповісти цю історію першими.

// 8440
//“Now remember,” said Daphne, “don’t just blurt out about the kiss as soon as we
//walk in, okay? It works better if we tell the whole story in order.”
-- Памʼятай, -- сказала Дафна, -- не ляпни язиком про поцілунок щойно ми
зайдемо, гаразд? Краще розповісти всю історію послідовно.

// 8441
//Tracey nodded excitedly.
Трейсі збуджено кивнула.

// 8442
//And as soon as they burst into the Slytherin common room, Tracey Davis took a
//deep breath and shouted, “__Everyone! Harry Potter couldn’t cast the
//Patronus Charm and the Dementor almost ate him and Professor Quirrell saved him
//but then Potter was all evil until Granger brought him back with a kiss! It’s
//true love for sure!__”
І щойно вони влетіли у вітальню Слизерину, Трейсі Девіс глибоко вдихнула й крикнула:

-- __Гей, усі! Гаррі Поттер не зміг застосувати чари патронуса, дементор ледь
не зʼїв його, професор Квірел врятував його, але Поттер став весь такий злий,
доки Ґрейнджер не повернула його поцілунком! Це без сумнівів історія
справжнього кохання!__

// 8443
//It was ordered storytelling of a sort, Daphne supposed.
Ну, це була послідовна розповідь, хоч і своєрідна, вирішила Дафна.

// 8444
//The news failed to produce the expected reaction. Most of the girls glanced
//over and then stayed in their couches, or the boys simply kept reading in their
//chairs.
Новини не справили очікуваного враження. Більшість дівчат лише кинули на них оком,
а не підстрибнули з диванчиків. Хлопці просто продовжували читати, сидячи на
стільцях.

// 8445
//“Yes,” said Pansy sourly, from where she was sitting with Gregory’s feet in her
//lap, leaning back and reading what seemed to be a coloring book, “Millicent
//already told us.”
-- Так, -- сердито сказала Пенсі, вона спиралася на спинку, на її колінах
лежали ноги Ґреґорі, вона читала якусь книжку, що дуже скидалася на
розмальовку. -- Мілісент уже розповіла нам.

// 8446
//__How -__
__Як...__

// 8447
//“Why didn’t __you__ kiss him first, Tracey?” said Flora and Hestia Carrow
//from their own chairs. “Now Potter’s going to marry a mudblood girl!
//__You__ could’ve been his true love and gotten into a rich Noble House and
//everything if you’d just kissed him first!”
-- Чому __ти__ не поцілувала його першою, Трейсі? -- запитали Флора та Гестія
Керроу, теж не підводячись із місця. -- Тепер Поттер одружиться з бруднокровкою!
__Ти__ могла б стати його справжнім коханням, стати частиною багатого
шляхетного роду й усе таке, якби поцілувала його першою!

// 8448
//Tracey’s face was a picture in stunned realization.
Обличчя Трейсі було витвором мистецтва з виразу приголомшення.

// 8449
//“__What?__” shrieked Daphne. “Love does not work like that!”
-- __Що?__ -- вереснула Дафна. -- Кохання працює не так!

// 8450
//“Of course it does,” stated Millicent from where she was practicing some sort
//of Charm while looking out a window at the swirling waters of the Hogwarts
//Lake. “First kiss gets the prince.”
-- Звісно, що так, -- оголосила Мілісент, вона практикувала якісь чари й
дивилася з вікна на вирування води в озері Гоґвортсу. -- Перший поцілунок дає
право на принца.

// 8451
//“__It wasn’t their first kiss!__” shouted Daphne. “Hermione was
//__already__ his true love! That’s why __she__ could bring him back!”
//Then Daphne realized what she’d just said and winced internally, but as the
//saying went, you had to fit the tongue to the ear.
-- __Це був не перший їхній поцілунок!__ -- крикнула Дафна. -- Герміона __вже__
була його справжнім коханням! Ось чому __вона__ змогла повернути його!

Тоді Дафна збагнула, що вона щойно сказала, й внутрішньо здригнулася, але, як
кажуть, треба припасовувати розповідь до слухачів.

// 8452
//“Whoa, whoa, whoa, what?” said Gregory, swinging his feet off Pansy’s lap.
//“What’s this? Miss Bulstrode didn’t tell that part.”
-- Агов, агов, що? -- вигукнув Ґреґорі, знявши ноги з колін Пенсі. -- Це ще
що таке? Міс Булстроуд не розповідала про це.

// 8453
//Everyone else was also looking at Daphne, now.
Тепер усі інші також дивилися на Дафну.

// 8454
//“Oh, yeah,” said Daphne, “Harry shoved her away and shouted, ‘I told you, no
//kissing!’ Then Harry screamed like he was dying and Fawkes started singing to
//him - I’m not sure which one of those happened first, actually -”
// hedrok: no kissing - копія 036:7278
-- О, так, -- сказала Дафна, -- Гаррі відштовхнув її та крикнув: "`Я ж казав
тобі! Жодних поцілунків!`" Тоді Гаррі заволав, ніби помирає, і Фоукс почав
співати йому... Насправді, я не впевнена, що сталося спочатку...

// 8455
//“That doesn’t sound like true love to __me,__” said the Carrow twins.
//“That sounds like the __wrong person__ kissed him.”
-- Як на __мене__, це не скидається на справжнє кохання, -- сказали близнюки
Керроу. -- А скидається на те, що __не та__ його поцілувала.

// 8456
//“It was supposed to be __me__,” whispered Tracey. Her face was still
//stunned. “__I__ was supposed to be his true love. Harry Potter was
//__my__ general. I should’ve, I should’ve fought Granger for him -”
-- Це мала бути __я__, -- прошепотіла Трейсі. Приголомшення не покидало
її обличчя. -- __Я__ мала стати його справжнім коханням. Гаррі Поттер
-- __мій__ генерал. Я мала, я мала боротися з Ґрейнджер за нього...

// 8457
//Daphne spun on Tracey, incensed. “__You?__ Take Harry away from Hermione?”
Дафна обернулася до Трейсі, в її голосі чулося обурення:

-- __Ти?__ Забереш Гаррі в Герміони?

// 8458
//“Yeah!” said Tracey. “Me!”
-- Ага! -- відповіла Трейсі. -- Я!

// 8459
//“You’re nuts,” Daphne stated with conviction. “Even if you __had__ kissed
//him first, you know what that would make you? The sad little lovestruck girl
//who dies at the end of Act Two.”
-- Ти здуріла, -- переконано сказала Дафна. -- Навіть якби __ти__ поцілувала
його першою, знаєш, ким би ти стала? Сумною незначною закоханою по вуха
дівчинкою, що помирає наприкінці другої дії пʼєси.

// 8460
//“__You take that back!__” shouted Tracey.
-- __Ану забери свої слова!__ -- закричала Трейсі.

// 8461
//Meanwhile, Gregory had crossed the room to where Vincent was doing his
//homework. “Mr. Crabbe,” Gregory said in a low voice, “I think Mr. Malfoy needs
//to know about this.”
Тим часом Ґреґорі перетнув кімнату до місця, де Вінсент виконував домашнє
завдання.

-- Містере Креб, -- сказав Ґреґорі низьким голосом, -- гадаю, містер Мелфой має
про це знати.

***

// 8462
//__Aftermath, Hermione Granger:__
__Наслідки, Герміона Ґрейнджер:__

// 8463
//Hermione stared at the wax-sealed paper, on the surface of which was inscribed
//simply the number __42.__
Герміона втупилася в запечатаний воском лист, на поверхні якого було написано
лише число __42__.

// 8464
//__I figured out why we couldn’t cast the Patronus Charm, Hermione, it
//doesn’t have anything to do with us not being happy enough. But I can’t tell
//you. I couldn’t even tell the Headmaster. It needs to be even more secret than
//partial Transfiguration, for now, anyway. But if you ever need to fight
//Dementors, the secret is written here, cryptically, so that if someone doesn’t
//know it’s about Dementors and the Patronus Charm, they won’t know what it
//means…__
__Я зрозумів, чому ми не можемо застосовувати чари патронуса, Герміоно. Це не
має жодного стосунку до того, наскільки ми щасливі. Але я не можу сказати тобі.
Я не можу сказати навіть директорові. Це більш сувора таємниця, ніж навіть
часткова трансфігурація, принаймні, наразі. Але якщо тобі колись доведеться
боротися з дементорами, таємниця записана тут шифром -- якщо прочитає хтось,
хто не знає, що йдеться про дементорів та чари патронуса, вони не знатимуть, що
це означає...__

// 8465
//She’d told Harry about seeing him dying, her parents dying, all her friends
//dying, everyone dying. She hadn’t told him about her terror of dying alone,
//somehow that was still too painful.
Вона розповіла була Гаррі, що бачила, як він помер, померли її батьки, померли
всі її друзі, усі померли. Вона не сказала йому про жах від того, що вона
помирала самотня, чомусь це досі було надто боляче.

// 8466
//Harry had told her about remembering his parents dying, and that he’d thought
//it was funny.
Гаррі розповів їй, що згадав, як помирали його батьки, але йому це здавалося
кумедним.

// 8467
//__There’s no light in the place the Dementor takes you, Hermione. No
//warmth. No caring. It’s somewhere that you can’t even understand happiness.
//There’s pain, and fear, and those can still drive you. You can hate, and take
//pleasure in destroying what you hate. You can laugh, when you see other people
//hurting. But you can’t ever be happy, you can’t even remember what it is that
//isn’t there anymore… I don’t think there’s any way I can ever explain just what
//you saved me from. I’m usually ashamed to put people to trouble, I usually
//can’t stand it when people make sacrifices for me, but this one time I’ll say
//that no matter what it ends up costing you to have kissed me, don’t ever doubt
//for a second that it was the right thing to do.__
__У тому місці, куди забирає тебе дементор, Герміоно, немає жодного світла.
Немає тепла. Немає турботи. Там ти не можеш навіть зрозуміти, що таке щастя. Там
є біль, страх, і вони можуть тебе до чогось спонукати. Ти можеш ненавидіти й
насолоджуватися тим, що знищуєш щось, що ненавидиш. Ти можеш сміятися, коли бачиш, що
інші страждають. Але ти ніколи не зможеш бути щасливим, навіть не можеш згадати, як
це... Навряд чи я зможу тобі пояснити, від чого ти мене врятувала. Зазвичай мені
соромно завдавати людям клопоту, терпіти не можу, коли люди чимось жертвують
заради мене, але саме цього єдиного разу я скажу, що хай чого тобі зрештою
коштуватиме цей поцілунок, ніколи, анікраплі не сумнівайся, що це був правильний
вчинок.__

// 8468
//Hermione hadn’t realized how __little__ the Dementor had touched her, how
//small and shallow had been the darkness into which it had taken her.
Герміона не усвідомлювала до цього, як __мало__ дементор встигнув вплинути на
неї, якою маленькою й мілкою була темрява, до якої він її забрав.

// 8469
//She’d seen everyone dying, and that had still been able to hurt.
Вона бачила, як усі помирають, і була здатна відчувати біль.

// 8470
//Hermione put the paper back into her pouch, like a good girl ought to.
Герміона поклала листа до капшучка, як хороша дівчинка.

// 8471
//She’d really wanted to read it, though.
Втім, їй дуже хотілося його прочитати.

// 8472
//She was frightened of Dementors.
Вона боялася дементорів.

***

// 8473
//__Aftermath, Minerva McGonagall:__
__Наслідки, Мінерва Макґонеґел:__

// 8474
//She felt frozen; she shouldn’t have been so shocked, she shouldn’t have found
//Harry so hard to face, but after what he’d been through… She had searched the
//young boy in front of her for any signs of Dementation, and failed to find
//them. But something about the calm with which he had asked such a foreboding
//question seemed deeply worrying. “Mr. Potter, I can’t possibly speak of such
//matters without the Headmaster’s permission!”
Вона аж заклякнула. Вона не мала бути такою здивованою, дивитися в очі Гаррі не
мало бути так важко, але після того, через що він пройшов... Вона шукала якісь
ознаки дементації у хлопця, але не побачила жодної. Та щось у тому, з яким спокоєм
він поставив таке доленосне питання, глибоко хвилювало.

-- Містере Поттер, звісно я не можу про таке розповідати без дозволу директора!

// 8475
//The boy in her office took this in without changing expression. “I would prefer
//not to disturb the Headmaster over this matter,” Harry Potter said calmly. “I
//__insist__ on not disturbing him, in fact, and you did promise that our
//conversation would be kept private. So let me put it this way. I know that
//there was, in fact, a prophecy. I know that you are the one who originally
//heard it from Professor Trelawney. I know that the prophecy identified the
//child of James and Lily as someone dangerous to the Dark Lord. And I know who I
//am, indeed everyone now knows who I am, so you are revealing nothing new or
//dangerous, if you tell me only this: What was the __exact wording__ which
//identified __me,__ the child of James and Lily?”
Це ніяк не вплинуло на вираз обличчя хлопця.

-- Я б просив не турбувати директора цим питанням, -- спокійно сказав Гаррі
Поттер. -- Насправді, я __наполягаю__ на цьому, а ви пообіцяли, що наша розмова
буде приватною. Я сформулюю питання інакше. Я знаю, як факт, що пророцтво
існує. Я знаю, що першою його почули ви від професорки Трелоні. Я знаю, що
пророцтво вказало, що дитина Джеймса й Лілі небезпечна для Темного Лорда. І я
знаю, хто я. Та всі знають, хто я такий, тому ви не відкриєте нічого
нового чи небезпечного, якщо відповісте лише на це: __які саме слова__
вказували на __мене__, дитину Джеймса й Лілі?

// 8476
//Trelawney’s hollow voice echoed in her mind -
Глухий голос Трелоні пролунав у її розумі...

// 8477
//__BORN TO THOSE WHO HAVE THRICE DEFIED HIM,__
//hedrok: #пророцтво
__НАРОДЖЕНИЙ У РОДИНІ ТИХ, ХТО ТРИЧІ КИДАВ ЙОМУ ВИКЛИК,__

// 8478
//__BORN AS THE SEVENTH MONTH DIES…__
__НАРОДЖЕНИЙ НАПРИКІНЦІ СЬОМОГО МІСЯЦЯ...__

// 8479
//“Harry,” said Professor McGonagall, “I can’t possibly tell you that!” It
//chilled her to the bone that Harry knew so much already, she couldn’t imagine
//how Harry had learned -
-- Гаррі, -- сказала професорка Макґонеґел, -- я ніяк не можу сказати цього
тобі!

Її пройняли дрижаки від того, що Гаррі вже стільки знав, вона й уявити не
могла, як він дізнався...

// 8480
//The boy looked at her with strange, sorrowful eyes. “Can you not sneeze without
//the Headmaster’s permission, Professor McGonagall? For I do promise to you that
//I have good reason to ask, and good reason to keep the question private.”
Хлопець дивився на неї дивним, скорботним поглядом.

-- Ви не можете й чхнути без дозволу директора, професорко Макґонеґел? Я
присягаюся вам, що в мене є серйозна причина питати, і серйозна причина тримати
це в таємниці.

// 8481
//“Please don’t, Harry,” she whispered.
-- Будь ласка, не треба, Гаррі, -- прошепотіла вона.

// 8482
//“All right,” Harry said. “One simple question. Please. Was the Potter family
//mentioned by __name?__ Does the prophecy literally say ‘Potter’?”
-- Гаразд. Одне просте питання. Будь ласка. Чи згадана родина Поттерів __на
імʼя__? Чи є в пророцтві слово "`Поттер`"?

// 8483
//She stared at Harry for a while. She couldn’t have said why or where she got
//the sense that this was a critical point, that she could not lightly refuse the
//request, nor lightly accede to it -
Вона деякий час витріщалася на нього. Вона не могла сказати, звідки та чому в неї
було відчуття, що це критична точка, що вона не могла ані просто відмахнутися
від цього прохання, ані легко згодитися на нього...

// 8484
//“No,” she finally said. “Please, Harry, don’t ask any more.”
-- Ні, -- зрештою сказала вона. -- Будь ласка, Гаррі, не питай більше.

// 8485
//The boy smiled, a little sadly it seemed, and said, “Thank you, Minerva. You
//are a good woman and true.”
Хлопець усміхнувся, видавалося, трохи сумно, й сказав:

-- Дякую, Мінерво. Ви добра й гідна жінка.

// 8486
//And while her mouth was still open in utter shock, Harry Potter got up and left
//the office; and only then did she realize that Harry had taken her refusal as
//an answer, and the true answer at that -
Вона не встигла й закрити рота від невимовного здивування, а Гаррі Поттер
підвівся й покинув її кабінет. Лише тоді вона зрозуміла, що Гаррі прийняв її
відмову за відповідь, і ця відповідь була правильною...

// hedrok: в оригіналі немає, але явно має тут бути.
***

// 8487
//Harry closed the door behind himself.
Гаррі зачинив за собою двері.

// 8488
//The logic had presented itself with a strange diamondlike clarity. Harry
//couldn’t have said if it had come to him during Fawkes’s singing, or maybe even
//before.
Із дивною кришталевою ясністю він бачив логічний звʼязок. Гаррі не міг сказати
точно, це спало йому на думку впродовж пісні Фоукса чи навіть раніше.

// 8489
//Lord Voldemort had killed James Potter. He had preferred to spare Lily Potter’s
//life. He had continued his attack, therefore, with the sole purpose of killing
//their infant child.
Лорд Волдеморт вбив був Джеймса Поттера. Він волів не вбивати Лілі Поттер. Він
продовжував напад, відповідно, з єдиною метою: вбити їхнє немовля.

// 8490
//Dark Lords were not usually scared of infant children.
Зазвичай темні лорди не бояться немовлят.

// 8491
//So there was a prophecy about Harry Potter being dangerous to Lord Voldemort,
//and Lord Voldemort had known that prophecy.
Отже, існувало пророцтво, яке стверджувало, що Гаррі Поттер був небезпекою для
Лорда Волдеморта, і Лорд Волдеморт знав про це пророцтво.

// 8492
//__“I give you this rare chance to flee. But I will not trouble myself to
//subdue you, and your death here will not save your child. Step aside, foolish
//woman, if you have any sense in you at all!”__
// hedrok: копія з 043:8120
"`__Я даю тобі рідкісну можливість втекти. Але я не марнуватиму час, щоб
підкоряти тебе, і твоя смерть тут не врятує твоєї дитини. Відійди, дурна жінко,
якщо в тебе є бодай крапля розуму!__`"

// 8493
//Had it been a whim, to give her that chance? But then Lord Voldemort would not
//have tried to persuade her. Had the prophecy warned Lord Voldemort against
//killing Lily Potter? Then Lord Voldemort __would __have troubled himself
//to subdue her. Lord Voldemort had been __mildly__ inclined not to kill
//Lily Potter. The preference had been stronger than a whim, but not as strong as
//a warning.
Це була примха, дати їй цю можливість? Але тоді Лорд Волдеморт не намагався б
переконати її. Пророцтво попереджало Лорда Волдеморта не вбивати Лілі Поттер?
Тоді Лорд Волдеморт __приділив би час__, щоб підкорити її. Лорд Волдеморт був
__трохи__ схильним до того, щоб не вбивати Лілі Поттер. Бажання сильніше за
примху, але не таке сильне, як від попередження.

// 8494
//So suppose that someone whom Lord Voldemort considered a lesser ally or
//servant, useful but not indispensable, had begged the Dark Lord to spare Lily’s
//life. Lily’s, but not James’s.
Отже припустімо, що хтось, кого Лорд Волдеморт вважав неважливим союзником чи
слугою -- корисним, але не незамінним, благав був Темного Лорда помилувати Лілі.
Лілі, але не Джеймса.

// 8495
//This person had known that Lord Voldemort would attack the house of the
//Potters. Had known both the prophecy, and the fact that the Dark Lord knew it.
//Otherwise he would not have begged Lily’s life.
Цей хтось знав був, що Лорд Волдеморт нападе на дім Поттерів. Знав і пророцтво,
і те, що Темний Лорд знав його. Інакше не благав би про життя Лілі.

// 8496
//According to Professor McGonagall, besides herself, the other two who knew of
//the prophecy were Albus Dumbledore and Severus Snape.
Професорка Макґонеґел стверджувала, що крім неї лише дві людини знали
пророцтво: Албус Дамблдор і Северус Снейп.

// 8497
//Severus Snape, who had loved Lily before she was Lily Potter, and hated James.
Северус Снейп, що кохав Лілі ще до того, як вона стала Лілі Поттер, а також
ненавидів Джеймса.

// 8498
//Severus, then, had learned of the prophecy, and told it to the Dark Lord. Which
//he had done because the prophecy had not described the Potters by name. It had
//been a riddle, and Severus had solved that riddle only too late.
Отже, Северус почув пророцтво й розповів про нього Темному Лордові. Він це зробив
через те, що в пророцтві не було названо імʼя Поттерів. Це була загадка, і Северус
розгадав її надто пізно.

// 8499
//But if Severus had been the __first__ to hear the prophecy, and disposed
//to tell it to the Dark Lord, then why would he also have told Dumbledore or
//Professor McGonagall?
Але якби Северус почув пророцтво __першим__, і вирішив розповісти про нього
Темному Лордові, то чому він також розповів Дамблдорові чи професорці
Макґонеґел?

// 8500
//Therefore Dumbledore or Professor McGonagall had heard it first.
Відповідно, Дамблдор чи професорка Макґонеґел почули його перші.

// 8501
//The Headmaster of Hogwarts had no obvious reason to tell the Transfiguration
//Professor about an extremely sensitive and crucial prophecy. But the
//Transfiguration Professor had every reason to tell the Headmaster.
Директор Гоґвортсу не мав очевидних причин розповідати професорці з
трансфігурації про надзвичайно таємне й важливе пророцтво. А ось у професорки з
трансфігурації були всі причини розповісти директорові.

// 8502
//It seemed likely, then, that Professor McGonagall had been the first to hear
//it.
Тому видавалося імовірним, що професорка Макґонеґел почула пророцтво першою.

// 8503
//The prior probabilities said that it had been Professor Trelawney, Hogwarts’s
//resident seer. Seers were rare, so if you counted up most of the seconds
//Professor McGonagall had spent in the presence of a seer over the course of her
//lifetime, most of those seer-seconds would be Trelawney-seconds.
Згідно з апріорними імовірностями, почула від професорки Трелоні, постійної
провидиці Гоґвортсу. Провидці рідкісні, тому якщо порахувати, то з часу, який
професорка Макґонеґел проводила в присутності провидиці за своє життя,
більшість була проведена в присутності провидиці-Трелоні.

// 8504
//Professor McGonagall had told Dumbledore, and would have told no one else about
//the prophecy without permission.
Професорка Макґонеґел розповіла Дамблдорові, і не сказала б більше нікому без
дозволу.

// 8505
//Therefore, it was Albus Dumbledore who had arranged for Severus Snape to
//somehow learn of the prophecy. And Dumbledore himself had solved the riddle
//successfully, or he would not have selected __Severus__, who had once
//loved Lily, as the intermediary.
Відповідно, це Албус Дамблдор влаштував, щоб якимось чином Северус Снейп
дізнався про пророцтво. І Дамблдор розгадав загадку успішно, інакше він не
вибрав би __Северуса__, що колись кохав Лілі, як посередника.

// 8506
//Dumbledore had deliberately arranged for Lord Voldemort to hear about the
//prophecy, in hopes of luring him to his death. Perhaps Dumbledore had arranged
//for Severus to learn only __some__ of the prophecy, or there were other
//prophecies of which Severus had remained innocent… somehow Dumbledore had known
//that an __immediate__ attack on the Potters would still lead to Lord
//Voldemort’s __immediate__ defeat, although Lord Voldemort himself had not
//believed this. Or maybe that had just been a lucky stroke of Dumbledore’s
//insanity, his taste for bizarre plots…
Дамблдор навмисно влаштував, щоб Лорд Волдеморт почув пророцтво, сподіваючись,
що це призведе до його смерті. Можливо, Дамблдор влаштував, щоб Северус
дізнався лише __частину__ пророцтва, чи були інші пророцтва, про які Северус не
здогадувався... якимось чином Дамблдор знав, що __негайний__ напад на Поттерів
усе одно призведе до __негайної__ поразки Лорда Волдеморта, хоча сам Лорд
Волдеморт так не вважав. Чи, можливо, Дамблдорові просто пощастило, і це був
один з його божевільних дивних планів...

// 8507
//Severus had ended up serving Dumbledore afterward; perhaps the Death Eaters
//would not look kindly on Severus if Dumbledore revealed his role in their
//defeat.
Після того Северус почав служити Дамблдорові. Мабуть, смертежери не були б
вдячними Северусові, якби Дамблдор розповів про його участь у їхній поразці.

// 8508
//Dumbledore had tried to arrange for Harry’s mother to be spared. But that part
//of his plot had failed. And he had knowingly condemned James Potter to his
//death.
Дамблдор спробував зробити так, щоб мати Гаррі вижила. Але ця частина задуму не
вдалася. І він свідомо засудив Джеймса Поттера на смерть.

// 8509
//Dumbledore was responsible for the deaths of Harry’s parents. __If__ the
//whole chain of logic was correct. Harry could not, in justice, say that
//successfully ending the Wizarding War did not count as extenuating
//circumstances. But somehow this still… __bothered him a great deal.__
Дамблдор був відповідальним за смерть батьків Гаррі. __Якщо__ весь логічний
ланцюжок був правильним. Гаррі не міг по правді сказати, що мета успішно завершити
Чаклунську Війну не помʼякшувала провину. Але все одно... __це його серйозно
непокоїло__.

// 8510
//And it was time and past time to ask Draco Malfoy what the __other__ side
//of that war had to say about the character of Albus Percival Wulfric Brian
//Dumbledore.
І вже давно був час спитати Драко Мелфоя, що __інша__ сторона війни могла
розповісти про те, ким був Албус Персіваль Вулфрик Браян Дамблдор.
