// 9842
//== TSPE, Constrained Optimization, Pt 6
== Розділ 56. СТЕ, задача умовної оптимізації ч.6

// 9843
//Silent, it was thankfully silent, the metal door on the next level down. Either
//there wasn’t someone behind there, or they were hurting quietly, maybe they
//were screaming but their voice had given out already, or they were just
//muttering quietly to themselves in the dark…
Тихими, на щастя тихими були металеві двері наступного рівня. Чи то за ними
нікого не було, чи то вони страждали тихо, а може вони кричали, але в них уже
не було голосу, чи вони просто тихо бурмотіли щось у темряві...

// 9844
//__I’m not sure I can do this,__ Harry thought, and he couldn’t blame the
//despairing thought on the Dementors either. It would be better to be lower,
//safer to be lower, his plan would take time to implement and the Aurors were
//probably already working their way down. But if Harry had to pass any more of
//those metal doors while staying silent and keeping his breathing perfectly
//regular, he might go mad; if he had to leave a piece of himself behind at each
//one, soon there wouldn’t be anything left of him -
__Я не впевнений, що мені вдасться__, подумав Гаррі, і він не міг винити у цій
безнадії дементорів. Нижче було ліпше, нижче було безпечніше. Його план
потребував часу, а аврори певно вже спускалися вниз. Але якщо Гаррі доведеться
спокійно й з рівним диханням пройти повз іще одні металеві двері, то він може
з'їхати з ґлузду. Якщо йому доведеться залишити частинку себе за кожними
дверима, то невдовзі від нього нічого не залишиться.

// 9845
//A luminous moonlit cat leaped into existence and landed in front of Harry’s
//Patronus. Harry almost screamed, which wouldn’t have helped his image with
//Bellatrix.
Кіт з місячного сяйва з'явився та приземлився поряд з патронусом Гаррі.
Гаррі ледь не скрикнув, що не пішло б на користь його ролі в очах Белатриси.

// 9846
//“Harry!” said the voice of Professor McGonagall, sounding as alarmed as Harry
//had ever heard from her. “Where are you? Are you all right? This is my
//Patronus, answer me!”
-- Гаррі! -- почув він голос професорки Макґонеґел. Він ще ніколи не чув, щоб
вона була такою стривоженою. -- Де ти? З тобою все гаразд? Це мій патронус,
відповідай!

// 9847
//With a convulsive effort, Harry cleared his mind, repurposed his throat, forced
//calm, swapped in a different personality like an Occlumency barrier. It took a
//few seconds and he hoped like hell that Professor McGonagall didn’t notice a
//problem with that thanks to the communications delay, just as he hoped like
//hell that Patronuses didn’t report on their surroundings.
Різким зусиллям Гаррі очистив розум, настроїв горло, напустив спокою, змінив
особистість, ніби бар'єр блокології. Це потребувало декількох секунд, і він
відчайдушно сподівався, що професорка Макґонеґел не помітить цього завдяки
затримкам зв'язку, і не менш відчайдушно він сподівався, що патронуси не були
здатні розповісти про те, що коїться навкруги.

// 9848
//A young boy’s innocent voice said, “I’m in Mary’s Place, Professor, in Diagon
//Alley. Going to the restroom actually. What’s wrong?”
Невинний голос маленького хлопчика вимовив:

-- Я в "`У Мері`", професорко, на алеї Діаґон. По правді, саме зараз іду до
туалету. Щось сталося?

// 9849
//The cat leaped away, and Bellatrix began to chuckle softly, dusty appreciative
//laughter, but she cut herself off abruptly at a hiss from Harry.
Кіт стрибнув у нікуди, і Белатриса почала тихо хихикати, це був сухий схвальний
сміх. Вона швидко замовкла, коли Гаррі зашипів.

// 9850
//A moment later the cat returned, and said in Professor McGonagall’s voice, “I’m
//coming to pick you up right now. Don’t go __anywhere__, if you’re not
//around the Defense Professor don’t go back to him, don’t say anything to
//anyone, I’ll be there as quickly as I can!”
За мить кіт повернувся й промовив голосом професорки Макґонеґел:

-- Я негайно вирушаю тебе забрати. __Нікуди__ не йди. Якщо ти не поряд з
професором із захисту, не повертайся до нього, нічого нікому не кажи, я буду в
тебе, щойно зможу!

// 9851
//And the bright cat blurred forward and vanished.
І яскравий кіт розтанув у стрибку вперед.

// 9852
//Harry glanced down at his watch, noting down the time, so that after he got
//everyone out of here, and Professor Quirrell anchored the Time-Turner again, he
//could go back and be in the restroom of Mary’s Place at the appropriate time…
Гаррі поглянув і запам'ятав час, щоб після того, як він усіх звідси витягне і
професор Квірел знову закріпить часоворот, він зміг повернутися в часі й
бути в туалеті "`У Мері`" вчасно...

// 9853
//__You know,__ said the problem-solving part of his brain, __there’s
//a limit to how many constraints you can add to a problem before it __really is
//__impossible, you know that?__
__Знаєш__, сказала та частина його мозку, що розв'язувала задачі, __є якась
межа кількості обмежень, які можна накласти на задачу, доки вона не стане
__справді__ нерозвʼязною, ти це знаєш?__

// 9854
//It shouldn’t have mattered, and it didn’t really, it didn’t compare to the
//suffering of a single prisoner in Azkaban, and yet Harry still found himself
//feeling very aware that if his plan didn’t end with him being picked up from
//Mary’s Place just like he’d never left, and the Defense Professor looking
//completely innocent of any and all wrongdoing, Professor McGonagall was going
//to __kill him.__
Це мало бути неважливим, і насправді таким і було, це й поряд не стояло зі
стражданнями будь-кого із в'язнів Азкабану, і втім Гаррі не міг відволіктися
від думки: якщо його план не призведе до того, що його заберуть з "`У Мері`",
ніби він ніколи нікуди й не виходив, і якщо професор із захисту не
видаватиметься цілковито невинним у жодній і будь-якій шкоді, то професорка
Макґонеґел __його вб'є__.

***

// 9855
//As their team prepared to eat another bite of territory out of C spiral,
//shielding and scanning before dispelling the previous shield to their rear,
//Amelia was tapping her fingers on her hip and wondering if she ought to consult
//the obvious expert. If only he wasn’t so -
Її команда готувалася відгризти черговий шматок території спіралі "`В`":
здіймала щити й сканувала перед тим, як скасувати щити позаду. Амелія
тарабанила пальцями по стегну в роздумах, чи варто порадитися із
загальновідомим експертом. Якби ж він не був таким...

// 9856
//Amelia heard the familiar crack of fire and knew what she would see as she
//turned.
Амелія почула знайомий тріск полум'я і вже знала, що вона побачить, якщо
обернеться.

// 9857
//A third of her Aurors were spinning around and leveling their wands on the old
//wizard in half-moon glasses and a long silver beard who had appeared directly
//within their midst, a bright red-golden phoenix on his shoulder.
// hedrok: half-moon glasses -> серпасті окуляри: Абабагаламага
Третина її аврорів крутнулися на місці й направили палички на старого чарівника
у серпастих окулярах та довгою срібною бородою, що з'явився прямо посеред них з
яскравим червоно-золотим феніксом на плечі.

// 9858
//“Hold your fire!” Polyjuice made it easy to forge the face, but faking the
//phoenix travel would have been rather more difficult - the wards permitted it
//as one of the fast ways into Azkaban, though there were no fast ways out.
-- Не стріляти! -- багатозільна настоянка легко змінювала обличчя, але
підробити переміщення за допомогою фенікса було б значно складнішим -- захисні
чари дозволяли це як один зі швидких шляхів до Азкабану, але швидких виходів не
існувало.

// 9859
//The old witch and the old wizard stared at each other for a long moment.
Стара відьма й старий чарівник витріщалися одне на одного довгу мить.

// 9860
//(Amelia wondered, in the back of her mind, which of her Aurors had sent the
//word, there were several former members of the Order of the Phoenix with her;
//she tried to remember, in the back of her mind, if she’d seen Emmeline’s
//sparrow or Andy’s cat missing from the flock of bright creatures; but she knew
//that it was futile. It might not even be any of her people, for the old meddler
//often knew things he had no way at all of knowing.)
(Водночас Амелія розмірковувала, хто з її аврорів надіслав йому звістку. З нею
було декілька колишніх членів Ордену Фенікса. Вона намагалася згадати, чи
траплялося, щоб горобець Емелайн чи кіт Енді були відсутні серед яскравих
створінь. Але вона знала, що це марно. Це навіть міг бути не хтось з її людей
-- старий лис часто знав речі, які він жодним чином не міг знати.)

// 9861
//Albus Dumbledore inclined his head to Amelia in a courteous gesture. “I hope I
//am not unwelcome here,” the wizard said calmly. “We are all on the same side,
//are we not?”
Албус Дамблдор ввічливо схилив голову перед Амелією.

-- Сподіваюся, я тут не заважаю, -- спокійно сказав чарівник. -- Ми ж усі на
одному боці, хіба ні?

// 9862
//“That depends,” Amelia said in a hard voice. “Are you here to help us catch
//criminals, or to protect them from the consequences of their actions?”
//__Are you going to try to stop the killer of my brother from getting her
//well-deserved Kiss, old meddler?__ From what Amelia heard, Dumbledore had gotten
//smarter toward the end of the war, mostly due to Mad-Eye’s nonstop nagging; but
//had relapsed into his foolish mercies the instant Voldemort’s body was found.
-- Побачимо, -- суворо сказала Амелія. -- Ти тут, щоб допомогти нам впіймати
злочинців, чи для захисту злочинців від наслідків їхніх дій?

__Чи збираєшся ти завадити заслуженому Поцілунку для вбивці мого брата, старий
лисе?__ Амелія чула, що Дамблдор порозумнішав наприкінці війни, переважно через
нескінченне бурчання Дикозора, але повернувся до свого дурного милосердя, щойно
знайшли тіло Волдеморта.

// 9863
//A dozen small points of white and silver, reflections of the shining animals,
//gleamed off the old wizard’s half-moon glasses as he spoke. “Even less than you
//would I see Bellatrix Black freed,” the old wizard said. “She __must__ not
//leave this prison alive, Amelia.”
Десятки маленьких білих та срібних точок -- віддзеркалення сяйливих тварин --
мерехтіли в серпастих окулярах старого чарівника.

-- Моя жага не допустити втечі Блек навіть більша за твою, -- сказав він. -- Ми
__мусимо зробити все__, щоб вона не покинула в'язницю живою, Амеліє.

// 9864
//Before Amelia could speak again, even to express her surprised gratification,
//the old wizard gestured with his long black wand and a blazing silver phoenix
//sprang into existence, brighter perhaps than all their other Patronuses put
//together. It was the first time she’d seen that spell cast wordlessly. “Order
//all your Aurors to cancel their Patronus Charms for ten seconds,” said the old
//wizard. “What darkness cannot find, the light may.”
Амелія не встигла заговорити, навіть висловити неочікувану вдячність, а старий
чарівник змахнув довгою чорною паличкою, і з'явився палаючий срібний фенікс.
Він певно був яскравішим за всі їхні патронуси разом. Вона вперше бачила, щоб
це закляття виконували безмовно.

-- Накажи всім своїм аврорам скасувати свої патронуси на десять секунд, --
сказав старий чарівник. -- Що не знайде пітьма, може знайти світло.

// 9865
//Amelia snapped off the order to the communications officer, who would notify
//all Aurors through their mirrors, commanding Dumbledore’s will to be done.
Амелія різко кинула наказ офіцерові з комунікацій, та повідомить усіх аврорів
через дзерка{stress}ла, передасть команду виконати прохання Дамблдора.

// 9866
//That took a few moments, and it became a period of awful silence, none of the
//Aurors daring to speak, while Amelia tried to weigh her own thoughts.
//__She must not leave this prison alive…__ Albus Dumbledore wouldn’t turn
//into Bartemius Crouch without a strong reason. If he’d meant to tell her
//__why__, he already would have; but it certainly wasn’t a positive sign.
На це пішло кілька секунд, а потім запанувала неприємна тиша. Жоден з аврорів
не наважувався заговорити, а Амелія впорядковувала думки. __Ми мусимо зробити
все, щоб вона не покинула в'язницю живою...__ Албус Дамблдор не міг
перетворитися на Бартеміуса Кравча без вагомої причини. Якби він збирався їй
розповісти __чому__, він би вже це зробив. Але це точно був недобрий знак.

// 9867
//Still, it was good to know they’d be able to work together on this one.
І все одно приємно знати, що цю проблему вони вирішуватимуть разом.

// 9868
//“Now,” said a chorus of mirrors, and all the Patronus Charms winked out except
//that blazing silver phoenix.
-- Зараз, -- залунав хор з дзеркал, і всі патронуси зникли, крім палаючого
срібного фенікса.

// 9869
//“Is there another Patronus still present?” the old wizard said clearly to the
//bright creature.
-- Чи залишився ще один патронус? -- запитав старий чарівник явно в яскравої
істоти.

// 9870
//The bright creature dipped its head in a nod.
Яскрава істота схилила голову -- кивнула.

// 9871
//“Can you find it?”
-- Можеш його знайти?

// 9872
//The silver head nodded again.
Срібна голова знову кивнула.

// 9873
//“Will you remember it, should it depart and come again?”
-- Чи запам'ятаєш ти його, якщо він зникне й знову з'явиться?

// 9874
//A final nod from the blazing phoenix.
Останній кивок від палаючого фенікса.

// 9875
//“It is done,” Dumbledore said.
-- Усе зроблено, -- сказав Дамблдор.

// 9876
//“Over,” said all the mirrors a moment later, and Amelia raised her wand and
//began recasting her own Patronus. (Though it took some extra concentration,
//with that wolfish smile already on her face, to think of the first time Susan
//had kissed her cheek, instead of dwelling on the looming fate of Bellatrix
//Black. That other Kiss was a happy thought indeed, but not quite the right kind
//for the Patronus Charm.)
-- Готово, -- за мить пролунало з кожного дзеркала.

Амелія здійняла паличку й почала вичакловувати патронуса. (Хоча з вовчою
посмішкою на обличчі це потребувало додаткових зусиль -- думати про те, як
Сьюзен вперше поцілувала її у щоку, а не розмірковувати про ймовірну долю
Белатриси Блек. Цей інший Поцілунок і справді був щасливою думкою, але не
такою, що її можна використати для чарів патронуса.)

***

// 9877
//They hadn’t even gotten to the end of that corridor before Harry’s Patronus
//raised its hand, politely, as though in a classroom.
Вони навіть не дісталися кінця цього коридору, а патронус Гаррі ввічливо --
ніби в школі -- здійняв руку.

// 9878
//Harry thought quickly. The question was how to - no, that was also obvious.
Гаррі швидко міркував. Питання було в тому, як... ні, це теж було очевидно.

// 9879
//“It seems,” Harry said in a coldly amused voice, “that someone has instructed
//this Patronus to speak its message only to me.” He chuckled. “Well then. Pardon
//me, dear Bella. __Quietus.__”
-- Видається, -- сказав Гаррі холодним, трохи веселим голосом, -- що хтось
сказав цьому патронусові передати повідомлення лише мені.

Він хихикнув.

-- Ну що ж. Перепрошую, люба Бело. __Квієтус.__

// 9880
//At once the silver humanoid said in Harry’s own voice, “There is another
//Patronus which seeks this Patronus.”
Срібний гуманоїд одразу заговорив власним голосом Гаррі:

-- Є інший патронус, що шукає цей патронус.

// 9881
//“__What?__” said Harry. And then, without pausing to think about what was
//happening, “Can you block it? Stop it from finding you?”
-- __Що?__ -- вигукнув Гаррі. А тоді, без марнування часу на роздуми про те,
що коїться, -- Ти можеш його заблокувати? Не дати себе знайти?

// 9882
//The silver humanoid shook its head.
Срібний гуманоїд заперечно похитав головою.

***

// 9883
//No sooner did Amelia and the other Aurors finish recasting their Patronus
//Charms, when -
Не встигла Амелія й інші аврори завершити чари патронуса, як...

// 9884
//The blazing silver phoenix flew off, and the true red-golden phoenix followed
//it, and the old wizard calmly strode after both of them with his long wand
//gripped low.
Палаючий срібний фенікс полетів, справжній червоно-золотий фенікс рушив за ним,
а старий чарівник спокійно пішов слідом швидким кроком. Він тримав довгу
паличку спрямованою додолу.

// 9885
//The shields around their territory parted around the old wizard like water, and
//closed behind him with hardly a ripple.
Щити навколо території аврорів розійшлися перед старим чарівником мов вода, і
закрилися, коли він пройшов, ледве чи захвилювавшись.

// 9886
//“__Albus!__” shouted Amelia. “What do you think you’re doing?”
-- __Албусе!__ -- крикнула Амелія. -- Що це ти робиш?

// 9887
//But she already knew.
Але вона вже знала.

// 9888
//“Do not follow me,” the old wizard’s voice said sternly. “I can protect myself,
//I cannot protect others.”
-- Не йдіть за мною, -- суворо сказав старий чарівник. -- Я здатен захистити себе,
та не здатен захистити інших.

// 9889
//The curse Amelia shouted after him made even her own Aurors flinch.
Від прокляття, яке Амелія крикнула йому вслід, здригнулися навіть її власні
аврори.

***

// 9890
//__This isn’t fair, isn’t fair, isn’t fair! There’s a limit to how many
//constraints you can add to a problem before it really is impossible!__
__Це нечесно, нечесно, нечесно! Є межа кількості обмежень, які можна
накласти на задачу, доки вона не стане справді нерозвʼязною!__

// 9891
//Harry blocked off the useless thoughts, ignored the fatigue he was feeling, and
//forced his mind to confront the new requirements, he had to think
//__fast,__ use the adrenaline on following the chains of logic quickly and
//without hesitation, instead of wasting it on despair.
Гаррі притлумив непотрібні думки, проігнорував втому і змусив свій розум
розглянути нові вимоги, він мав думати __швидко__, використати адреналін для
жвавого розгляду ланцюжків логіки без вагань, а не витрачати його на відчай.

// 9892
//For the mission to succeed,
Щоб місія була успішною,

// 9893
//(1) Harry would have to dispel his Patronus.
(1) Гаррі мав скасувати свого патронуса.

// 9894
//(2) Bellatrix needed to be hidden from the Dementors after the Patronus was
//dispelled.
(2) Белатриса мала бути схованою від дементорів після того, як патронуса
буде скасовано.

// 9895
//(3) Harry needed to resist the Dementors’ drain after his Patronus was
//dispelled.
(3) Гаррі мав не піддаватися дії дементорів після того, як патронуса буде
скасовано.

// 9896
//…
...

// 9897
//__If I solve this one,__ said Harry’s brain, __I want a cookie
//afterward, and if you make the problem any more difficult than this, I mean the
//slightest bit more difficult, I am climbing out of your skull and heading for
//Tahiti.__
__Якщо я впораюся з цим,__ сказав мозок Гаррі, __то хочу тістечко, а якщо ти
зробиш задачу навіть трохи складнішою, і я маю на увазі бодай крапельку
складнішою, то я вилізаю з твого черепа та їду на Таїті.__

// 9898
//Harry and his brain considered the problem.
Гаррі зі своїм мозком розглянули задачу.

// 9899
//Azkaban had stood invincible for centuries, relying upon the impossibility of
//evading the Dementors’ gaze. So if Harry found __another__ way to hide
//Bellatrix from the Dementors, it would rely on either his scientific knowledge
//or his realization that the Dementors were Death.
Азкабан століттями був неприступним, бо неможливо було сховатися від погляду
дементорів. Отже, якщо Гаррі винайде __інший__ спосіб сховати Белатрису від
дементорів, то він ґрунтуватиметься на його наукових знаннях чи на тому, що
дементори були смертю.

// 9900
//Harry’s brain suggested that an obvious way to stop the Dementors from seeing
//Bellatrix was to make her stop existing, i.e., kill her.
Мозок Гаррі запропонував очевидний спосіб завадити дементорам бачити Белатрису:
припинити її існування, тобто вбити її.

// 9901
//Harry congratulated his brain on thinking outside the box and told it to
//continue searching.
Гаррі привітав свій мозок за швидку роботу і сказав продовжувати пошук.

// 9902
//__Kill her and then bring her back,__ came the next suggestion.
//__Use Frigideiro to cool Bellatrix down to the point where her brain
//activity stops, then warm her up afterward using Thermos, just like people who
//fall into very cold water can be successfully revived half-an-hour later
//without noticeable brain damage.__
__Убий її та поверни до життя,__ було наступною пропозицією. __Використай
"`Фріґідейро`", щоб охолодити Белатрису до такої температури, щоб уся
активність мозку зупинилася, а потім підігрій її за допомогою "`Термос`".
Людей, що потрапили в дуже холодну воду, успішно оживляли за пів години без
жодних ознак пошкодження мозку.__

// 9903
//Harry considered this. Bellatrix might not survive in her debilitated state.
//__And__ it might not stop Death from seeing her. __And__ he’d have
//trouble carrying a cold unconscious Bellatrix very far. __And__ Harry
//couldn’t remember the research on which exact body temperature was supposed to
//be nonfatal but temporarily-brain-halting.
Гаррі обміркував це. Белатриса може не вижити через виснаження. __І__ це може
не завадити смерті бачити її. __І__ йому буде складно віднести холодну
непритомну Белатрису далеко. __І__ Гаррі не міг пригадати, яка саме
температура тіла мала бути не смертельною, а тимчасово зупиняти мозок.

// 9904
//It was another good outside-the-box idea, but Harry told his brain to keep
//thinking of…
Це була ще одна чудова швидка ідея, проте Гаррі сказав мозкові продовжувати
розмірковувати над...

// 9905
//__…ways to hide from Death…__
// hedrok: йдеться про 17:2782
__...способами приховати її від смерті...__

// 9906
//A frown moved over Harry’s face. He’d heard something about that, somewhere.
Гаррі насупився. Десь він чув був про таке...

// 9907
//__One of the requisites for becoming a powerful wizard is an excellent
//memory,__ Professor Quirrell had said.__ The key to a puzzle is often
//something you read twenty years ago in an old scroll, or a peculiar ring you
//saw on the finger of a man you met only once…__
// hedrok: копія 026:5240
__Однією з обовʼязкових якостей могутнього чаклуна є відмінна памʼять__, казав
був професор Квірел. __Ключем до загадки часто є щось, що ви прочитали двадцять
років тому в старому манускрипті, чи ексцентричний перстень, що ви його
побачили на пальці людини, яку зустрічали лише одного разу....__

// 9908
//Harry focused as hard as he could, but he couldn’t remember, it was on the tip
//of his tongue but he couldn’t remember; so he told his subconscious to go on
//trying to recollect it, and refocused his attention on the other half of the
//problem.
Гаррі зосередився як міг, та не міг згадати. Крутилося на язиці, та не міг згадати.
Тому він сказав підсвідомості продовжувати спроби згадати, а сам зосередив
увагу на іншій проблемі.

// 9909
//__How can I protect myself from the Dementors without a Patronus Charm?__
__Як захистити себе від дементорів без чарів патронуса?__

// 9910
//The Headmaster had been repeatedly exposed to a Dementor from a few steps away,
//over and over throughout a whole day, and had come out of it looking merely
//tired. How had the Headmaster done that? Could Harry do it too?
Директор багаторазово скасовував свого патронуса за декілька кроків від дементора
впродовж одного дня, і від цього був лише стомлений. Як директор цього
досягнув? Чи здатен на таке й Гаррі?

// 9911
//It could just be some random genetic thing, in which case Harry was screwed.
//But assuming the problem __was__ solvable…
Це могло бути пов'язано лише з випадковими генами, тоді Гаррі буде непереливки.
Але якщо припустити, що в задачі __було__ рішення...

// 9912
//Then the obvious answer was that Dumbledore wasn’t afraid of death.
То найочевиднішою відповіддю було те, що Дамблдор не боявся смерті.

// 9913
//Dumbledore __really__ wasn’t afraid of death. Dumbledore honestly, truly
//believed that death was the next great adventure. Believed it in his core, not
//just as convenient words used to suppress cognitive dissonance, not just
//pretending to be wise. Dumbledore had decided that death was the natural and
//normative order, and whatever tiny lingering fear was still in him, it had
//taken a long time and repeated exposures for the Dementor to drain him through
//that small flaw.
Дамблдор __справді__ не боявся смерті. Дамблдор чесно, щиро вірив, що смерть --
ще одна цікава пригода. Вірив у це до нутра кісток, а не лише як у зручні
слова, що допомагали позбутися когнітивного дисонансу, -- не просто вдавав
мудрість. Дамблдор вирішив, що смерть -- це правильний, природний порядок. І
хай який крихітний страх залишився в ньому, дементорам потрібен був довгий час
і присутність поряд, щоб виснажити його за допомогою цієї маленької вади.

// 9914
//That avenue was closed to Harry.
Цей шлях був для Гаррі неможливим.

// 9915
//And then Harry thought of the flip side, the obvious inverse question:
А тоді Гаррі подумав про іншу сторону монети, очевидне зворотне питання:

// 9916
//__Why am I so much more vulnerable than average? Other students didn’t
//fall over when they faced the Dementor.__
__Чому я настільки вразливіший за решту? Інші учні не падали, щойно між ними й
дементором не залишалося патронуса.__

// 9917
//Harry meant to destroy Death, to end it if he could. He meant to live forever,
//if he could; he had hope of it, the thought of Death brought him no sense of
//despair or inevitability. He was not blindly attached to his own life; indeed
//it had taken an effort __not__ to burn away all his life on the need to
//protect others from Death. Why did the shadows of Death have such power over
//Harry? He would not have thought himself so afraid.
Гаррі збирався знищити смерть, покінчити з нею, якщо зможе. Він збирався жити
вічно, якщо вийде. Він на це справді сподівався, думка про смерть не викликала
в нього відчаю, смерть не здавалася неминучою. Він не був з тих, хто сліпо
чіпляється за власне життя. Насправді, йому довелося докласти зусиль, щоб
__не__ спалити все своє життя для захисту інших від смерті. Чому ж тіні смерті
мали таку владу над Гаррі? Йому не здавалося, що він аж так боїться.

// 9918
//Was it Harry, all along, who’d been rationalizing? Who was secretly so afraid
//of death that it was twisting his own thoughts, as Harry had accused
//Dumbledore?
Чи це Гаррі від початку раціоналізував? І це він потайки боявся смерті
настільки, що перекручував власні думки, і сам був винен у тому, у чому звинувачував
був Дамблдора?

// 9919
//Harry considered this, preventing himself from flinching away. It felt
//uncomfortable, but…
Гаррі обміркував це, змусив себе не ігнорувати таку можливість. Ця версія була
неприємною, проте...

// 9920
//But…
Проте...

// 9921
//But uncomfortable thoughts weren’t always __true__, and this one didn’t
//sound exactly right. Like there was a grain of truth, but it wasn’t hiding
//__where__ the hypothesis said it was -
Проте неприємні думки не завжди були __істинними__, і ця не видавалася
правильною. Ніби в ній було зерно правди, проте воно було не там, __де__
стверджувала гіпотеза...

// 9922
//And that was when Harry realized.
І тоді Гаррі збагнув.

// 9923
//__Oh.__
__О.__

// 9924
//__Oh, I understand now.__
__О, тепер я розумію.__

// 9925
//__The one who is afraid, is…__
__Насправді боїться...__

// 9926
//Harry asked his dark side what it thought of death.
Гаррі спитав свою темну сторону, що та думає про смерть.

// 9927
//And Harry’s Patronus wavered, dimmed, almost went out upon the instant, for
//that desperate, sobbing, screaming terror, an unutterable fear that would do
//anything not to die, throw everything aside not to die, that couldn’t think
//straight or feel straight in the presence of that absolute horror, that
//couldn’t look into the abyss of nonexistence any more than it could have stared
//straight into the Sun, a blind terrified thing that only wanted to find a dark
//corner and hide and not have to think about it any more -
І патронус Гаррі заколихався, потьмянів, ледь не зникнув тієї ж миті через
хвилю несамовитого, волаючого жаху, схлипувань, невимовного страху, готовність
зробити що завгодно, аби не помирати, відмовитися від будь-чого, аби не
помирати. Його темна сторона втрачала здатність на нормальні думки, на
нормальні відчуття в присутності цього цілковитого жаху, не могла дивитися у
прірву неіснування так само, як не могла дивитися прямо на Сонце, вона
перетворювалася на сліпу нажахану істоту, що хотіла лише знайти темний закуток,
заховатися там і не думати про це більше...

// 9928
//The silver figure had darkened to moonlight, was flickering like a failing
//candle -
Світло срібної фігури досягло рівня місячного і тремтіло, мов свічка, що
гасне...

// 9929
//__It’s all right,__ thought Harry, __it’s all right.__
__Усе гаразд__, подумав Гаррі, __усе гаразд.__

// 9930
//Visualizing himself cradling his dark side like a frightened child in his arms.
І уявив, ніби він заколисує свою темну сторону, мов налякану дитину у своїх
руках.

// 9931
//__It’s right and proper to be horrified, because death is horrible. You
//don’t have to hide your horror, you don’t have to feel ashamed of it, you can
//wear it as a badge of honor, openly in the Sun.__
__Правильно й доречно боятися, бо смерть жахлива. Не приховуй свого переляку,
не соромся його, носи його, мов медаль за відвагу, відкрито серед білого дня.__

// 9932
//It was strange, to feel himself split in two like this, the track of his
//thoughts that gave the comfort, the track of his thoughts that followed his
//dark side’s incomprehension at the alienness of the ordinary Harry’s thoughts;
//of all the things that his dark side associated with its own fear of death, the
//one thing it had never expected or imagined that it might find, was acceptance
//and praise and help…
Це було дивно -- відчувати, ніби ти розділився навпіл, одночасно усвідомлювати
думки, що намагалися заспокоїти, і думки темної сторони про незбагненність і
чудакуватість звичайних думок Гаррі. Чого його темна сторона ніколи не
очікувала у зв'язку зі своїм страхом смерті, так це прийняття, похвали й
пропозиції про допомогу...

// 9933
//__You don’t have to fight alone,__ Harry said silently to his dark side.
//__The rest of me will back you up on this. I won’t let myself die, and I
//won’t let my friends die either. Not you/I, not Hermione, not Mum or Dad, not
//Neville or Draco or anyone, this is the will to protect… __Visualizing wings of
//sunlight, like the wings of the Patronus he had spread, to give shelter to that
//frightened child.
__Ти не маєш боротися наодинці__, тихо сказав Гаррі своїй темній стороні.
__Решта мене підтримує тебе в цьому. Я не дозволю собі померти і не дозволю
померти своїм друзям. Ані тобі-собі, ані Герміоні, ані мамі з татом, ані
Невілові, Драко чи будь-кому, це моє бажання захистити...__ Він уявив крила з
сонячного світла, ніби крила патронуса, які той розгорнув був, і накрив ними це
перелякане дитя.

// 9934
//The Patronus brightened again, the world spun around Harry or it was his own
//mind that was spinning?
Патронус знову пояскравішав, світ навколо Гаррі крутнувся, чи може це розум
Гаррі обертався?..

// 9935
//__Take my hand,__ Harry thought and visualized, __come with me, and
//we will do this thing together…__
__Візьми мене за руку__, подумав та уявив Гаррі, __йди зі мною, і ми зробимо це
разом...__

// 9936
//____

// 9937
//There was a lurch in Harry’s mind, like his brain had taken one step to the
//left, or the universe had taken one step to the right.
Розум Гаррі похитнувся, ніби його мозок зробив крок ліворуч, або всесвіт зробив
крок праворуч.

// 9938
//And in a brightly lit corridor in Azkaban, the dim gas lights far outshone by
//the steady and unwavering light of a human-shaped Patronus, an invisible boy
//stood with a strange small smile on his face, shaking only slightly.
І в яскраво освітленому коридорі Азкабану, де гасові лампи затьмарювало рівне
непохитне світло гуманоїдного патронуса, невидимий хлопчик стояв з дивною
усмішкою на обличчі, і лише трохи тремтів.

// 9939
//Harry knew, somehow, that he’d just done something significant, something that
//went beyond just strengthening his resistance to Dementors.
Гаррі якимось чином знав, що він щойно досягнув чогось важливого, більш
значущого, ніж просто підвищив свою витривалість у присутності дементорів.

// 9940
//And more than that, he’d __remembered__. Thinking of Death as an
//anthropomorphic figure had done the trick, ironically enough. Now Harry could
//remember it, what was reputed to hide someone from the gaze of Death himself…
// hedrok: 17:2782 "was reputed..."
На додачу він ще й __згадав__. Хай як кумедно, але допомогло саме те, що він
розмірковував про смерть як антропоморфну істоту. Тепер Гаррі згадав, що
саме, подейкують, може приховати когось від погляду самої Смерті.

***

// 9941
//In a corridor of Azkaban, a wizard’s striding legs came to an abrupt halt; for
//the bright silver thing that was his guide, had halted in midair, fluttering
//its wings in distress. The brilliant white phoenix craned its head, looking
//backward and forward as though confused; and then it turned to its master and
//shook its head in apology.
У коридорі Азкабану швидка хода чарівника раптом спинилася. Бо яскрава срібна істота, що
вела його, завмерла була у повітрі -- з розпачем змахувала крилами. Сяючий білий
фенікс нахилив голову, озирнувся, ніби був спантеличеним. А потім поглянув на
свого господаря й з жалем похитав головою.

// 9942
//Without another word, the old wizard turned and strode back the way he came.
Без жодного слова чарівник розвернувся й хутко пішов туди, звідки прийшов.

***

// 9943
//Harry stood straight and upright, feeling the fear wash over him and around
//him. Some tiny part of him might have been eroded a little by the waves of
//emptiness that broke continually upon his unmoving stone, but his limbs were
//not cold, and his magic was with him. In time those waves might corrode him and
//consume him, sneaking through whatever tiny part of him still cowered before
//Death instead of using its fear to energize itself for battle. But that doom
//would take time, with the shadows of Death far away and uncaring of him. The
//flaw, the crack, the fault-line that was in him had been repaired, and the
//stars blazed brightly in his mind, vast and unafraid, and brilliant in the
//midst of cold and darkness.
// hedrok: "The flaw, the crack, the fault-line" 43:8104
Гаррі стояв струнко й прямо, він відчував, як його омиває страх, і відчував
страх навколо. Мабуть, ці хвилі порожнечі розмивали якусь крихітну його
частину, неспинно билися об нього, мов об нерухомий камінь. Але його руки
не були холодними, і магія не покинула його. З часом ці хвилі можуть достатньо
розмити його, щоб знищити його, просочитися крізь хай яку маленьку його частинку,
що досі ховалася від смерті замість того, щоб використовувати цей страх як
спонукання для боротьби. Але на такий результат потрібен час, особливо коли
тіні смерті далеко й не зосереджені на ньому. Він залагодив ваду, тріщину,
розлам у собі, і зірки яскраво палахкотіли в його розумі, величезні й
позбавлені страху, блискучі серед холоду й темряви.

// 9944
//To anyone else’s eyes, it would have seemed that the boy stood alone in the
//dimly lit metal corridor, wearing that strange smile.
Будь-хто інший побачив би лише хлопчика, що стояв сам у погано освітленому
металевому коридорі, та дивну усмішку на його обличчі.

// 9945
//For Bellatrix Black and the snake draped around her shoulders were concealed by
//the Cloak of Invisibility, one of the three Deathly Hallows and reputed to hide
//its wearer from the gaze of Death himself. The riddle whose answer had been
//lost, and which Harry had found anew.
// hedrok: 17:2782 "was reputed..."
Бо Белатриса Блек та змій навколо її шиї були приховані Плащем невидимості,
однією з трьох Смертельних реліквій, яка, подейкують, може приховати власника
від погляду самої Смерті. Відповідь на цю загадку було забуто, а Гаррі її
заново знайшов.

// 9946
//And Harry knew, now, that the concealment of the Cloak was more than the mere
//transparency of Disillusionment, that the Cloak kept you __hidden__ and
//not just invisible, as unseeable as were Thestrals to the unknowing. And Harry
//also knew that it was Thestral blood which painted the symbol of the Deathly
//Hallows on the inside of the Cloak, binding into the Cloak that portion of
//Death’s power, enabling the Cloak to confront the Dementors on their own level
//and block them. It had felt like guessing, and yet a certain guess, the
//knowledge coming to him in the instant of solving the riddle.
І тепер Гаррі знав, що захист Плаща не був простою невидимістю розілюзнення,
цей Плащ __ховав__ тебе, а не просто робив невидимим, тебе під ним було так
само неможливо побачити, як незнаючий не міг побачити тестрала. І Гаррі також
знав, що символ Смертельних реліквій всередині Плаща було намальовано
кровʼю тестрала, і саме це надавало Плащу цю можливість, дозволяло боротися з
дементорами на їхньому рівні й блокувати їх. Це скидалося лише на здогад, але
певний здогад, знання прийшло до нього, щойно він розвʼязав загадку.

// 9947
//Bellatrix was still transparent within the Cloak, but to Harry she was no
//longer hidden, he knew that she was there, as obvious to him as a Thestral. For
//Harry had only loaned his Cloak, not given it; and he had comprehended and
//mastered the Deathly Hallow that had been passed down through the Potter line.
Белатриса досі була прозорою під Плащем, проте вона більше не була прихованою
від Гаррі. Гаррі знав, що вона там. Тепер вона була для нього такою ж очевидною,
як тестрали. Бо Гаррі лише позичив свій Плащ, а не віддав його. Він збагнув та
опанував Смертельну реліквію, що передавалася з покоління в покоління Поттерів.

// 9948
//Harry gazed directly at the invisible woman, and said, “Can the Dementors reach
//you, Bella?”
Гаррі поглянув прямо на невидиму жінку, і сказав:

-- Чи впливають на тебе дементори, Бело?

// 9949
//“No,” said the woman in a soft, wondering voice. Then, “But my Lord…
//__you__…”
-- Ні, -- сказала жінка мʼяким, заінтригованим голосом і додала, -- Проте
володарю... __ви__...

// 9950
//“If you say anything foolish, it will annoy me,” Harry said coldly. “Or are you
//under the impression that I would sacrifice myself for you?”
-- Якщо ти скажеш щось дурне, це мене роздратує, -- холодно сказав Гаррі. --
Невже тобі здається, що я пожертвую собою заради тебе?

// 9951
//“No, my Lord,” the Dark Lord’s servant replied, sounding puzzled, and perhaps
//awed.
-- Ні, володарю, -- відповіла прислужниця Темного Лорда. У її голосі чулося
здивування, чи, можливо, благоговіння.

// 9952
//“Follow,” spoke Harry’s cold whisper.
-- За мною, -- холодно прошепотів Гаррі.

// 9953
//And they continued their journey downward, as the Dark Lord reached into his
//pouch, and took a cookie, and ate it. If Bellatrix had asked, Harry would have
//claimed it was for the chocolate, but she didn’t ask.
І вони продовжили свій шлях униз. Темний Лорд дістав з глибин капшучка тістечко та
зʼїв його. Якби Белатриса спитала, Гаррі сказав би, що це для шоколаду, проте вона
не спитала.

***

// 9954
//The old wizard strode back into the midst of the Aurors, the silver and the
//red-golden phoenixes now following behind.
Старий чарівник широким кроком повернувся до аврорів, срібний та червоно-золотий
фенікси тепер були позаду нього.

// 9955
//“__You -__” Amelia began to bellow.
-- __Ти...__ -- почала ревіти Амелія.

// 9956
//“They have dismissed their Patronus,” said Dumbledore. The old wizard didn’t
//seem to raise his voice but his calm words somehow overrode her own. “I cannot
//find them now.”
-- Вони скасували патронуса, -- сказав Дамблдор. Старий чарівник ніби й не
підвищував голос, проте його спокійні слова якимось чином заглушили її власні.
-- Тепер я не можу їх знайти.

// 9957
//Amelia gritted her teeth, and put a number of scathing remarks on hold, and
//turned to the communications officer. “Tell the duty room to ask the Dementors
//__again__ if they can sense Bellatrix Black.”
Амелія заскреготіла зубами, відклала чимало уїдливих зауваг на потім і обернулася
до офіцера звʼязку.

-- Передай у кімнату для чергування, щоб дементора __знову__ спитали, чи
відчуває він Белатрису Блек.

// 9958
//The communications specialist spoke to her mirror for a moment, and a few
//seconds later, looked up, surprised. “No -”
Спеціаліст звʼязку передала повідомлення дзеркалом, а за кілька секунд зі
здивуванням підвела погляд.

-- Ні...

// 9959
//Amelia was already cursing violently in her mind.
Амелія вже подумки кляла все на світі.

// 9960
//“- but they can see someone else on the lower levels who isn’t a prisoner.”
...проте вони бачать когось іншого на нижніх рівнях -- не вʼязня.

// 9961
//“Fine!” snapped Amelia. “Tell the Dementor that a dozen of its kind are
//authorized to enter Azkaban and seize whoever that is and anyone in their
//company! And if they see Bellatrix Black, they’re to Kiss her immediately!”
-- Добре! -- кинула Амелія. -- Скажіть дементору, що дюжині його родичів
дозволено зайти в Азкабан та схопити цього невідомого і будь-кого, хто з ним
поряд! І якщо вони побачать Белатрису Блек, то мають Поцілувати її негайно!

// 9962
//Amelia turned and glared toward Dumbledore, then, daring him to argue; but the
//old wizard only looked at her a bit sadly, and held his peace.
Амелія обернулася й вовком подивилася на Дамблдора, готова до суперечки з ним.
Проте старий чарівник лише з легким сумом на неї поглянув і не сказав ані
слова.

***

// 9963
//Auror McCusker finished speaking to the corpse that drifted outside the window,
//conveying the Director’s orders.
Аврор Маккаскер передав наказ директорки трупу, що висів за вікном.

// 9964
//The corpse gave him a deathly smile that almost unstrung his limbs, and then
//floated downward.
Труп наділив його такою смертоносною посмішкою, що аврор ледь не розпався на
частини, а тоді полетів униз.

// 9965
//Soon after, a dozen Dementors arose from where they had drifted in the central
//pit of Azkaban, and headed outward, toward the walls of the vast metal
//structure that towered above them.
Невдовзі дюжина дементорів піднялися зі свого звичайного місця в центральній
ямі Азкабану й попрямували назовні, до стін величезної металевої споруди, що
височіла над ними.

// 9966
//Entering through holes set into the base of Azkaban, the darkest of all
//creatures began their march of horror.
Вони пройшли крізь отвори в основі Азкабану -- найтемніші з усіх створінь
почали свій марш жаху.
