// 11949
//== Self Actualization, Pt 3
== Розділ 68. Пошук себе, ч.3

// 11950
//Hermione wasn’t feeling very nice right now, or Good either, there was a hot
//ball of anger burning inside her and she wondered if this was something like
//Harry’s darkness (though it probably wasn’t even close) and she shouldn’t have
//felt that way over some silly little game but -
Герміона зараз не здавалася собі доброю чи хорошою -- всередині вирувала злість,
і вона навіть подумала, чи не схоже це на темряву Гаррі (хоча напевно й поряд
не стояло), і вона не мала б почуватися так через дурну неважливу гру, проте...

// 11951
//Her whole army. Two soldiers had beaten her whole army. That was what she’d
//been told after she woke up.
Все її військо. Двоє солдатів перемогли все її військо. Ось що їй сказали, коли
вона прокинулася.

// 11952
//It was a little too much.
Це вже було трохи занадто.

// 11953
//“Well,” Professor Quirrell said. From up close the Defense Professor didn’t
//look quite as healthy as he had the last time she’d been in his office; his
//skin looked paler, and he moved a little slower. His expression was as stern as
//ever, and his gaze as penetrating; his fingers tapped sharply on his desk,
//rap-rap. “I would guess that of the three of you, only Mr. Malfoy has guessed
//why I’ve asked you here.”
-- Ну, -- сказав професор Квірел. Зблизька професор із захисту здавався не таким
здоровим, як коли вона була в його офісі востаннє. Його шкіра була блідішою, сам
він рухався повільніше. Суворий вираз обличчя й пронизливий погляд не змінилися.
Він барабанив пальцями по столу. -- Підозрюю, що з вас трьох лише містер Мелфой
здогадався, чому я вас викликав.

// 11954
//“Something to do with Noble and Most Ancient Houses?” said Harry from beside
//her, sounding puzzled. “I didn’t violate some kind of crazy law by firing on
//Daphne, did I?”
-- Через щось повʼязане зі шляхетними й найдавнішими родами? -- спитав Гаррі
поряд з нею, його голос був спантеличеним. -- Я ж не порушив якийсь божевільний
закон, коли вистрелив у Дафну?

// 11955
//“Not quite,” the man said with heavy irony. “Since Miss Greengrass did not
//invoke the correct dueling forms, she is not entitled to demand that you be
//stripped of your House name. Although of course I would not have permitted a
//formal duel. Wars do not respect such rules.” The Defense Professor leaned
//forward and rested his chin on steepled hands, as though sitting upright had
//already tired him. His eyes gazed at them, sharp and dangerous. “General
//Malfoy. Why did I call you here?”
-- Не зовсім, -- вкрай іронічно сказав чоловік. -- Оскільки міс Ґрінґрас не
задіяла правильні дуельні формулювання, вона не в праві вимагати, щоб вас
позбавили імені роду. Втім, звісно, я б не дозволив відбутися офіційній дуелі.
Війни не поважають такі правила, -- професор із захисту нахилився вперед
та спер підборіддя на руках, ніби навіть сидіти рівно для нього було надто
важко. Та погляд його був уважним та небезпечним. -- Генерале Мелфой, чому я
вас сюди покликав?

// 11956
//“General Potter against the two of us isn’t a fair fight anymore,” Draco Malfoy
//said in a quiet voice.
-- Бій між генералом Поттером та нами двома більше не є спортивним, -- тихо сказав
Драко Мелфой.

// 11957
//“__What?__” blurted Hermione. “We almost __had__ them, if Daphne
//hadn’t fainted -”
-- __Що?__ -- випалила Герміона. -- Ми майже __перемогли__ їх, якби Дафна
не знепритомніла...

// 11958
//“Miss Greengrass did not faint from magical exhaustion,” Professor Quirrell
//said dryly. “Mr. Potter shot her in the back with a Sleep Hex while your
//soldiers were distracted by the sight of their general flying into a wall. But
//congratulations nonetheless, Miss Granger, on __almost__ defeating two
//Chaotic Legionnaires with a mere twenty-four Sunshine Soldiers.”
-- Міс Ґрінґрас не знепритомніла через магічне виснаження, -- сухо сказав
професор Квірел. -- Містер Поттер вистрілив їй у спину прокльоном сну, доки
решта ваших солдатів відволіклися через те, що їхній генерал врізалася в стіну.
Та все одно вітаю, міс Ґрейнджер, з тим, що ви __майже__ здолали двох легіонерів
хаосу за допомогою лише двадцяти чотирьох солдатів Сонечка.

// 11959
//The blood flaming in her cheeks grew a little hotter. “That - that was just -
//if I’d only figured out he was wearing armor -”
Її щоки горіли.

-- Це... це просто... якби я тільки здогадалася, що він був в обладунках...

// 11960
//Professor Quirrell gazed at her from over touched fingers. “Of course there are
//ways you __could__ have won, Miss Granger. There always are, in every lost
//battle. The world around us redunds with opportunities, explodes with
//opportunities, which nearly all folk ignore because it would require them to
//violate a habit of thought; in every battle a thousand Hufflepuff bones waiting
//to be sharpened into spears. If you had thought to try a massed __Finite
//Incantatem__ on general principles, you would have dispelled Mr. Potter’s suit
//of chainmail and everything else he was wearing except his underwear, which
//leads me to suspect that Mr. Potter did not quite realize his own
//vulnerability. Or you could have had your soldiers swarm Mr. Potter and Mr.
//Longbottom and physically wrest the wands from their hands. Mr. Malfoy’s own
//response was not what I would term __well-reasoned,__ but at least he did
//not wholly ignore his thousand alternatives.” A sardonic smile. “But you, Miss
//Granger, had the misfortune to remember how to cast the Stunning Hex, and so
//you did not search your excellent memory for a dozen easier spells that might
//have proved efficacious. And you pinned all your army’s hopes on your own
//person, so they lost spirit when you fell. Afterward they continued to cast
//their futile Sleep Hexes, governed by the habits of fighting that had been
//trained into them, unable to break the pattern as Mr. Malfoy did. I cannot
//quite comprehend what goes through people’s minds when they repeat the same
//failed strategy over and over, but apparently it is an astonishingly rare
//realization that you can try something else. And so the Sunshine Regiment was
//wiped out by two soldiers.” The Defense Professor grinned mirthlessly. “One
//perceives certain similarities to how fifty Death Eaters dominated all of
//magical Britain, and how our much-loved Ministry continues in its rule.”
Професор Квірел поглянув на неї поверх складених пальців.

-- Звісно, були способи, якими ви __могли б__ виграти, міс Ґрейнджер. Вони завжди є,
у кожній програній битві. Світ навколо нас сповнено можливостями, просто утрамбовано
можливостями, що їх звичайні люди ігнорують, бо інакше їм доведеться вийти за
звичні думки. У кожній битві тисячі кісток гафелпафців чекають, доки їх не
перетворять на списи. Якби вам спало на думку просто застосувати масовий
"`Фініте Інкантатем`", ви б розвіяли чари з кольчуги містера Поттера та з усього
його одягу, крім його білизни. Що наводить мене на думку, що містер Поттер не
до кінця усвідомлював, наскільки він вразливий. Чи ви могли б просто наказати
своїм солдатам гуртом напасти на містера Поттера й містера Лонґботома фізично
й відібрати палички з їхніх рук. Я б не назвав реакцію містера Мелфоя
__цілком розумною__, проте він принаймні не цілковито проігнорував тисячу альтернативних
варіантів, -- він сардонічно посміхнувся. -- А от ви, міс Ґрейнджер, собі на біду
памʼятали, як застосувати приголомшливий прокльон, і проігнорували десятки легших
заклять, що безсумнівно зберігаються у вашій чудовій памʼяті та могли бути ефективнішими.
Ви прикували всі надії вашого війська до себе, і коли ви впали, вони зневірилися.
Після цього вони продовжили застосовувати свої марні прокльони сну, бо так їх натренували
битися, і вони не змогли щось змінити, на відміну від містера Мелфоя. Я не здатен до
кінця збагнути, що відбувається в голові у людини, коли вона повторює дії, що призводять
до невдачі, знову й знову, та видається, що думка спробувати щось інше -- неймовірно
рідкісна. Тож Полк "`Сонечко`" знищили два солдати.

Професор із захисту безжально всміхнувся.

-- Це дещо нагадує те, -- продовжив він, -- як пʼятдесят смертежерів захопили
всю чаклунську Британію, а також те, як наше вкрай улюблене міністерство
продовжує керувати.

// 11961
//The Defense Professor sighed. “__Nonetheless,__ Miss Granger, the fact
//remains that this is not the first such defeat for you. In the previous battle,
//you and Mr. Malfoy united your forces, and yet you were fought to a standstill,
//so that you and Mr. Malfoy had to pursue Mr. Potter onto the roof. The Chaos
//Legion has now demonstrated, twice in succession, military strength equal to
//both other armies combined. This leaves me no choice. General Potter, you will
//select eight soldiers from your army, including at least one Chaotic
//Lieutenant, to be divided among Dragon Army and the Sunshine Regiment -”
Професор із захисту зітхнув.

-- __Хай там як__, міс Ґрейнджер, це не перша така ваша поразка. У минулій битві
ви обʼєднали сили з містером Мелфоєм, і все ж таки ледь не програли -- вам разом
з містером Мелфоєм довелося лізти за містером Поттером на дах. Легіон Хаосу двічі
поспіль продемонстрував, що його військова сила не менша, ніж у ваших двох військ
разом. Це не залишає мені вибору. Генерале Поттер, ви виберете вісім солдатів з
вашого війська, включно з принаймні одним лейтенантом Хаосу, і їх розподілять між
Армією Драконів та Полком "`Сонечко`"...

// 11962
//“__What?__” Hermione burst out again, she glanced over at the other
//generals and saw that Harry looked as shocked as her, while Draco Malfoy only
//looked resigned.
-- __Що?__ -- знову не стрималася Герміона.

Вона поглянула на двох інших генералів. Гаррі видавався не менш шокованим, ніж вона,
а Драко Мелфой виказував лише сумну згоду.

// 11963
//“General Potter is stronger than both of you together,” Professor Quirrell said
//with calm precision. “Your contest is over, he has won, and it is time to
//rebalance the three armies to present him with a renewed challenge.”
-- Генерал Поттер сильніший за вас обох разом, -- спокійно й чітко сказав професор
Квірел. -- Ваше змагання завершене, він переміг, час змінити баланс трьох військ,
щоб поставити перед ним новий виклик.

// 11964
//“__Professor Quirrell!__” said Harry. “I didn’t -”
-- __Професоре Квірел!__ -- сказав Гаррі. -- Я не...

// 11965
//“This is my decision as the Professor of Battle Magic at the Hogwarts School of
//Witchcraft and Wizardry and it is not subject to negotiation.” The words were
//still precise, but the look in Professor Quirrell’s eyes chilled Hermione’s
//blood, even though he was glaring at Harry and not at her. “And I find it
//__suspicious__, Mr. Potter, that the moment you wished to isolate Miss
//Granger and Mr. Malfoy and force them to chase you onto the roof, you were able
//to annihilate just exactly as much of their united force as you pleased.
//Indeed, that is the level of performance I __expected__ of you since the
//start of this year, and I am __annoyed__ to discover that you have been
//holding back in my classes this entire time! I have seen what you can truly do,
//Mr. Potter. You are far beyond the point where Mr. Malfoy or Miss Granger can
//fight you on an equal level, and you will not be permitted to pretend
//otherwise. This, Mr. Potter, I tell you in my capacity as your professor: For
//you to learn to your full potential, you must exercise your full abilities and
//not hold back for __any__ reason - particularly not childish frets over
//what your friends might think!”
-- Це моє рішення, я приймаю його, як професор бойової магії Гоґвортсу, школи
чарів і чаклунства, це рішення не підлягає обговоренню.

Слова досі були чіткими, та від погляду професора Квірела в Герміони холола кров,
хоч він був направлений на Гаррі, а не на неї.

-- І мені видається __підозрілим__, містере Поттер, що коли ви забажали ізолювати
міс Ґрейнджер та містера Мелфоя і змусити їх переслідувати вас на даху, вам вдалося
позбутися рівно стільки їхніх обʼєднаних солдатів, скільки ви забажали. І справді,
успіхів такого рівня я __очікував__ від вас з початку цього року, і мене
__роздратувало__ відкриття, що ви просто стримували сили на моїх заняттях весь цей
час! Я бачив, на що ви справді здатні, містере Поттер. Ви вже значно вищі за той
рівень, на якому містер Мелфой чи міс Ґрейнджер можуть боротися з вами на рівних,
і вам не буде дозволено вдавати, ніби це не так. Ось що я вам скажу, як ваш професор,
містере Поттер: щоб досягти свого справжнього потенціалу, ви маєте використовувати
свої здібності на повну і не стримувати сили з __жодних__ причин -- зокрема, через
дитячі хвилювання щодо того, що можуть подумати ваші друзі!

***

// 11966
//She left the Defense Professor’s office with a larger army, and less dignity,
//and feeling a lot like a sad little bug that had just been squished, and trying
//very very hard not to cry.
Вона пішла з кабінету професора із захисту зі збільшеною кількістю солдатів,
зменшеною гідністю та відчуттям, ніби вона жалюгідна дрібна комаха, що її щойно
розчавили, і дуже дуже старалася не заплакати.

// 11967
//“I __wasn’t__ holding back!” Harry said as soon as they turned the first
//corner away from Professor Quirrell’s office, the moment the wooden door faded
//out of sight behind the stone walls. “I wasn’t pretending, I never __let__
//either of you win!”
-- Я __не__ стримував сили! -- сказав Гаррі, щойно вони завернули за перший ріг
після кабінету професора Квірела -- щойно деревʼяні двері заховалися за камʼяними
стінами. -- Я не вдавав нічого, я ніколи не __віддавав__ перемогу жодному з вас!

// 11968
//She didn’t answer, couldn’t answer, it would all break loose if she tried to
//say a word.
Вона не відповіла -- не в силах була відповісти, вона розклеїться, якщо спробує
сказати бодай слово.

// 11969
//“Really?” said Draco Malfoy. The Dragon General still had that air of
//resignation. “Because Quirrell’s right, you know, it’s__ suspicious__ that
//you could beat nearly everyone in both our armies as soon as you wanted to make
//us chase you onto the roof. And didn’t you say something then, Potter, about us
//needing to beat you when you were fighting for real?”
-- Справді? -- запитав Драко Мелфой. Генерал Драконів досі мав цей сумно-покірний
вигляд. -- Бо знаєш, Квірел має рацію, це __підозріло__, що ти зміг перемогти майже
всіх в обох наших військах, щойно захотів, щоб ми переслідували тебе на даху. І чи
не казав ти тоді, Поттере, щось про те, що ми маємо тебе перемогти, коли ти
боротимешся по-справжньому?

// 11970
//The burning sensation was creeping up her throat, and when it reached her eyes
//she would burst into tears, and from then on she would be just a crying little
//girl to both of them.
Пекуче відчуття наближалося до її горла, і коли воно дійде до її очей, вона
розридається, і після цього для них двох вона стане просто маленькою
дівчинкою-плаксою.

// 11971
//“That -” Harry’s voice said urgently, she wasn’t looking at him but his voice
//sounded like he had his head turned toward her. “That was - I tried a lot
//harder that time, there was an important reason, I __had__ to, so I used a
//whole bunch of tricks I’d been saving up - and -”
-- Тоді... -- швидко почав Гаррі. Вона на нього не дивилася, та судячи зі
звуку, він обернувся до неї. -- Тоді я... я дуже старався тоді, була важлива
причина, я __мав__ це зробити, тож я використав купу трюків, які я притримував...
і...

// 11972
//She’d always been trying her hardest, every time.
Вона завжди викладалася на повну, щоразу.

// 11973
//“- and I, I let out a side of myself I wouldn’t usually use for something like
//Defense class -”
-- ...і я, я не звертаюся до тієї частини себе, що її я зазвичай не використовую для
чогось на кшталт заняття із захисту...

// 11974
//So if she ever got close to winning against Harry when it __really__
//mattered, he could just go into his dark side and crush her, was that it?
Отже, якщо вона колись наблизиться до перемоги над Гаррі, коли це __справді__
буде важливо, він просто зануриться у свою темну сторону й знищить її, ось
і все?

// 11975
//…of course it was. She couldn’t even __look__ Harry in the eyes when he
//was being scary, how had she ever thought she could beat him for real?
...звісно так. Вона не могла навіть __дивитися в очі__ Гаррі, коли він був
страшним, як їй могло навіть спасти на гадку, що вона може його перемогти
по-справжньому?

// 11976
//The corridor forked, and Harry Potter and Draco Malfoy went left toward a
//staircase that climbed to the second floor, and she went right instead, she
//didn’t even know where that passage went but right now she’d rather be lost in
//the castle.
Вони підійшли до розвилки в коридорі, Гаррі Поттер і Драко Мелфой пішли ліворуч
до сходів на другий поверх, а вона натомість пішла праворуч, хоча навіть не знала,
куди веде цей прохід, та наразі вона була не проти заблукати в замку.

// 11977
//“Excuse me, Draco,” said Harry’s voice, and then there was a pattering of
//footsteps behind her.
-- Перепрошую, Драко, -- пролунав голос Гаррі, і вона почула, як до неї
наближаються кроки.

// 11978
//“Leave me alone,” she said, it came out sounding stern but then she had to shut
//her mouth and press her lips together tightly and hold her breath to stop it
//all from coming out.
-- Облиш мене в спокої, -- сказала вона.

Вийшло доволі грубо, та їй довелося стулити щелепи й губи разом, і навіть
затримати дихання, щоб усе не полилося з неї.

// 11979
//That boy just kept on coming, and ran around her and put himself in front of
//her, because he was stupid that was why, and Harry said, his voice now a high
//and desperate whisper, “I didn’t run away when __you__ were beating
//__me__ in all my classes except broomstick riding!”
Хлопець продовжив наближатися, і оббіг її, щоб стати перед нею, бо він був дурний
-- ось чому, і Гаррі сказав високим відчайдушним шепотом:

-- Я не тікав, коли __ти__ перемагала __мене__ на всіх заняттях, крім їзди на
мітлах!

// 11980
//He didn’t understand, and he would never understand, Harry Potter would never
//understand, because no matter what contest he lost he would still be the
//Boy-Who-Lived, if you were Harry Potter and Hermione Granger was beating you
//then it meant everyone was expecting you to rise to the challenge, if you were
//Hermione Granger and Harry Potter was beating you that meant you were just no
//one.
Він не розумів, він ніколи не зрозуміє, Гаррі Поттер ніколи не зрозуміє, бо хай
яке змагання він програє, він все одно залишиться Хлопчиком-Що-Вижив. Якщо ти
був Гаррі Поттером, і Герміона Ґрейнджер тебе перемагала, це означало, що всі
очікують, що ти приймеш виклик і переможеш. А якщо ти була Герміоною Ґрейнджер,
і Гаррі Поттер перемагав тебе, це означало, що ти просто ніхто.

// 11981
//“It’s not fair,” she said, her voice was shaking but she wasn’t crying yet, not
//yet, “__I__ shouldn’t have to fight your dark side, I’m just - I’m only -”
//__I’m only twelve,__ that was what she thought then.
-- Це нечесно, -- сказала вона. Її голос тремтів, та вона ще не плакала, ще ні,
-- __я__ не маю боротися з твоєю темною стороною, я просто... мені лише... --
__мені лише дванадцять__ подумала вона.

// 11982
//“I only used my dark side __once__ and that was - when I __had__ to!”
-- Я використовував свою темну сторону лише __одного разу__ і тоді...
я __мусив__ це зробити!

// 11983
//“So today you beat my __whole army__ being just Harry?” She still wasn’t
//crying yet, and she wondered what her face looked like right now, if she looked
//like an angry Hermione or a sad one.
-- Тож сьогодні ти переміг __все моє військо__ як просто Гаррі?

Вона досі не почала плакати, і їй було цікаво, яке в неї зараз було обличчя:
вона здавалася злою Герміоною чи сумною.

// 11984
//“I -” Harry said. His voice got a little lower, “I wasn’t… really
//__expecting__ to win, that time, I know I said I was invincible but that
//was just to try to scare you, I really just thought we’d slow you down for a
//bit -”
-- Я... -- почав Гаррі. Він трохи стишив голос: -- я не... насправді __не
очікував__, що виграю цього разу. Знаю, я казав, що я невразливий, та це я
просто залякував вас, насправді я гадав, що просто сповільню вас трохи...

// 11985
//She started walking again, walked right past him, and as she passed Harry’s
//face tightened up like __he __was going to cry.
Вона знову почала йти, пройшла повз нього, і коли вона проминала Гаррі, його
обличчя напружилося, ніби це __він__ збирався плакати.

// 11986
//“Is Professor Quirrell right?” came a high desperate whisper from behind her.
//“If I have you for a friend, will I always be afraid to do better because I
//know it will hurt your feelings? That’s not fair, Hermione!”
-- Невже професор Квірел має рацію? -- пролунав палкий високий шепіт за її спиною.
-- Якщо ти мій друг, невже я завжди боятимуся зробити щось краще, бо знатиму, що
це засмутить тебе? Так нечесно, Герміоно!

// 11987
//She took a breath and held it and ran, her feet pattering across the stone as
//fast as they could, running as fast as she dared with her vision all blurry,
//ran so that no one would hear her, and this time Harry didn’t follow.
Вона набрала повітря, затримала дихання й побігла. Її ноги тупотіли з
максимальною швидкістю, вона бігла так хутко, як тільки могла наважитися зі
сльозами в очах. Тікала, щоб ніхто не почув її, і цього разу Гаррі за нею не
пішов.

***

// 11988
//Minerva was going over the Transfiguration parchment due Monday, and had just
//marked down to negative two hundred points a fifth-year parchment with an error
//that could have potentially killed someone. During her first year as a
//professor she’d been indignant at the folly of older students, now she was just
//resigned. Some people not only never learned, they never noticed that they were
//hopeless, they stayed bright and eager and kept on trying. Sometimes they
//believed you when you told them, before they left Hogwarts, that they must
//__never__ try anything unusual, give up free Transfiguration and use the
//art only through established Charms; and sometimes… they didn’t.
Мінерва перевіряла пергаменти з трансфігурації на понеділок. Щойно вона
поставила мінус двісті балів на пергаменті пʼятикласника за помилку, що могла б
когось убити. Впродовж першого свого року на посаді професора вона обурювалася
щодо нерозсудливості старших учнів, та тепер вона змирилася. Деякі люди не лише
ніколи не навчалися, вони ніколи навіть не помічали, що безнадійні, вони
залишалися радісними й палко прагли вчитися, продовжували старатися. Дехто з
них вірив, коли вона казала їм перед випуском з Гоґвортсу, що вони __ніколи__
не мають робити нічого оригінального, щоб вони не вдавалися до вільної
трансфігурації, та використовували це мистецтво лише за допомогою давно
випробуваних чарів. А дехто... не вірив.

// 11989
//She was in the middle of trying to unravel a particularly convoluted answer
//when a knock at the door disrupted her thoughts; and it wasn’t her office
//hours, but it had only taken a very short time as Head of Gryffindor House for
//her to learn to suspend judgment. You could always deduct House points
//__afterward.__
Вона саме намагалися збагнути особливо заплутану відповідь, коли стукіт у двері
розірвав хід її думок. Це були не її години прийому, та на посаді вихователя
гуртожитку Ґрифіндор вона дуже швидко зрозуміла, що не варто одразу засуджувати
людей. Завжди можна зняти очки гуртожитку __пізніше__.

// 11990
//“Come in,” she said in a crisp voice.
-- Заходьте, -- сказала вона сухим голосом.

// 11991
//The young girl who entered her office had clearly been crying, and then
//afterward had washed her face in hopes it wouldn’t show -
Дівчинка, що зайшла до її офісу, явно плакала була, а потім вмивала обличчя
в сподіванні приховати це...

// 11992
//“Miss Granger!” said Professor McGonagall. It had taken her a moment to
//recognize that face with its eyes reddened and cheeks puffed. “What happened?”
-- Міс Ґрейнджер! -- сказала професорка Макґонеґел. Лише за кілька секунд вона
впізнала це обличчя з червоними очима й напухлими щоками. -- Що сталося?

// 11993
//“Professor,” said the young girl in a wavering voice, “you said that if I was
//ever worried or uncomfortable about anything, I should come to you at once -”
-- Професорко, -- сказала дівчинка тремтячим голосом, -- ви казали, що як мене
щось хвилюватиме чи мені буде незручно з будь-яких причин, я маю одразу до вас
прийти...

// 11994
//“Yes,” said Professor McGonagall, “now what __happened?__”
-- Так, -- сказала професорка Макґонеґел, -- то що ж __сталося__?

// 11995
//The girl started to explain -
Дівчина почала пояснювати...

***

// 11996
//Hermione stood still and the stairs turned around her, a revolving helix that
//shouldn’t have taken her anywhere at all, and instead bore her continuously
//__upward.__ Hermione thought it seemed like the Enchantment of the Endless
//Stair, which had been invented in 1733 by the wizard Arram Sabeti who’d lived
//on top of Mount Everest in the days when no Muggles could climb it. Only that
//couldn’t be right because Hogwarts was much older - maybe the enchantment had
//been __re__invented?
Герміона нерухомо стояла на сходах, що крутилися навколо, -- спіраль, що оберталася,
не могла її нікуди довезти, але натомість постійно пересувала її __вгору__. Герміоні
здалося, що це дуже скидалося на чаклунство нескінченних сходів, що його винайшов у
1733 чарівник Аррам Сабеті -- він жив на вершині Евересту, коли ще жоден маґл не
піднявся на неї. Тільки це було неможливо, бо Гоґвортс був значно старший -- можливо,
чаклунство винайшли __заново__?

// 11997
//She should’ve been frightened, should’ve been nervous about her second meeting
//with the Headmaster.
Вона мала б злякатися, мала б нервувати через другу зустріч із директором.

// 11998
//She __was__, in fact, frightened and nervous about her second meeting with
//the Headmaster.
Насправді, вона й __була__ перелякана й знервована щодо своєї другої зустрічі
з директором.

// 11999
//Only Hermione Granger had been thinking; she’d been thinking a lot, after she
//hadn’t been able to run any further and had slid down against the wall with her
//lungs on fire, thinking while she curled up in a ball with her back against the
//chilly stone wall and her legs drawn up and crying.
Проте Герміона Ґрейнджер багато про що розмірковувала була -- вже після того,
як несила було продовжити біг анітрохи далі, коли сповзла вздовж стіни й
видавалося, ніби її легені зайнялися вогнем -- після цього вона багато всього
обміркувала.

// 12000
//Even if she lost to Harry Potter she was never, ever going to lose to Draco
//Malfoy, that was just totally __absolutely__ unacceptable, and Professor
//Quirrell had praised General Malfoy for not ignoring his thousand alternatives;
//and so after Hermione had cried herself out she’d thought of fourteen other
//spells she __should’ve__ tried against Harry and Neville, and then she’d
//started wondering if she might be making the same sort of mistake about other
//things; and that was how she’d ended up knocking on Professor McGonagall’s
//door. Not asking for help, right now Hermione didn’t have any plans she could
//ask for help __with,__ just telling Professor McGonagall everything,
//because when she’d thought of it that had seemed like one of the thousand
//alternatives that Professor Quirrell had been talking about.
Хай вона й програла Гаррі Поттерові, вона ніколи в житті не програє Драко
Мелфою. Це було цілковито, __абсолютно__ неприйнятно, а професор Квірел
вихваляв генерала Мелфоя за те, що той не проігнорував тисячу альтернативних
варіантів. Тож коли Герміона вилила всі сльози, вона згадала чотирнадцять інших
заклять, які __варто__ було б використати проти Гаррі й Невіла, а тоді почала
думати, а чи не скоює раптом вона таку ж помилку щодо інших речей. Саме через
це вона постукала у двері професорки Макґонеґел: вона не просила допомоги,
наразі Герміона не мала планів, __з якими__ хтось міг би допомогти, -- вона
просто вирішила розповісти про все професорці Макґонеґел, адже їй здалося, що
це скидається на одну з тисяч альтернатив, про які заливався професор Квірел.

// 12001
//And she’d told Professor McGonagall about how Harry Potter had changed since
//the day the phoenix had been on his shoulder, and about how people more and
//more seemed to see her as just something of Harry’s, and how it seemed like
//Harry was pulling farther and farther away from everyone else in their school
//year and went around with a sad air sometimes like he was losing something, and
//__she didn’t know what to do anymore.__
Тож вона розповіла професорці Макґонеґел про те, як змінився Гаррі Поттер після
дня, коли на його плечі був фенікс, про те, як всі починали сприймати її як
додаток до Гаррі, і як їй здавалося, що Гаррі віддаляється дедалі сильніше від
усіх інших однокласників, і як він подеколи ходить похмурий, ніби щось втратив,
і __вона вже не знає, що робити__.

// 12002
//And Professor McGonagall had told her that they needed to talk to the
//Headmaster.
А професорка Макґонеґел сказала їй, що варто проконсультуватися з директором.

// 12003
//And Hermione had felt worried, but then the thought had come to her that
//__Harry Potter__ wouldn’t have been scared of the Headmaster. Harry Potter
//would have just barged ahead doing whatever he was trying to do. Maybe (the
//thought had come to her) it was worth __trying__ to be like that,
//__not__ being scared, just doing whatever, and seeing what happened to
//her, it couldn’t really be worse.
І Герміона була стурбована, проте тоді їй спало на думку, що __Гаррі Поттер__
не злякався б директора. Гаррі Поттер би стрімголов пішов далі, хай що він
старався зробити. Можливо (подумала тоді вона) варто __спробувати__ бути такою:
__не боятися__, просто зробити щось, і подивитися, що з цього вийде. Все
одно гірше вже бути не могло.

// 12004
//The Endless Stair stopped turning.
Оберти нескінченних сходів спинилися.

// 12005
//The great oaken door in front of them with the brass griffin knocker opened
//without being touched.
Величезні дубові двері з мідним дверним молотком у формі грифона розчинилися
перед ними, хоч ніхто їх і не торкнувся.

// 12006
//Behind a black oaken desk with dozens of drawers facing in every direction,
//looking like it had drawers set __inside__ other drawers, was the
//silver-bearded Headmaster of Hogwarts upon his throne, Albus Percival Wulfric
//Brian Dumbledore, into whose gently twinkling eyes Hermione looked for around
//three seconds before she was distracted by all the other things in the room.
За чорним дубовим столом з десятками шухляд з усіх боків сидів на своєму троні
срібнобородий директор Гоґвортсу, Албус Персіваль Вулфрик Браян Дамблдор, у чиї
злегка мерехтливі очі Герміона дивилася приблизно три секунди, доки не
відволіклася на решту речей у кімнаті.

// 12007
//Some time later - she wasn’t sure how long but it was while she was trying to
//count the number of things in the room for the third time and __still__
//not getting the same answer, even though her memory insisted that nothing had
//been added or removed - the Headmaster cleared his throat and said, “Miss
//Granger?”
За деякий час -- вона не знала, який саме, бо намагалася полічити
предмети в кімнаті втретє, і __все одно__ не могла отримати однакове число,
хоча її памʼять наполягала, що всі речі залишалися на своїх місцях...

Директор прочистив горло й сказав:

-- Міс Ґрейнджер?

// 12008
//Hermione’s head snapped around, and she felt a little heat in her cheeks; but
//Dumbledore didn’t appear annoyed with her at all, only serene, and with an
//inquiring look in those mild, half-glassed eyes.
Герміона крутнула головою, її щоки трохи почервоніли. Проте, видавалося, Дамблдор
зовсім не був роздратованим -- лише незворушним, а також мав допитливий погляд
у лагідних, напівприкритих окулярами очах.

// 12009
//“Hermione,” said Professor McGonagall, the older witch’s voice was gentle and
//her hand rested reassuringly on Hermione’s shoulder, “please tell the
//Headmaster what you said to me about Harry.”
-- Герміоно, -- сказала професорка Макґонеґел з теплотою в голосі, її рука
підбадьорливо лежала на плечі Герміони, -- будь ласка, розкажи директорові
те, що розповіла мені про Гаррі.

// 12010
//Hermione began speaking, despite her newfound resolution her voice still
//stumbled a little with nervousness, as she described how Harry had changed in
//the last few weeks since Fawkes had been on his shoulder.
Герміона почала розповідь. Незважаючи на своє нещодавнє рішення, її голос трохи
тремтів через знервованість, коли вона описувала, як Гаррі змінився протягом
останніх кількох тижнів, відколи Фоукс був на його плечі.

// 12011
//When she was done there was a pause, and then the Headmaster sighed. “I am
//sorry, Hermione Granger,” said Dumbledore. Those blue eyes had grown sadder as
//she spoke. “That is… unfortunate, but I cannot say it is unexpected. That is a
//hero’s burden, which you see.”
Коли вона замовкла, запала тиша, а потім директор зітхнув.

-- Мені шкода, Герміоно Ґрейнджер, -- сказав Дамблдор. Його сині очі посумнішали.
-- Це... неприємно, проте не можу сказати, що не очікував на це. Те, що ти бачиш,
-- тягар героя.

// 12012
//“A __hero?__” said Hermione. She looked up nervously at Professor
//McGonagall and saw that the Transfiguration Professor’s face had grown tight,
//though her hand still squeezed Hermione’s shoulder reassuringly.
-- __Героя?__ -- запитала Герміона.

Вона підвела погляд на професорку Макґонеґел, і побачила, що обличчя професорки
з трансфігурації напружилося, та її рука досі заспокійливо стискала плече
Герміони.

// 12013
//“Yes,” said Dumbledore. “I was a hero myself once, before I was a mysterious
//old wizard, in the days when I opposed Grindelwald. You have read history
//books, Miss Granger?”
-- Так, -- відповів Дамблдор. -- Колись я сам був героєм -- перед тим, як стати
таємничим старим чарівником, у дні, коли я протистояв Ґріндельвальдові. Ти ж
читала книжки з історії, міс Ґрейнджер?

// 12014
//Hermione nodded.
Герміона кивнула.

// 12015
//“Well,” said Dumbledore, “that is what heroes have to do, Miss Granger, they
//have their tasks and they must grow strong to accomplish them, and that is what
//you see happening to Harry. If there is anything that can be done to gentle his
//pathway, then __you__ will be the one to do it, and not I. For I am not
//Harry’s friend, alas, but only his mysterious old wizard.”
-- Ну, -- продовжив Дамблдор, -- ось що мають робити герої, міс Ґрейнджер. У
них є свої задачі, і вони мають ставати сильними, щоб виконувати ці завдання, і
саме це відбувається зараз із Гаррі. Якщо можливо щось зробити, щоб полегшити
цей шлях, то __ти__ це зробиш, не я. Бо я не друг Гаррі, хай як це прикро, а
лише його таємничий старий чарівник.

// 12016
//“I -” said Hermione. “I’m not sure - I still want to be -” Her voice stopped,
//it seemed too awful to say aloud.
-- Я... Я не впевнена... Що досі хочу бути... -- вона не завершила речення, бо
слова видавалися надто жахливими, щоб вимовити їх вголос.

// 12017
//Dumbledore closed his eyes, and when he opened them, he looked a little older
//than before. “No one can stop you, Miss Granger, if you choose to stop being
//Harry’s friend. As for what it would do to him, you may know that better than
//I.”
Дамблдор заплющив очі, а коли розплющив їх, то видавалося, ніби він трохи постарішав.

-- Ніхто не зупинить тебе, міс Ґрейнджер, якщо ти вирішиш припинити бути другом Гаррі.
Як це на нього вплине, ти, можливо, знаєш навіть ліпше за мене.

// 12018
//“That - doesn’t seem __fair,__” Hermione said, her voice trembling. “That
//I’ve __got__ to be Harry’s friend because he’s got no one else? That
//doesn’t seem fair.”
-- Це... це __нечесно__, -- сказала Герміона. Тепер її голос відчутно тремтів.
-- Я __мушу__ бути другом Гаррі, бо в нього більше нікого немає. Це нечесно.

// 12019
//“__Being__ a friend is not something you can be forced to, Miss Granger.”
//The blue eyes seemed to look right through her. “The feelings are there, or
//they are not. If they are there, you can accept them or deny them. You
//__are__ Harry’s friend - and choosing to deny it would wound him terribly,
//perhaps beyond healing. But Miss Granger, what would drive you to such
//extremes?”
-- Ніхто не здатен примусити тебе __бути другом__, міс Ґрейнджер, -- сині очі
дивилися просто крізь неї. -- Почуття або є, або їх немає. Якщо вони є, ти можеш
прийняти їх, чи відкинути. Ти __вже__ друг Гаррі -- і якщо ти вирішиш відкинути
це, страшенно нашкодиш Гаррі, можливо, невідворотно. Та міс Ґрейнджер, що спонукає
тебе до таких крайнощів?

// 12020
//She couldn’t find words. She’d never been able to find words. “If you get too
//near Harry - you get __swallowed up,__ and no one sees __you__ any
//more, you’re just something of __his,__ everyone thinks the whole world
//revolves around him and…” She didn’t have the words.
Вона не могла добрати слів. Їй так і не вдалося дібрати доречних слів.

-- Якщо занадто наблизитися до Гаррі... тебе ніби __засмоктує__, ніхто більше
не бачить __тебе__, ти перетворюєшся на щось, що належить __йому__, усі вважають,
ніби світ обертається навколо нього і... -- у неї не було слів.

// 12021
//The old wizard nodded slowly. “It is indeed an unjust world we live in, Miss
//Granger. All the world now knows that it is I who defeated Grindelwald, and
//fewer remember Elizabeth Beckett who died opening the way so I could pass
//through. And yet she is remembered. Harry Potter __is__ the hero of this
//play, Miss Granger; the world __does__ revolve around him. He is destined
//for great things; and I ween that in time the name of Albus Dumbledore will be
//remembered as Harry Potter’s mysterious old wizard, more than for anything else
//I have done. And perhaps the name of Hermione Granger will be remembered as his
//companion, if you prove worthy of it in your day. For this I tell you true:
//never will you find more glory on your own, than in Harry Potter’s company.”
Старий чарівник повільно кивнув.

-- Ми й справді живемо в несправедливому світі, міс Ґрейнджер. Весь світ знає
лише, що я переміг Ґріндельвальда, і мало хто памʼятає про Елізабет Бекет, що
вона померла, щоб дати мені можливість це зробити. І все ж таки її памʼятають.
Гаррі Поттер -- __справді__ герой цієї пʼєси, міс Ґрейнджер; світ __справді__
обертається навколо нього. Йому судилося робити величні вчинки. Я передбачаю,
що з часом Албуса Дамблдора памʼятатимуть лише як таємничого старого чарівника
Гаррі Поттера, а не через мої інші досягнення. Можливо, Герміону Ґрейнджер
памʼятатимуть як товаришку Гаррі Поттера, якщо ти будеш гідна. Не сумнівайся в
моїх словах: ти ніколи не знайдеш більше слави сама, ніж у товаристві Гаррі
Поттера.

// 12022
//Hermione shook her head rapidly. “But that’s __not__ -” She’d known she
//wouldn’t be able to explain. “It’s not about __glory, __it’s about being -
//something that belongs to someone else!”
Герміона різко похитала головою.

-- Справа __не__ в... -- вона знала, що пояснити не вийде. -- Справа не в
__славі__, справа в тому, щоб не бути... не бути чимось, що належить іншому.

// 12023
//“So you think you would rather be the hero?” The old wizard sighed. “Miss
//Granger, I have __been__ a hero, and a leader; and I would have been a
//thousand times happier if I could have belonged to someone like Harry Potter.
//Someone made of sterner stuff than I, to make the hard decisions, and yet
//worthy to lead me. I thought, once, that I knew such a man, but I was mistaken…
//Miss Granger, you have no idea at __all__ how fortunate are those like
//you, compared to heroes.”
-- Тож ти радше бажаєш бути героєм? -- старий чарівник зітхнув. -- Міс
Ґрейнджер, я __був__ героєм, і був лідером. І був би в тисячу разів щасливішим,
якби я міг належати комусь на кшталт Гаррі Поттера. Комусь, кого зроблено з
міцнішої речовини, ніж зроблено мене, комусь, хто міг би приймати важкі
рішення і водночас був би гідним вести мене. Колись мені здавалося, що я знав
такого чоловіка, та я помилявся... Міс Ґрейнджер, ти __взагалі__ не уявляєш,
наскільки пощастило таким, як ти, порівняно з героями.

// 12024
//The hot burning feeling was creeping up her throat again, along with
//helplessness, she didn’t understand why Professor McGonagall had brought her
//here if the Headmaster wasn’t going to help, and from a glance at Professor
//McGonagall’s face, it looked like Professor McGonagall also wasn’t sure now
//that it had been a good idea.
І знову вона відчула гіркоту в горлі, а також безпорадність. Вона не розуміла,
навіщо професорка Макґонеґел привела її сюди, якщо директор не збирається
допомагати. Та судячи з виразу обличчя професорки Макґонеґел, вона й сама вже
не була певна, що варто було сюди приходити.

// 12025
//“I don’t want to be a hero,” said Hermione Granger, “I don’t want to be a
//hero’s companion, I just want to be __me.__”
-- Я не хочу бути героєм, -- сказала Герміона Ґрейнджер, -- я не хочу бути
товаришем героя, я хочу просто бути __собою__.

// 12026
//(The thought came to her a few seconds later that maybe she __did__ in
//fact want to be a hero, but she decided not to change what she’d said.)
(За кілька секунд їй спало на думку, що можливо вона __хотіла__ стати героєм,
та вирішила вже не змінювати своїх слів.)

// 12027
//“Ah,” said the old wizard. “That is a tall order, Miss Granger.” Dumbledore
//rose from his throne, stepped out behind his desk, and pointed to a symbol on
//the wall, so ubiquitous that Hermione’s eyes had glossed right over it; a faded
//shield on which was inscribed the heraldry of Hogwarts, the lion and snake, and
//badger and raven, and in Latin engraved words whose point she’d never
//understood. Then, as she realized where that shield was, and how old it looked,
//it suddenly occurred to Hermione that this might be the __original__ -
-- О, -- сказав старий чарівник. -- Це висока планка, міс Ґрейнджер.

Дамблдор підвівся зі свого трону, вийшов з-за стола й вказав на символ на
стіні, що був настільки розповсюдженим, що Герміона його навіть не зафіксувала
при огляді кімнати, -- на побляклий щит з геральдикою Гоґвортсу: левом та
змією, борсуком та круком, а також гравійованими латинськими словами, яких вона
ніколи не розуміла. А тоді, коли вона збагнула, де цей щит висить і яким
старим він здавався, їй раптом спало на думку, що це може бути __оригінал__.

// 12028
//“A Hufflepuff would say,” said Dumbledore, tapping his finger on the faded
//badger and making Hermione wince for the sacrilege (if it __was__ the
//original), “that people fail to become who they are meant to be, because they
//are too lazy to put in all the work involved. A Ravenclaw,” tapping the raven,
//“would repeat those words that the wise know to be far older than Socrates,
//__know thyself,__ and say that people fail to become who they are meant to
//be, through ignorance and lack of thought. And Salazar Slytherin,” Dumbledore
//frowned as his finger tapped the faded snake, “why, he said that we become who
//we are meant to be by following our desires wherever they lead. Perhaps he
//would say that people fail to become themselves because they refuse to do what
//is necessary to achieve their ambitions. But then one notes that nearly all of
//the Dark Wizards to come out of Hogwarts have been Slytherins. Did they become
//what they were meant to be? I think not.” Dumbledore’s finger tapped the lion,
//and then he turned toward her. “Tell me, Miss Granger, what would a Gryffindor
//say? I do not need to ask whether the Sorting Hat offered you that House.”
-- Гафелпафець сказав би, -- продовжив Дамблдор, стукнувши пальцем об побляклого
борсука, через що Герміона здригнулася від блюзнірства (якщо, звісно, це __справді__
оригінал), -- що людям не вдається стати собою, бо вони надто ледащі й не виконують
потрібної для цього праці. Рейвенкловець, -- він торкнувся крука, -- повторив би слова,
що їх мудрі вважають старішими за Сократа, __пізнай себе__, і сказав би, що люди не
стають тими, ким мають, через невігластво й бездумність. А Салазар Слизерин, --
Дамблдор спохмурнів, коли його палець торкнувся побляклої змії, -- ну, він сказав
би, що ми стаємо тими, ким маємо бути, коли йдемо за своїми бажаннями, хай до
чого це призводить. Можливо, він сказав би, що люди не стають собою, бо відмовляються
робити все потрібне, щоб досягти своєї мети. Та можна помітити, що майже всі темні
чарівники з Гоґвортсу були слизеринцями. Чи стали вони тими, ким мали бути? Навряд,
-- палець Дамблдора торкнувся лева, і директор обернувся до неї. -- Скажи мені, міс
Ґрейнджер, що сказав би Ґрифіндор? Не сумніваюся, Сортувальний Капелюх пропонував
тобі цей гуртожиток.

// 12029
//It didn’t seem like a hard question. “A Gryffindor would say that people don’t
//become who they should be, because they’re afraid.”
Це здавалося простим питанням.

-- Ґрифіндорець сказав би, що люди не стають тими, ким мають стати, бо вони
бояться.

// 12030
//“Most people __are__ afraid, Miss Granger,” said the old wizard. “They
//live their whole lives circumscribed by crippling fear that cuts off everything
//they might accomplish, everything they might become. Fear of saying or doing
//the wrong thing, fear of losing their mere possessions, fear of death, and
//above all the fear of what other people will think of them. Such fear is a most
//terrible thing, Miss Granger, and it is terribly important to know that. But it
//is not what Godric Gryffindor would have said. People become who they are meant
//to be, Miss Granger, by doing what is right.” The old wizard’s voice was
//gentle. “So tell me, Miss Granger, what seems to you like the __right__
//choice? For __that__ is who you truly are, and wherever that path leads,
//that is who you are meant to become.”
// hedrok: "circumscribed by crippling fear" 069:12114
// kabakchey: "People become... ...by doing what is right" копія 084:15022
-- Більшість людей __бояться__, міс Ґрейнджер, -- сказав старий чарівник. --
Вони проживають все життя за ґратами зі страху, що знищує все, чого вони могли
б досягти, все, чим вони могли б стати. Страх сказати чи зробити щось не так,
страх втратити якесь майно, страх смерті, і понад усе страх того, що інші люди
можуть про них подумати. Такий страх -- найжахливіший, міс Ґрейнджер, і
страшенно важливо, щоб ти це знала. Та Ґодрик Ґрифіндор відповів би не так.
Люди стають тими, ким мають стати, міс Ґрейнджер, коли вчиняють правильно, --
голос старого чарівника був лагідним. -- Тож скажи мені, міс Ґрейнджер, що
видається тобі __правильним__ вибором? Адже саме __це__ і визначає те, ким ти
насправді є. І хай куди веде цей шлях, саме він веде до того, ким ти маєш
стати.

// 12031
//There was a long space filled with the sounds of things that could not be
//counted.
Чималий час лунали лише звуки предметів, що їх не можна полічити.

// 12032
//She thought about it, because she was a Ravenclaw.
Вона обмірковувала це, адже була рейвенкловкою.

// 12033
//“I don’t __think__ it’s right,” Hermione said slowly, “for someone to have
//to live inside someone else’s shadow like that…”
-- Мені __не здається__ правильним, -- повільно сказала Герміона, -- що хтось
має ось так жити в тіні іншого...

// 12034
//“Many things in the world are not right,” said the old wizard, “the question is
//what is right for __you__ to do about them. Hermione Granger, I shall be
//less subtle than is usual for a mysterious old wizard, and tell you outright
//that you cannot __imagine__ how badly things could go if the events
//surrounding Harry Potter turn to ill. His quest is a matter you would not even
//__dream__ of walking away from, if you knew.”
// kabakchey: "Hermione Granger, I shall be... ...turn to ill" 084:15044 копія
-- Багато що в цьому світі неправильно, -- сказав старий чарівник, -- питання в
тому, що __тобі__ правильно робити з цього приводу. Герміоно Ґрейнджер, я скажу
дещо ясніше, ніж личить таємничим старим чарівникам, -- прямо скажу, що ти нездатна
__уявити__, наскільки кепсько все буде, якщо події навколо Гаррі Поттера розвиватимуться
в неправильному напрямку. Якби ти тільки знала, тобі б навіть __на гадку не спало__
облишити його похід.

// 12035
//“__What__ quest?” said Hermione. Her voice was trembling, because it was
//very clear what answer the Headmaster was looking for and she didn’t want to
//give it. “What __happened__ to Harry back then, __why__ was Fawkes on
//his shoulder?”
-- __Який__ похід? -- запитала Герміона. Її голос тремтів, бо було вкрай зрозуміло,
якої відповіді бажав директор, а вона не хотіла її надавати. -- Що __сталося__
з Гаррі того дня, __чому__ Фоукс був у нього на плечі?

// 12036
//“He grew up,” said the old wizard. His eyes blinked several times, beneath the
//half-moon glasses, and his face suddenly looked very lined. “You see, Miss
//Granger, people do not grow up because of time, people grow up when they are
//placed in grownup situations. That is what happened to Harry Potter that
//Saturday. He was told - you are not to share this information with anyone, you
//understand - he was told that he would have to fight someone. I cannot tell you
//who. I cannot tell you why. But that is what happened to him, and why he needs
//his friends.”
// hedrok: "group up in grownup situations" 069:12114
-- Він подорослішав, -- сказав старий чарівник. Його очі за серпастими
окулярами кілька разів кліпнули, на обличчі раптом стало видно зморшки. --
Розумієш, міс Ґрейнджер, люди не дорослішають з часом, люди дорослішають, коли
опиняються у дорослих обставинах. Ось що сталося з Гаррі Поттером тієї суботи.
Йому розповіли... і ти нікому цього не повторюватимеш, звісно... йому
розповіли, що він має з деким битися. Не можу сказати з ким. Не можу сказати,
чому. Та ось що з ним сталося, і ось чому йому потрібні його друзі.

// 12037
//There was a pause.
Запала тиша.

// 12038
//“__Bellatrix Black?__” Hermione said. She couldn’t have been more shocked
//if someone had plugged an electrical cord into her ear. “You’re going to make
//Harry fight __Bellatrix Black?__”
-- __Белатриса Блек?__ -- вигукнула Герміона. Навіть електричний дріт у вусі не
шокував би її більше. -- Ви змусите Гаррі битися з __Белатрисою Блек__?

// 12039
//“No,” said the old wizard. “Not her. I cannot tell you who, or why.”
-- Ні, не з нею. Не можу сказати з ким та чому.

// 12040
//She thought about it some more.
Вона ще трохи поміркувала про це.

// 12041
//“Is there any way I can __keep up__ with Harry?” said Hermione. “I mean,
//I’m not saying it’s what I’ll __do__, but - if he needs friends then can
//we be __equal__ friends? Can I be a hero too?”
-- Як мені __не відставати__ від Гаррі? Тобто, я не маю на увазі, що
вирішила старатися не відставати, проте... якщо йому потрібні друзі, то
ми ж можемо бути __рівними__ друзями? Чи можу і я бути героєм?

// 12042
//“Ah,” said the old wizard, and smiled. “Only you can decide that, Miss
//Granger.”
-- О, -- старий чарівник усміхнувся. -- Лише ти сама можеш це вирішити, міс
Ґрейнджер.

// 12043
//“But you’re not going to help me like you’re helping Harry.”
-- Та ви не збираєтеся допомагати мені так, як допомагаєте Гаррі.

// 12044
//The old wizard shook his head. “I have helped him little enough, Miss Granger.
//And if you are asking me for a quest -” The old wizard smiled again, rather
//wryly. “Miss Granger, you are in your first year of Hogwarts. Do not be too
//eager to grow up; there will be time enough for that later.”
Старий чарівник похитав головою.

-- Я вкрай мало йому допомагав, міс Ґрейнджер. Якщо ж ти просиш про місію...
-- старий чарівник знову всміхнувся, та цього разу доволі сухо. -- Міс Ґрейнджер,
ти першокласниця Гоґвортсу. Не поспішай дорослішати. Для цього ще буде достатньо
часу.

// 12045
//“I’m twelve. Harry’s __eleven.__”
-- Мені дванадцять. Гаррі -- __одинадцять__.

// 12046
//“Harry Potter is special,” said the old wizard. “As you know, Miss Granger.”
//The blue eyes were suddenly piercing beneath the half-moon glasses, and she was
//reminded of the day of the Dementor when Dumbledore’s voice had said, inside
//her mind, that he knew about Harry’s dark side.
-- Гаррі Поттер -- особливий. Як тобі чудово відомо, міс Ґрейнджер.

Його сині очі за серпастими окулярами раптом стали пронизливими, що нагадало їй
про день дементора, коли голос Дамблдора в її голові сказав був, що знає про
темну сторону Гаррі.

// 12047
//Hermione put up her hand and touched Professor McGonagall’s hand, which had
//stayed strong on her shoulder this whole time, and Hermione said, she was
//surprised that her voice didn’t break, “I’d like to go, now, please.”
Герміона підвела руку й торкнулася руки професорки Макґонеґел, що весь цей
час не полишала плеча Герміони.

-- Будь ласка, я хотіла б піти, -- сказала Герміона, і сама здивувалася, що її
голос був рівним.

// 12048
//“Of course,” said Professor McGonagall, and Hermione felt the hand on her
//shoulder gently turning her around to face the oaken door.
-- Звісно, -- сказала професорка Макґонеґел, і Герміона відчула, як рука на
плечі лагідно розвертає її до дубових дверей.

// 12049
//“Have you chosen your path yet, Hermione Granger?” said Albus Dumbledore’s
//voice from behind her, even as the door slowly creaked open to reveal the
//Enchantment of the Endless Stair.
-- Чи вибрала ти вже свій шлях, Герміоно Ґрейнджер? -- запитав з-за спини
Албус Дамблдор, коли двері повільно розчахнулися, і вже було видно чаклунство
нескінченних сходів.

// 12050
//She nodded.
Вона кивнула.

// 12051
//“And?”
-- І?

// 12052
//“I’ll,” she said, her voice stuck, “I’ll, I’ll -”
-- Я, -- сказала вона, та їй забило дихання. -- Я... я...

// 12053
//She swallowed.
Вона ковтнула слину.

// 12054
//“I’ll do - what’s right -”
-- Я вчиню... правильно...

// 12055
//She didn’t say anything else, she couldn’t, and then the Endless Stair began
//revolving around her once again.
Нічого більше вона не сказала -- не могла, а тоді нескінченні сходи почали
обертатися знову.

// 12056
//Neither she nor Professor McGonagall spoke on the way down.
Ані вона, ані професорка Макґонеґел не вимовили жодного слова по дорозі вниз.

// 12057
//When the Flowing Stone gargoyles stepped out of their way, and the two of them
//stepped out into the corridors of Hogwarts, Professor McGonagall finally spoke,
//and she said in a whisper, “I’m so terribly sorry, Miss Granger. I did not
//think the Headmaster would say such things to you. I think he truly has
//forgotten what it is like to be a child.”
Коли гаргуйль з рідкого каменю відступив з їхнього шляху, і вони вдвох вийшли в
коридори Гоґвортсу, професорка Макґонеґел нарешті заговорила шепотом:

-- Мені неймовірно прикро, міс Ґрейнджер. Я не очікувала, що директор таке вам
казатиме. Гадаю, він справді забув, як це -- бути дитиною.

// 12058
//Hermione glanced back up to her and saw that Professor McGonagall looked like
//__she__ was about to burst into tears… only not really, but there was a
//tightness in her face that was like that.
Герміона поглянула на неї і побачила, що професорка Макґонеґел, видавалося,
__сама__ ледь не плакала... ну не зовсім, та її лице було схожим чином
напружене.

// 12059
//“If I want to be a hero too,” said Hermione, “if I’ve decided to be a hero too,
//is there anything __you__ can do to help?”
-- Якщо я теж хочу бути героєм, -- сказала Герміона, -- якщо я вирішу теж бути
героєм, чи можете __ви__ чимось допомогти?

// 12060
//Professor McGonagall rapidly shook her head, and said, “Miss Granger, I’m not
//sure the Headmaster is wrong about __that.__ You __are__ twelve.”
Професорка Макґонеґел різко похитала головою та сказала:

// hedrok: "You are twelve" копія у 069:12115
-- Міс Ґрейнджер, не думаю, що директор помиляється __у цьому__. Вам __дванадцять__.

// 12061
//“Okay,” said Hermione.
-- Гаразд, -- тільки й сказала Герміона.

// 12062
//They walked forward a bit.
Вони пройшли ще трохи далі.

// 12063
//“Excuse me,” said Hermione, “is it okay if I walk back to the Ravenclaw tower
//by myself? I’m sorry, it’s not your fault or anything, I just want to be by
//myself right now.”
-- Перепрошую, -- сказала Герміона, -- ви не проти, якщо я піду до рейвенкловської
вежі сама? Перепрошую, ви не винні, просто мені зараз хочеться побути на
самоті.

// 12064
//“Of course, Miss Granger,” said Professor McGonagall, her voice sounding a
//little hoarse, and Hermione heard her footsteps stop, and then turn around
//behind her.
-- Звісно, міс Ґрейнджер, -- сказала професорка Макґонеґел дещо сипло.

Тоді Герміона почула, як кроки професорки спинилися, а потім та пішла в іншому
напрямку.

// 12065
//Hermione Granger walked away.
Герміона Ґрейнджер пішла.

// 12066
//She climbed a flight of stairs, and then another, wondering if there was anyone
//else in Hogwarts who would give her a chance to be a hero. Professor Flitwick
//would say the same thing as Professor McGonagall, and even if he didn’t, he
//probably couldn’t help, Hermione didn’t know who __could__ help. Well,
//Professor Quirrell would come up with something clever if she used up enough
//Quirrell points, but she had a feeling that asking him would be a bad idea -
//that the Defense Professor couldn’t help anyone become the sort of hero that
//was worth becoming, and that he wouldn’t even understand the difference.
Вона піднялася на марш сходів, потім ще на один, і їй не йшло з голови питання:
хто в Гоґвортсі може дати їй можливість стати героєм. Професор Флитвік скаже те
ж саме, що й професорка Макґонеґел, та навіть якщо не скаже, він напевно не
зможе допомогти. Герміона не знала, хто __зможе__ допомогти. Ну, професор
Квірел може вигадати якийсь хитрий план, якщо вона використає достатньо балів
Квірела, та вона відчувала, що просити його не варто -- професор із захисту не
здатен допомогти комусь стати героєм, яким варто ставати, і сам він навіть не
збагне різниці.

// 12067
//She had almost gotten to the Ravenclaw tower when she saw the flash of gold.
Вона майже дійшла до рейвенкловської вежі, коли побачила спалах золота.
