// 12768
//== SA, The Sacred and the Mundane, Pt 8
== Розділ 73. ПС, Сакральне й прозаїчне, ч.8

// 12769
//__The red jet of fire took Hannah full in the face, flipping her
//end-over-heels and smacking her head straight into the stone wall, where her
//pale face seemed to linger for an instant, framed by flying strands of
//brown-golden hair, before she collapsed to the ground in a heap of robes, as
//the third and final volley of blazing green spirals brought down their foe’s
//Shield Charm.__
__Потік червоного полум'я вдарив Анні просто в обличчя, і вона беркицнулася
догори дриґом, при цьому міцно доклавшись головою просто до кам'яної стіни. Там
її бліде обличчя в оберемку з кількох пасмів темно-золотого волосся на мить
затрималося, а тоді дівчина поточилася й осіла на підлозі купкою шкільної
форми. Водночас третій і останній захід палаючих зеленим спіралей зняв захисні
чари їхнього супротивника.__

// 12770
//The March days marched by, filled with lectures and study and homework,
//breakfast and lunch and dinner.
Березень витрушував з лантуха березневі дні, наповненні лекціями, самостійним
навчанням і домашніми завданнями, а також сніданками, обідами й вечерями.

// 12771
//__The Gryffindor boy stared at the eight of them, tension in every line
//of his body’s frame, his face working soundlessly; and then his hands released
//their clenched grasp on the Slytherin boy’s lapels, and he walked away without
//anyone saying a word. (Well, Lavender almost said a word - her mouth was just
//opening in indignation, maybe because she hadn’t gotten a chance to declaim her
//speech - but luckily Hermione spotted it and made the gesture that meant SHUT
//UP.)__
__Хлопець з Ґрифіндору мовчки витріщався на їхню вісімку, напруга відчувалася в
усій його поставі; на його обличчі безгучно змінювали один одного вирази; а тоді
він розтиснув кулаки, в яких тримав лацкани слизеринця, і пішов, не
вимовивши ані слова. (Ну, Лаванда ледь чи не сказала пару слів -- її рот вже
розтулявся, щоб висловити обурення, можливо, через те, що їй досі не видалася
нагода виголосити свою промову, -- та, на щастя, Герміона це помітила й мовчки
дала їй знак "`ЗАМОВКНИ`".)__

// 12772
//Then there was sleeping, of course. You wouldn’t want to forget about sleeping
//just because it seemed so normal.
А ще, звісно, був сон. Не варто забувати про сон, навіть якщо він здається
чимось зовсім звичайним.

// 12773
//__“Innervate!” said the young voice of Susan Bones, and Hermione’s eyes
//flew open and her lips drew in air with a gasp, her lungs feeling heavy like
//there was a huge weight resting on her chest. Beside her, Hannah was already
//sitting up, holding her head in her hands and grimacing. Daphne had warned them
//that this would be a ‘hard’ fight, creating a certain trepidation in Hermione,
//and indeed in all of them. Except maybe Susan, who’d just shown up at the
//appointed meeting-time, and walked alongside them without speaking, and fought
//the seventh-year bully until she was the last girl standing. Maybe the
//Gryffindor had been reluctant to fight the last daughter of Bones, or maybe
//Susan had just gotten very lucky; at any rate, when Hermione had tried to sit
//up again, she’d realized that her chest had felt heavy because there was, in
//fact, a rather large body sprawled on top of her.__
// @ hedrok 'the last girl standing' гра слів з 'the last man standing'
-- __Інервація! -- проказав молодий голос Сьюзен Боунз, і очі Герміони одразу
розплющилися, губи з шумом втягнули повітря; легені почувалися обважнілими,
ніби в неї на грудях лежало щось важелезне. Поряд із нею Анна вже підводилася,
тримаючись за голову руками й кривлячись. Дафна попереджала була, що це буде
"`складна`" битва, що викликало в Герміони певну тривогу, та й в інших теж.
Окрім, мабуть, Сьюзен, яка просто прийшла в призначене місце в призначений час,
мовчки пройшла з ними весь шлях і билася з цькувальником-семикласником, аж доки
не лишилася останньою вцілілою воїтелькою. Може, ґрифіндорець не захотів битися з
останньою з роду Боунз, а може Сьюзен дуже-дуже пощастило; у будь-якому разі,
коли Герміона знову спробувала підвестися, вона зрозуміла, що на серці їй було
важко тому, що на грудях в неї було розпластане доволі велике тіло.__

// 12774
//And you wouldn’t want to forget about magic either, even if the actual moment
//of casting a spell only formed a very small part of your day. It was the whole
//point of Hogwarts, after all.
І про магію не варто забувати також, хоча власне наслання заклять не забирало
багато часу на день. Зрештою, в цьому і була вся сутність Гоґвортсу.

// 12775
//__“Okay, how about if we all ride around on skateboards?” said Lavender.
//“We could get places faster than walking. And we’d look really awesome on
//skateboards, Muggle artifacts may not be as fast as broomsticks but they look
//cooler - we should vote on it -”__
-- __Добре, а що як ми всі будемо пересуватися на скейтбордах? -- спитала Лаванда.
-- Це швидше, ніж пішки. І ми потрясно виглядатимемо. Маґлівські артефакти,
може, і не такі швидкі, як мітли, але виглядають крутецько -- проголосуймо...__


// 12776
//As for the remaining fractions of time, you would fill that according to your
//nature: gossip about upper-year romances, or books and study sessions.
Щодо жалюгідної решти часу, кожен був ладен заповнити її відповідно до своїх
схильностей: плітками про побачення старшокласників, книжками чи додатковими
заняттями.

// 12777
//__Hermione reached out a trembling hand to grasp her copy of __Hogwarts: A
//History __from where it had fallen, the ever-comforting book only a pace
//distant from where she herself had ended up on the floor, after the red-robed
//upper-year girl had “bumped” her into a wall. And then the older Gryffindor
//witch had walked away without a look back, only a whispered “Salazar’s -” and a
//word that hurt her more than anything the Slytherins said about mudbloods,
//‘mudblood’ was just a strange wizarding word but Hermione knew the word the
//Gryffindor had said. She couldn’t get used to it, she just couldn’t get used to
//being hated. It still hurt just as much every time it happened, and somehow it
//hurt even more coming from the Gryffindors who were __supposed __to be the
//good ones.__
__Герміона простягнула тремтячу руку й підняла свій примірник "`__Історії
Гоґвортсу__`" звідти, де він був упав; її вірний супутник лежав лише за крок від
місця, де вона сама грюкнулася об підлогу, після того, як старшокласниця в
червоній мантії гепнула нею об стіну. А тоді старша чарівниця з Ґрифіндору
пішла, і навіть не озирнулась, лише прошепотіла "`Салазарова...`" -- і слово, що
боліло Герміоні більше, ніж будь-що, що казали Слизеринці про бруднокровок.
Адже "`бруднокровка`" -- це просто дивне чаклунське слівце, а те, як назвала її
ґрифіндорка, -- о так, Герміона добре знала це слово. Вона ніяк не могла до
цього звикнути, ніяк не могла призвичаїтись до ненависті до себе. Їй це все ще
боліло, щоразу так само сильно, і навіть більше, коли ненависть ішла від
ґрифіндорців, що __мали б__ бути за наших.__

// 12778
//Harry had divided up eight of his soldiers among the other armies, as ordered;
//he’d voluntarily given up __two__ Chaotic Lieutenants, sending Dean Thomas
//to Dragon Army and then trading Seamus Finnigan to her for Blaise Zabini, who
//Harry had said was being “underutilized” in Sunshine. Lavender had elected to
//join most of SPHEW in Sunshine; Tracey had decided to stay with Chaos.
Гаррі, згідно з отриманим наказом, розподілив був вісім зі своїх солдат по інших
військах; він добровільно віддав __двох__ лейтенантів Хаосу, відправивши Діна
Томаса в Армію Драконів і продавши Шеймуса Фініґана за Блеза Забіні, бо
той, мовляв, не міг реалізувати свій потенціал у полку Сонечко. Лаванда
вирішила приєднатися до решти С.С.Р.А.Г.Ч. в "`Сонечку`"; Трейсі зволіла лишитися з
Хаосом.

// 12779
//__“So you can work your charms on General Potter?” said Lavender, as
//Hermione ignored both of them as hard as she could. “I’ve got to say, Traces, I
//think our Sunshine General has him pretty well sewn up by now - you’d have
//better luck convincing Hermione that the three of you should have one of those,
//you know, arrangements -”__
-- __То ти хочеш спробувати на генералі Поттері свої чари? -- запитала Лаванда,
тоді як Герміона робила все можливе, щоб не звертати уваги ані на неї, ані на
її співрозмовницю. -- Мушу сказати, Трейс, що, я гадаю, наша генерал Сонечка вже
свого не віддасть -- тобі краще спробувати переконати Герміону погодитись
на, знаєш, розділити його на двох...__

// 12780
//Nobody had figured out yet what Draco Malfoy was plotting.
Ніхто поки що не знав, які зловісні плани плекає Драко Мелфой.

// 12781
//__“Certain?” said Harry Potter, sounding rather reluctant. “You know a
//rationalist isn’t ever certain of anything, Hermione, not even that two and two
//make four. I can’t actually read Malfoy’s mind, and if I could, I couldn’t be
//certain he wasn’t a perfect Occlumens. All I can say is that based on what I’ve
//seen of Malfoy, it’s a lot more plausible than Daphne Greengrass thinks, that
//he actually is trying to show the Slytherins a better way. We should… we really
//should try to go along with that, Hermione.”__
-- __Впевнений? -- спитав Гаррі Поттер без ентузіазму. -- Ти ж знаєш, Герміоно,
раціоналіст ніколи ні в чому не може бути впевнений, навіть у тому, що два плюс
два дорівнює чотири. Я не можу взяти й прочитати Мелфоєві думки, а якби й міг,
нема підстави бути впевненим, що він не бездоганний блоколог. Я лише можу
сказати на підставі того, що я знаю про Мелфоя: значно імовірніше, ніж це
здається Дафні Ґрінґрас, що він справді намагається показати Слизерину інший,
кращий шлях. Нам варто... нам варто було б пристати на це, Герміоно.__

// 12782
//(Well, Harry seemed to think Draco Malfoy was a good guy. But then the trouble
//was that Harry also tended to trust people like Professor Quirrell.)
(Тож, видавалося, Гаррі вірив, що Драко Мелфой -- хороший хлопець. Проблема
полягала в тому, що Гаррі також був схильний довіряти таким людям, як професор
Квірел.)

***

// 12783
//“Professor Quirrell,” Harry said, “I’m worried about the hatred Slytherin House
//seems to be developing for Hermione Granger.”
-- Професоре Квірел, -- сказав Гаррі, -- мене непокоїть та ненависть, яку
викликає Герміона Ґрейнджер в гуртожитку Слизерин.

// 12784
//They were sitting in the Defense Professor’s office, Harry sitting far back
//from the teacher’s desk (and the sense of pending disaster was still
//noticeable, even then), the empty bookcase still framing Professor Quirrell’s
//balding head. The cup balanced on Harry’s thigh was filled with Professor
//Quirrell’s obscure, probably-expensive Chinese tea, and it said something about
//the way Harry had been thinking lately that he’d needed to make a conscious
//decision to drink it.
Вони сиділи в кабінеті професора з захисту, причому Гаррі сів якнайдалі від
вчительського столу (і все одно відчуття майбутньої катастрофи було помітним).
Позаду плішивої
голови професора Квірела -- та сама порожня книжкова полиця. Гаррі тримав на
коліні горнятко невідомого імовірно-дорогущого китайського чаю з запасів
професора Квірела. Гаррі-бо останнім часом думав, що йому слід прийняти свідоме
рішення скуштувати цей напій.

// 12785
//“And this concerns me for what reason?” said Professor Quirrell, sipping his
//tea.
-- І це мене стосується... яким чином? -- спитав професор Квірел, сьорбнувши
чайку.

// 12786
//“Yes, well,” said Harry, “I’m just going to ignore that - oh, stop that,
//Professor Quirrell, __you’ve __been plotting to restore Slytherin House’s
//reputation since at least the first Friday of this year.”
-- А, ну, -- відповів Гаррі, -- я це просто проігнорую -- ой, та годі вам,
професоре Квірел, це ж __ви__ плетете інтриги, щоб відновити репутацію
гуртожитку Слизерин, щонайменше з першої п'ятниці цього року.

// 12787
//There might have been a tiny crack of a smile, at the edges of those thin pale
//lips; and then again, there might not have been. “I think Slytherin’s House
//will do well enough in the end, Mr. Potter, regardless of the fate of one girl.
//But I do agree that the present outlook is not favorable for your little
//friend. The bullies of two Houses, many of them with powerful and
//well-connected families, see Miss Granger as a threat to their reputation and a
//shame to their pride. As powerful a motive as that is to hurt her, it pales
//compared to the raw envy of the Gryffindors, who see an outsider gaining the
//laurels of heroism which they have dreamed of since childhood.” Now the smile
//on Professor Quirrell’s lips was definite, though slight. “And then there are
//those of Slytherin House who hear that Salazar Slytherin’s ghost has abandoned
//them to favor a mudblood. I wonder if you can even conceive, Mr. Potter, of how
//such as they would react? Those who do not believe it would cheerfully kill
//Miss Granger for the insult. And as for those Slytherins who wonder deep down,
//in some quiet place within themselves, if it might perhaps be __true…
//__their inner panic is something scarcely to be contemplated.” Professor
//Quirrell sipped his tea equably. “When you are more experienced, Mr. Potter,
//you will see such consequences in advance of your plotting. As it stands, you
//are being ill-served by your willful ignorance of all human nature you deem
//unpleasant.”
Можливо, тими тонкими блідими вустами прослизнула тінь усмішки; а зрештою --
може й не прослизала.

-- Я гадаю, що з гуртожитком Слизерин все зрештою буде добре, містере Поттер,
незалежно від долі однієї дівчинки. Та я погоджуюсь, що поточні перспективи
вашої маленької подруги видаються кепськими. Цькувальники з двох гуртожитків,
і багато хто з них представляють могутні родини зі зв'язками, бачать у міс
Ґрейнджер загрозу своїй репутації та удар по своїх гордощах. Хай який це
сильний стимул зашкодити їй, та цей мотив блякне у порівнянні з
нічим не стриманою заздрістю з боку ґрифіндорців, які бачать, як лаври
героїв, про які вони мріяли були з дитинства, пожинає чужак, -- тепер посмішка,
хоч і слабка, чітко позначилася на губах професора Квірела. -- А ще є ті з
гуртожитку Слизерин, що почули, нібито привид Салазара Слизерина полишив їх
заради бруднокровки. Я не впевнений, чи здатні ви навіть уявити собі, містере
Поттер, як реагуватиме ця група? Ті, хто не вірить в таке, з радістю вбили б
міс Ґрейнджер за брудні інсинуації. А ті слизеринці, що десь у потаємному
кутку власного серця питають себе чи, либонь, це __правда__... Їхню внутрішню
паніку годі собі уявити, -- професор Квірел спокійно сьорбнув ще чаю. -- З
досвідом, містере Поттер, ви навчитеся бачити такі наслідки свого інтригування
завчасно. А зараз маєте результати того, що заплющуєте очі на всі людські риси,
що вам неприємні.

// 12788
//Harry sipped his own tea.
Гаррі й собі сьорбнув чаю.

// 12789
//“Ah…” said Harry. “Professor Quirrell… help?”
-- Е... -- сказав Гаррі. -- Професоре Квірел... рятуйте?

// 12790
//“I already offered Miss Granger my help,” said Professor Quirrell, “as soon as
//I foresaw what would develop. My student told me, in polite terms, to stay out
//of her business. Nor would she tell you anything different, I expect. As I have
//little to truly gain or lose in this matter, I hardly intend to press the
//point.” The Defense Professor shrugged, his teacup held steady in the
//exactly-right polite grip, so that the surface of the liquid did not even
//ripple as Professor Quirrell leaned back within his chair. “Do not worry too
//much, Mr. Potter. Emotions run high around Miss Granger, but she is in less
//danger than you might imagine. When you are older, you will learn that the
//first and foremost thing which any ordinary person does is nothing.”
-- Я вже пропонував міс Ґрейнджер свою допомогу, -- відказав професор Квірел,
-- щойно передбачив розвиток подій. Моя учениця, цілком чемно, попросила мене не
пхати носа в її справи. І вам вона, гадаю, скаже те саме. Позаяк я мало
що виграю{stress} чи втрачаю від цієї справи, я не маю наміру нав'язуватися, --
професор із захисту стенув плечима, тримаючи горнятко вивіреним ввічливим хватом,
так, що поверхня рідини навіть не захиталася, коли професор Квірел відкинувся на
спинку фотеля. -- Не хвилюйтеся так, містере Поттер. Атмосфера навколо міс
Ґрейнджер дуже напружена, але вона у меншій небезпеці, ніж вам здається.
З віком ви усвідомите: найперше, що робить будь-яка звичайна
людина, -- нічого.

***

// 12791
//The envelope which the Slytherin System had delivered to Daphne at lunch was
//unsigned, as always; the parchment within named a time and a place and said,
//simply, __“Hard.”__
Конверт, що було доставлено Дафні на обід через слизеринську пошту, був, як
завжди, анонімний; пергамент всередині зазначив час, місце й лише одну
примітку: "`складно`".

// 12792
//That wasn’t what had concerned Daphne. What had concerned Daphne was that
//Millicent didn’t seem to be looking in her or Tracey’s direction at lunch that
//day. She’d just stared straight ahead at her plate and eaten. Millicent had
//looked up just once that Daphne saw, in the direction of the Hufflepuff table,
//and then looked quickly back down again; though Daphne was too far away to see
//the expression on Millicent’s face, since Millicent had sat down far away from
//her and Tracey.
Але Дафну збентежило не це. Дафну збентежило, що Мілісент навіть не
поглянула в її напрямку за обідом того дня. Мілісент дивилася лише собі в
тарілку та їла. За той час, що Дафна за нею спостерігала, Мілісент підняла
погляд лише один раз, зиркнувши в напрямку гафелпафського столу, а тоді знову
опустила очі. Та Дафна сиділа задалеко, щоб побачити вираз обличчя Мілісент,
позаяк Мілісент сіла була дуже далеко від неї та Трейсі.

// 12793
//Daphne had thought about that during lunch, with a sick feeling in her stomach
//unlike anything she’d felt before, and which had caused her to stop eating
//halfway through her first plate.
Дафна розмірковувала про це за обідом, і всередині неї оселився такий собі
черв'ячок, якого вона ніколи раніше не відчувала, і через це вона припинила
їсти, не закінчивши й першої страви.

// 12794
//__What I See has to come to pass… it probably makes being eaten by
//Lethifolds look like a tea party…__
// hedrok: копія частини з 072:12732 та 072:12734
// Варіант Ольги:
//__Що я Бачу, то справджуєтся... Буди кинутою на поталу Смертефалдам порівняно з
//цим -- різдвяна вечірка...__
__Те, що я бачу, має справдитися... напевно бути зʼїденим смертефалдами
видаватиметься чайною вечіркою в порівнянні.__

// 12795
//It wasn’t any conscious decision that Daphne made, nothing like Slytherins were
//supposed to do, no weighing of the benefits to herself.
Це не було свідомим рішенням Дафни, жодного слизеринського modus operandi,
жодного зважування власних потенційних зисків...

// 12796
//Instead -
Натомість...

// 12797
//Daphne told Hannah and Susan and everyone, that her informant had warned her
//that the next bully was going to target Hufflepuffs in particular, and that the
//bully planned to risk the teachers’ wrath in order to __really __hurt
//either Hannah or Susan, like __seriously__, and the two of them needed to
//stay out of this one.
Дафна сказала Анні, Сьюзен та всім, що її інформатор попередив був, що
наступний цькувальник зосередиться зокрема на гафелпафцях, і що він ладний
ризикнути наразитися на вчительський гнів, щоб завдати __справжньої__ шкоди Анні
або Сьюзен, типу, __реально__, тому обидві вони мають цього разу не втручатися.

// 12798
//Hannah had agreed to stay out of it.
Анна погодилась була не втручатися.

// 12799
//Susan had -
Тоді як Сьюзен...

***

// 12800
//“__What are you doing here?__” yelled General Granger, though it was sort
//of a yell and a whisper at the same time.
-- __Що ти тут робиш?__ -- закричала генерал Ґрейнджер, хоча вирвалося в неї
щось середнє між криком і шепотом.

// 12801
//Susan’s round face didn’t change, like the Hufflepuff girl had suddenly
//developed the sort of experienced blankness that Daphne’s own Mother used. “Am
//I here, really?” Susan said calmly.
Кругле обличчя Сьюзен не змінилося, ніби гафелпафка раптово
навчилася кам'яному невиразу, що ним послуговувалася досвідчена мати Дафни.

-- Я що, справді тут? -- спокійно спитала Сьюзен.

// 12802
//“__You said you wouldn’t come!__”
-- __Ти сказала, що не прийдеш!__

// 12803
//“Did I say that?” said Susan. She flipped her wand casually in one hand,
//leaning against the stone wall of the corridor where they were waiting, her
//reddish-brown hair somehow arranging itself in perfect order against the yellow
//trim of her witch’s robes. “I wonder why. Maybe I didn’t want Hannah to get any
//strange ideas. Hufflepuff loyalty, you know.”
-- Я таке казала? -- відповіла Сьюзен. Мимохідь підкинувши паличку однією рукою,
вона сперлась о кам'яну стіну коридору, де вони чекали, -- її рудо-коричневе
волосся якимось чином встигло ідеально впорядкуватися над жовтим оберемком
чаклунської мантії. -- Чого це я. Мабуть, я не хотіла, щоб Анні спало на думку
теж прийти. Гафелпафська вірність, ну ви розумієте.

// 12804
//“If you don’t leave,” said the Sunshine General, “I’ll call a mission abort,
//and we’ll __all __go back to our study halls, Miss Bones!”
-- Якщо ти не підеш, -- сказала генерал Сонечка, -- Я змушена буду скасувати
місію, і ми __всі__ повернемося до наших віталень, міс Боунз!

// 12805
//“__Hey!__” said Lavender. “We didn’t vote on -”
-- __Гей!__ -- сказала Лаванда. -- Ми не голосували стосовно...

// 12806
//“That’s fine by me,” said Susan, who was keeping a steady gaze on the other end
//of the corridor where it merged into the tiled hallway where they’d been told
//to expect the bully. “I’ll just stay here myself, then.”
-- Мене це влаштовує, -- відказала Сьюзен, уважно пильнуючи інший кінець
коридору, де він зливався з холом, де їм сказано було очікувати на
цькувальника. -- Тоді я просто залишусь тут сама.

// 12807
//“Why -” said Daphne. Her heart was in her throat. __If I try to change
//it, if __anyone __tries to change it, really terrible, awful, no good,
//extremely bad things will happen. And then it’ll come to pass anyway… __“Why are
//you doing this?”
// hedrok: підкреслена копія з 072:12732
-- Чому... -- почала Дафна. Вона була геть перелякана. __Якщо я спробую його змінити,
якщо __будь-хто__ спробує його змінити, справді жахливі,
страхітливі, нехороші, надзвичайно погані речі стануться. А тоді воно все одно
справдиться...__ -- Навіщо ти це робиш?

// 12808
//“It’s not like me,” said Susan. “I know. But -” Susan shrugged. “People don’t
//always behave like themselves, you know.”
-- Це на мене не схоже, -- погодилася Сьюзен. -- Я знаю. Але... -- вона знизала
плечима. -- Люди не завжди поводяться схоже на себе, всяке буває.

// 12809
//They pleaded.
Вони благали.

// 12810
//They begged.
Вони молили.

// 12811
//Susan didn’t even say anything anymore, she just kept watching, waiting.
Сьюзен навіть не сказала більше нічого, лише дивилася й чекала.

// 12812
//Daphne was nearly crying, she kept wondering if she’d __caused __this, if
//trying to change Fate was making this happen __worse__ -
Дафна вже майже плакала, їй здавалося, що це все через __неї__, вона боялася, що
її спроби змінити долю зроблять все ще __гіршим__...

// 12813
//“Daphne,” said Hermione, her voice sounding much higher than usual, “go get a
//teacher. Run.”
-- Дафно, -- сказала Герміона, і голос її був дещо високий. -- іди й приведи
вчителя. Біжи.

// 12814
//Daphne spun on her heels and started to pelt down the other direction of the
//stony corridor, and then she realized, and she turned back to where all the
//other girls except Susan were watching her go, and Daphne, feeling like she was
//about to throw up, said, “I can’t…”
Дафна розвернулася на підборах та рвонула по коридору в протилежному напрямку, а
тоді зрозуміла, і повернулися туди, де решта дівчат, крім Сьюзен дивилися їй
услід, і, відчуваючи, що її зараз знудить, вона сказала:

-- Не можу...

// 12815
//“__What?__” said Hermione.
-- __Що?__ -- перепитала Герміона.

// 12816
//“I think it gets worse every time you try to fight it,” said Daphne. That was
//how it worked in plays, sometimes.
-- Я гадаю, щоразу, як намагаєшся цьому запобігти, стає лише гірше, -- відказала Дафна.
Принаймні, у п'єсах були такі правила, подеколи.

// 12817
//Hermione stared at her, and then Hermione said, “Padma.”
Герміона подивилася на неї важким поглядом, а тоді сказала:

-- Падмо.

// 12818
//The other Ravenclaw girl just tore right out of there without arguing. Daphne
//watched her go, knowing that Padma wasn’t as good a runner as her, and now
//wondering if maybe that would turn out to be the __only reason __why help
//would come too late…
Інша рейвенкловка прожогом кинулася звідти, вже без сперечань. Дафна дивилася
їй у спину, знаючи, що Падма бігає повільніше за неї, -- можливо, це стане __єдиною
причиною__ чому допомога прийде запізно...

// 12819
//“Bullies are here,” Susan said laconically. “Huh, they’ve got a hostage.”
-- Цькувальники вже тут, -- коротко зауважила Сьюзен. -- Гей, та в них є
заручник.

// 12820
//They all whirled, and looked, and saw -
Вони стрімко розвернулися, подивилися і побачили...

// 12821
//__Three __older bullies, Daphne’s eyes recognized Reese Belka who was a
//top lieutenant in one of the seventh-year armies, and Randolph Lee who was
//number two in the Hogwarts dueling club, and worst of all, Robert Jugson III,
//in his sixth year, whose father was almost certainly a Death Eater.
__Трьох__ старших цькувальників, з яких Дафна впізнала Різу Белку, яка була
найліпшим лейтенантом одного з військ сьомого класу, а також Рандольфа
Лі, який був номером другим в дуельному списку Гоґвортсу, і, гірш за все,
Роберта Джаґсона Третього, шестикласника, що його батько майже точно був
смертежером.

// 12822
//All three were surrounded by Shielding Charms, blue hazes that glowed beneath
//the surface in ribbons of other color and showed occasional faceting above,
//multi-layered shields like the three of them thought they were fighting serious
//duelists and had expended energy accordingly.
Всі троє були оточені захисними щитами, їхнє блакитне мерехтіння сяяло з-під
шару зі стрічок іншого кольору, наповерх цього деінде відблискувала
фасетчата поверхня -- багаторівневі щити -- ніби ця трійка планувала битися
із серйозними дуелянтами і розподілила енергію відповідно.

// 12823
//And behind them, bound and supported by glowing ropes, was Hannah Abbott. Her
//eyes were wide and panicked and her mouth was moving, though they couldn’t hear
//anything through the __Quietus __they’d put up earlier.
А позаду них, зв'язана і підвішена на сяючих мотузках, гойдалася Анна Ебот. Її
очі були широко розплющені й сповнені паніки; її рот рухався, проте вони нічого
не чули крізь "`__Квієтус__`", що наклали були раніше.

// 12824
//Then Jugson made an offhand gesture with his wand, and the glowing ropes flung
//Hannah at them, there was a small pop as Hannah’s body blew through the
//Quieting barrier, Susan’s wand was instantly pointing at Hannah and Susan’s
//voice muttered “__Wingardium Leviosa__” -
Тоді Джаґсон зробив легкий жест паличкою, і сяйливі мотузки жбурнули Анну просто
в них, почувся тихий ляск, коли тіло Анни пробило бар'єр Квієтуса. Паличка
Сьюзен миттєво спрямувалася на Анну, а голос Сьюзен пробурмотів "`__Вінґардіум
Левіоза__`"...


// 12825
//“__Run!__” screamed Hannah, as she was gently lowered to the ground.
-- __Тікайте!__ -- заволала Анна, коли вона обережно опустилася на землю.

// 12826
//But the corridor behind them and in front of them was now blocked with a
//glowing gray field, a barrier spell that Daphne didn’t recognize.
Але коридор позаду них, як і попереду, було тепер заблоковано мерехтливим сірим
полем -- якісь бар'єрні чари, не знайомі Дафні.

// 12827
//“Do I need to explain what this is about?” Lee said with false joviality. The
//seventh-year duelist was sporting a smile that didn’t reach his eyes. “Well,
//just in case, you little inconveniences, and that includes you Miss Greengrass,
//you’ve been quite enough trouble and you’ve told quite enough lies. We brought
//your little friend just to make sure everyone knew we got all of you - though I
//suppose the other Ravenclaw girl is hiding around a corner or clinging to the
//ceiling somewhere? Well, no matter. This is your -”
-- Чи треба пояснювати, про що тут ідеться? -- спитав Лі з награною
доброзичливістю. Дуелянт-семикласник посміхався, але його посмішка не сягала
його очей. -- Ну, та про всяк випадок: ви -- маленькі незручності, і це
стосується також і вас, міс Ґрінґрас, -- ви завдали достатньо клопоту і
нарозповідали забагато брехні. Ми привели сюди вашу маленьку подружку просто,
щоб всі знали -- ми перемогли усіх вас -- хоча, імовірно, інша рейвенкловка
ховається десь за рогом чи бовтається причеплена до стелі? Ну, менше з тим.
Настав вам час...

// 12828
//“Enough talk,” said Robert Jugson III, “time for pain,” and raised his wand.
//“__Cluthe!__”
-- Годі базікати, -- перервав Роберт Джаґсон Третій, -- Настав час болю, -- і
він підвів паличку. -- __Клате!__

// 12829
//Simultaneously Susan pointed her wand and said “__Prismatis!__” and a
//small rainbow sphere formed in midair almost instantly, the miniature barrier
//so condensed and bright that it stayed intact even as Jugson’s hex hit it and
//bounced off toward Belka, whose wand flashed to swat away the dark bolt; and
//then a moment later the many-colored blaze was gone.
//! brownian: Призматіс чи Прізматіс? — є різні варіанти:
//! hedrok: Має бути "Призматіс" усюди. Після зливання всіх PR від тебе
//!         виправлю заміною.
Одночасно свою паличку наставила на нього Сьюзен і сказала: "`__Призматіс!__`" -- і
ось уже в повітрі формується маленька райдужна сфера, мініатюрний бар'єр, такий
щільний і яскравий, що залишився неушкодженим, навіть коли закляття Джаґсона
вдарилося об нього й відскочило в напрямку Белки, чия паличка зблиснула, щоб
відбити чорну блискавку; а тоді за мить багатокольорове сяяння згасло.

// 12830
//Daphne’s eyes went wide for a moment; she’d never thought of using a Prismatic
//Sphere like __that __-
Очі Дафни на мить широко розплющилися; вона ніколи б не подумала використати
призматичну сферу __так__...

// 12831
//“Jugsy, honey?” said Belka. Her lips widened in a vicious smile. “I thought we
//discussed this. First we beat them, __then __we play.”
-- Джаґі, дорогенький? -- заговорила Белка. Її губи скривилися у мстивій
посмішці. -- Я гадала, ми це обговорювали. Спочатку ми їм наваляємо, а __тоді__
з ними розважимось.

// 12832
//“P-please,” said Hermione Granger in a faltering voice, “let them go - I, I, I
//promise I’ll -”
-- П-прошу, -- сказала Герміона Ґрейнджер, її голос зривався, -- відпустіть їх...
я, я, я, я обіцяю, я...

// 12833
//“Oh, really,” said Lee in an annoyed tone. “Are you about to offer to turn
//yourself over if we let the others go? We’ve got __all __of you, now.”
-- Ой, та годі, -- роздратовано перервав Лі. -- Що ти нам запропонуєш?
Здасися, якщо ми відпустимо інших? Ми вас __усіх__ і так спіймали.

// 12834
//Jugson smiled, then. “It could be funny,” said the sixth-year junior Death
//Eater, softly and with menace. “How about if you lick my shoes, mudblood, and
//__one __of your friends can go? Pick whichever one you like best, leave
//the others to get hurt.”
Тоді Джаґсон посміхнувся.

-- Це могло б бути весело, -- сказав юний смертежер з шостого класу
м'яким голосом, в якому відчувалася загроза. -- Як щодо того, щоб облизати мої
черевики, бруднокровко, і тоді __одна__ з твоїх подруг зможе піти? Обирай, хто
тобі більше подобається, а решту залиш на тортури.

// 12835
//“Nope,” said the young voice of Susan Bones, “not going to happen,” and with a
//blindingly fast motion the Hufflepuff girl leapt leftward just as a red
//stunbolt erupted from Belka’s wand, Daphne could hardly __see __the
//movement as Susan seemed to hit the corridor wall and then bounce off it like
//she was a rubber ball and her legs smashed into Jugson’s __face__, it
//didn’t go through the shield but the sixth-year went sprawling backward with
//the impact and Susan followed him downward and her foot stamped down on the
//boy’s wand arm, again being repelled by the shield, “__Elmekia!__” shouted
//Lee and Parvati shouted ”__Prismatis!__” and the rainbow wall formed but
//the fiery blue blast passed right through it like it wasn’t even there, the
//bolt missed Susan by inches, there was a whirlwind of motion that Daphne
//couldn’t follow during which Belka had her feet knocked out from under her, but
//the older witch just rolled back to a stand and then -
-- Ні, -- сказав молодий голос Сьюзен Боунз, -- не вийде.

// hedrok: @ Elmekia
Одним сліпуче-швидким рухом гафелпафка стрибнула ліворуч, за мить до того, як
червоний оглушувальний промінь вирвався з палички Белки. Дафна ледь
__побачила__ цей рух: здавалося, Сьюзен вдарилася об стіну коридору,
відскочила, як ґумовий м'ячик, і врізала ногами Джаґсону просто в __пику__.
Удар не пройшов крізь захисний щит, але шестикласника відкинуло назад силою
зіткнення, Сьюзен попрямувала за ним, наступила ногою на руку, що тримала
паличку -- і знову їй завадив щит. "`__Елмекіа!__`" -- закричав Лі, а Парваті
крикнула: "`__Прізматіс!__`", -- але багряно-блакитна блискавка пройшла крізь веселкову
стіну, ніби її там не було, і проминула повз Сьюзен в якомусь сантиметрі. У вирі
рухів після цього Дафна майже нічого не розгледіла, але Белка впала -- втім,
старша чаклунка просто прокотилася підлогою і знову звелася на ноги, і
ось...

// 12836
//Daphne saw it coming, and her lips started to mouth “__Pris-__” but it was
//already too late.
Дафна це передбачила, її губи почали вимовляти: "`__Пріз...__`" -- та було вже
запізно.

// 12837
//Three blasts of brilliance slammed into Susan at once, she had her wand raised
//as though she could counter them and there was a white flash as the hexes
//struck the magical wood, but then Susan’s legs convulsed and sent her flying
//into a corridor wall. Her head hit with a strange cracking sound, and then
//Susan fell down and lay motionless with her head at an odd-seeming angle, her
//wand still clutched in one outstretched hand.
Три сяйливі вибухи одночасно вдарили Сьюзен, її паличка була піднята, ніби
вона могла їм щось протиставити; білим спалахом прокляття зітнулися з магічним
деревом, і тоді ноги Сьюзен поточилися і вона полетіла в стіну коридору. Від
удару її голова видала якийсь химерний хрускіт, а тоді вона впала й
більше не рухалася; її голова лежала під якимось дивним кутом, а випростана
рука й далі стискала паличку.

// 12838
//There was a moment of frozen silence.
На мить запала цілковита тиша.

// 12839
//Parvati scrambled over to where Susan lay, pressed a thumb over the pulse point
//on Susan’s wrist, and then - then slowly, tremblingly, Parvati rose to her
//feet, her eyes huge -
Парваті підповзла туди, де лежала Сьюзен, притисла пальця, щоб визначити пульс на
зап'ястку, і тоді -- тоді повільно, із тремтінням, підвелася, її широко
розплющені очі...

// 12840
//“__Vitalis revelio__,” said Lee just as Parvati opened her mouth, and
//Susan’s body was surrounded by a warm red glow. Now the seventh-year boy really
//was grinning. “Probably just a broken collarbone, I’d say. Nice try, though.”
-- __Віталіс ревеліо__, -- сказав Лі, щойно Парваті відкрила рота, і тіло
Сьюзен оповило тепле червоне сяйво. Тепер семикласник справді вишкірився. --
Нічого страшного, хіба зламана ключиця, не більше. Втім, гарна спроба.

// 12841
//“Merlin, they __are __tricky,” said Jugson.
-- Мерліне, вони __непрості__, -- зауважив Джаґсон.

// 12842
//“You had me going for a second there, dearies.” The seventh-year girl wasn’t
//smiling at all.
-- Я ледь не спітніла, дорогенькі, -- семикласниця зовсім не посміхалася.

// 12843
//“__Tonare!__” screamed Daphne, raising her wand above her head and
//focusing harder than she ever had in her life. ”__Rava calvaria! Lucis
//-__”
-- __Тонаре!__ -- крикнула Дафна, піднявши паличку над головою і зосередившись,
як ніколи до того в житті. -- __Рава келваріа! Луціс...__

// 12844
//She didn’t even see the hex that got her.
Вона навіть не побачила закляття, яким її поцілили.

***

// 12845
//Hermione felt the jolt of Innervation bringing her awake, and out of some
//intuitive strategism she __didn’t __roll to her feet right away; it had
//been a completely hopeless battle and she didn’t know what she could do but
//some instinct told her that leaping to her feet wasn’t it.
Герміона відчула, як інервація різко повертає її до життя. З якихось
інтуїтивних причин вона __не__ перекотилася одразу на ноги; це ж була абсолютно
безнадійна битва, і вона не знала, що може вдіяти, та щось підказало їй, що
зірватися на рівні -- не варіант.

// 12846
//Just a crack, Hermione opened her eyes, and the thin rays of light that entered
//them showed Parvati backing away from all three bullies, the last girl standing
//that Hermione could see.
Герміона трошки підняла повіки, тоненькі промені світла проникли крізь вії, і
вона побачила, як Парваті відступає під тиском трьох цькувальників, остання з
дівчат, яка досі втрималася на ногах, як здалося Герміоні.

// 12847
//And her eyes also showed Tracey fallen not far away from her, and Hermione’s
//wand was still in her hand; and so, desperately hoping the Slytherin girl would
//show more sense than she usually did, Hermione made the wand movements as
//subtly as she could, and hardly moving her lips, whispered, “Innervate.”
Вона побачила також Трейсі, що впала була неподалік від неї; паличку Герміона
досі тримала в руці; тож, відчайдушно сподіваючись, що слизеринка продемонструє
на дрібку більше здорового ґлузду, ніж зазвичай, Герміона зробила обережний
пас і ледь поворушила губами: "`Іннервація`".

// 12848
//Hermione felt the spell working, but Tracey didn’t move. Hermione hoped it was
//because Tracey was being cunning, and waiting to…
Герміона відчула, що закляття спрацювало, але Трейсі не поворухнулася. Герміона
сподівалася, що це тому, що Трейсі поводиться хитро і чекає на...

// 12849
//What __could __they do?
На що? __Що__ вони могли вдіяти?

// 12850
//Hermione didn’t know, and the panic that had waited through the moments of
//fighting was starting to eat her up inside now that she was still, now that she
//was trying to think, now that she could see that it was all absolutely
//hopeless.
Герміона не знала, і паніка, що принишкла була під час запеклого бою, тепер,
коли вона лежала нерухомо, тепер, коли вона намагалася думати, тепер, коли вона
зрозуміла, що справа їхня абсолютно безнадійна, -- тепер вона почала гризти
Герміону зсередини.

// 12851
//That was when Hermione heard a thud, and though it was out of her field of
//vision now, she knew that Parvati had fallen.
Саме тоді Герміона почула глухий удар, і, хоч з її позиції не могла це бачити,
вона зрозуміла, що Парваті пала в бою.

// 12852
//A moment of silence came, and passed.
Запала мить тиші, і минула.


// 12853
//“Now what?” said the voice of the scary-soft boy.
-- Що тепер? -- почувся голос м'яко-загрозливого хлопця.

// 12854
//“Now we wake up the mudblood,” said the precise voice of the scary-formal boy,
//“and find out who’s __really __behind them, not Salazar Slytherin’s
//ghost.”
-- Тепер розбудімо бруднокровку, -- відповів чемний голос
страхітливо-офіційного хлопця, -- і дізнаймося в неї, хто __насправді__ стоїть
за ними, хто -- а не привид Салазара Слизерина.

// 12855
//“No, dears,” said the voice of the scary-sweet girl, “__first __we bind
//them all __very __securely -”
-- Ні, дорогесенькі, -- заперечив голос жахливо-милої дівчини, --
__спочатку__ ми їх зв'яжемо __дуже__ ретельненько...

// 12856
//And then there was a sound like lightning and thunder and Hermione’s eyes
//widened in shock before she could stop herself, and in her widened field of
//vision she saw the scary-soft boy convulsing as yellow arcs of energy crawled
//over him like giant blazing worms. His wand flew out of his hand as he
//collapsed to the ground, twitching, and then a moment later he lay still.
А тоді пролунав гуркіт, ніби громовиця, і очі Герміони широко розплющились від
шоку, перш ніж вона встигла стриматися. В її розширеному полі зору бився в
конвульсіях
м'яко-загрозливий хлопець, жовті арки енергії обплутували його, наче
гігантські палаючі хробаки. Паличка вилетіла йому з руки, коли він впав був на
підлогу, смикаючись, а за мить він вже лежав нерухомо.

// 12857
//“Is everyone else asleep now?” said a voice. “Good.”
-- Зараз всі сплять? -- спитав якийсь голос. -- Добре.

// 12858
//Susan Bones rose from the floor near where the scary-soft boy had stood, neck
//still oddly bent. Then she rolled her head around her shoulders, a casual loose
//motion, and her head was straight again.
Сьюзен Боунз підвелася з підлоги там, де стояв був м'яко-загрозливий хлопець, --
її шия досі були химерно зігнута. Тоді вона повертіла головою, такий собі
повсякденний рух, і голова встала на місце.

// 12859
//The round-faced first-year girl stood facing the remaining two bullies with one
//hand cocked on her hip.
Круглолиця першокласниця стояла перед двома цькувальниками, уперши руки в боки.

// 12860
//Grinning.
Широко всміхалася.

// 12861
//And surrounded by faceted blue haze.
Захищена фасетчатим блакитним мерехтінням.

// 12862
//“Polyjuice!” spat the bully-girl.
-- Багатозільна настійка! -- сплюнула цькувальниця.

// 12863
//“__Polyfluis Reverso!__” roared the remaining boy bully.
-- __Багатозіліус Реверсо!__ -- прогримів той цькувальник, що лишився на ногах.

// 12864
//Something like the form of a mirrored scarf spat out of his wand -
Щось схоже на дзеркальний шалик вирвалося з його палички...

// 12865
//Passed without resistance through the haze surrounding Susan -
Не зустрівши спротиву пройшло крізь мерехтіння, що оточувало Сьюзен...

// 12866
//For an instant, she glowed in a strange mirror-color, like a reflection of
//herself -
На мить, вона засяяло дивним віддзеркаленим світлом, як віддзеркалення самої
себе...

// 12867
//And then the glow faded.
А тоді сяяння згасло.

// 12868
//The young girl still stood there, hand on her hip.
Юна дівчина досі стояла там, досі -- уперши руки в боки.

// 12869
//“Wrong,” said Susan.
-- Помилочка, -- сказала Сьюзен.

// 12870
//“And __this __is the truth,” said Susan. “In case nobody ever told you -”
-- А __ось__ вам правда, -- сказала Сьюзен. -- Раптом вас не попереджали...

// 12871
//In her small hand a wand rose up, blurred by the blue haze surrounding it.
Її маленька рука підвела паличку -- вид був дещо розмитий через блакитний
захисний екран.

// 12872
//“You don’t mess with the ‘Puffs,” said Susan, and with a grey flash so bright
//it hurt Hermione’s half-closed eyes, the real battle started.
-- Не займайте пафів, -- сказала Сьюзен, і з сірого спалаху -- такого
яскравого, що Герміоні заболіли її напівприкриті очі, -- почалася справжня
бійка.

// 12873
//It went on for a while.
Вона тривала деякий час.

// 12874
//Some of the ceiling got melted.
Якась частина стелі оплавилася.

// 12875
//The girl-bully tried to cry a truce, that they would leave and take Jugson with
//them, and Susan roared out the syllables of a curse Hermione recognized as
//Abi-Dalzim’s Horrid Wilting which was illegal in seven countries.
// hedrok: @ Abi-Dalzim's Horrid Wilting DnD
Дівчина-цькувальник спробувала благати про помилування, обіцяла, що вони підуть і
візьмуть із собою Джаґсона, але Сьюзен проревіла прокляття, яке Герміона
впізнала, -- це було закляття "`страхітливий параліч Абі-Делзіма`",
заборонене законом у сімох країнах.

// 12876
//Eventually the girl-bully lay unconscious and unawakenable on the ground, and
//the last boy-bully had fled leaving his companions’ bodies behind, and Susan
//was leaned over against one wall, covered in sweat and her scorched robes
//soaked through with wet spots, gasping for breath, and clutching at her right
//shoulder using her left hand.
Зрештою, цькувальниця непритомною непорушно лежала на
підлозі, а останній цькувальник накивав п'ятами, полишивши тіла своїх
друзяк позаду, а Сьюзен знову сперлася об стіну, вся спітніла, в обпаленій
мантії, вся в якихось вогких плямах. Вона хапала ротом повітря, вчепившись
лівою рукою у праве плече.

// 12877
//After a while Susan straightened up, and turned to look back at where her
//fellow witches were sleeping on the floor.
За деякий час Сьюзен випростувалася, і звернула погляд туди, де її
подруги-чарівниці спали на підлозі.

// 12878
//Well, they __should’ve __been sleeping on the floor.
Ну, туди, де вони __мали б__ спати на підлозі.

// 12879
//Lavender was already sitting up with eyes as wide as watermelons.
Лаванда вже сіла, її очі, як два кавуни.

// 12880
//“That…” said Lavender.
-- Що за... -- почала Лаванда.

// 12881
//“Was…” said Tracey.
-- Це... -- сказала Трейсі.

// 12882
//“__What?__” said Hermione.
-- __Що за?__ -- сказала Герміона.

// 12883
//“I mean,__ what?__” said Parvati.
-- Я хочу сказати, __що за?__ -- сказала Парваті.

// 12884
//“__Cool!__” said Lavender.
-- __Круто!__ -- сказала Лаванда.

// 12885
//“Oh, hell,” said Susan Bones. Her face had already looked a little pale beneath
//the sweat, and now it was getting paler, looking almost frighteningly white.
//“Ah… could I convince you that you hallucinated all that?”
-- От дідько, -- сказала Сьюзен Боунз. Її обличчя вже до того було дещо бліде
під шаром поту, а тепер ставало дедалі блідішим, майже лячно білим. -- Ааа...
чи не вдасться либонь мені вас переконати, що вам це все привиділося?

// 12886
//There was a rapid exchange of glances. Hermione looked at Parvati, Parvati
//looked at Lavender, Lavender briefly locked gazes with Tracey.
Дівчата швидко обмінялися поглядами. Герміона подивилася на Парваті, Парваті --
на Лаванду, Лаванда ненадовго зітнулася очима з Трейсі.

// 12887
//The four of them looked back at Susan and shook their heads.
Всі четверо подивилися назад на Сьюзен і заперечно замотали головами.

// 12888
//“Oh, hell,” said Susan again. “Look I’ll be back in a few minutes but I’ve
//really got to go now __please __don’t say anything bye!”
-- От дідько, -- повторилася Сьюзен. -- Слухайте, я повернусь за декілька
хвилин, але мені дійсно треба йти, __будь ласка__, не кажіть нікому нічого,
па-па!

// 12889
//And Susan ran out into the hallway, moving surprisingly fast, before anyone
//could say another word.
І Сьюзен вибігла з холу, рухаючись напрочуд швидко, перш ніж хтось встиг бодай
слово вимовити.

// 12890
//“No, seriously, __what?__” said Parvati.
-- Ні, серйозно, __що__? -- сказала Парваті.

// 12891
//“__Innervate__,” said Hermione, pointing her wand at Daphne, whose body
//she hadn’t been able to see before; and Lavender pointed her wand at Hannah’s
//body and said the same.
-- __Інервація__, -- сказала Герміона, направивши паличку на Дафну, тіло якої
вони до того не бачили; Лаванда направила свою паличку на Анну й зробила те
саме.

// 12892
//Hannah’s eyes opened and she tried frantically to roll to her feet, but
//collapsed to the ground halfway through.
Анна розплющила очі й відчайдушно кинулася підводитися, проте напівдорозі
поточилася і впала назад.

// 12893
//“It’s okay, Hannah!” said Lavender. “We won.”
-- Все добре, Анно! -- сказала Лаванда. -- Ми перемогли.

// 12894
//“We __what?__” said Hannah from her little heap on the floor.
-- Ми __що__? -- обурилася Анна, що лежала маленькою грудкою на підлозі.

// 12895
//Daphne hadn’t stirred, but Hermione could see her chest rising and falling, and
//the breathing rhythm looked normal enough. “I think she’s okay,” said Hermione,
//“but -” She took a moment to swallow, her mouth was still dry. This had all
//gotten way, way, __way __out of hand. “I think we ought to take Daphne to
//Madam Pomfrey’s…”
Дафна не ворушилася, але Герміона побачила, що її грудна клітина здіймається й
опускається, і ритм дихання нібито нормальний.

-- Я гадаю, вона в порядку, -- сказала Герміона, -- але... Їй знадобилася
секунда щоб ковтнула слину -- в роті пересохло. Все це зайшло надто, надто,
__надто__ далеко. -- Я гадаю, ми маємо відвести Дафну до мадам Помфрі...

// 12896
//“Sure, sure, just __give me a second here __and I’ll __probably be
//fine__,” said Parvati.
-- Звісно, звісно, лише __дайте мені секундочку__, і я, __мабуть, буду в нормі__,
-- сказала Парваті.

// 12897
//“Ex__cuse__ me,” Hannah said in a tone that was polite, but firm. “How did
//we win? And why does the ceiling look all melty?”
-- Я пере__про__шую, -- озвалася Анна чемно, але твердо. -- Як саме ми
перемогли? І чому зі стелі крапає?

// 12898
//There was a pause.
Повисла пауза.

// 12899
//“Susan did it,” said Tracey.
-- Це все Сьюзен, -- сказала Трейсі.

// 12900
//“Yeah,” said Parvati, voice only slightly shaky as she stood up and started to
//brush off her red-trimmed robes, “it turns out that Susan Bones is the Heir of
//Hufflepuff and she’s opened up the long-lost entrance to Helga Hufflepuff’s
//Chamber of Hard Work and Practice.”
-- Еге ж, -- сказала Парваті, її голос лише зовсім трохи тремтів. Вона встала і
тепер намагалася привести до ладу свою мантію з червоним оберемком, --
виявляється, Сьюзен Боунз -- спадкоємиця Гафелпаф, і вона впоралася знайти давно
загублений вхід до кімнати Старанної Праці й Тренування Гельґи Гафелпаф.

// 12901
//“__Huh?__” said Hannah, who was feeling over herself as if to make sure
//all her body parts were still there. “I thought that was just something
//Professor Sprout says to teach us an Important Moral Lesson - __Susan
//__is?”
-- __Га?__ -- перепитала Анна, що обмацувала себе, щоб упевнитися -- всі
частини тіла на місці. -- Я гадала, що це професорка Спраут намагалася дати нам
Цінний Повчальний урок... __Сьюзен__?

// 12902
//Slowly, Hermione was beginning to feel a bit more together. It hadn’t really
//been more than thirty seconds of extreme terror, at least not the parts she’d
//been conscious for. “Actually,” Hermione said carefully, as her mind started to
//work again, “I’m pretty sure that __is __just something Professor Sprout
//says, it wasn’t in __Hogwarts: A History__ or anywhere else I’ve read -”
Поступово Герміона приходила до тями. Все це тривало не більше тридцяти секунд
цілковитого жаху, принаймні, того часу, що вона була притомна.

-- Насправді, -- обережно сказала Герміона, коли її мізки знову запрацювали, --
я майже впевнена, що це таки лише оповідки професорки Спраут, цього не було ані
в "`Історії Гоґвортсу`", ані в жодній іншій книзі...

// 12903
//“__She’s a double witch!__” shouted Tracey, her voice so high it cracked.
//“She__ is!__ She’s one of __them!__ She’s been this whole time!”
-- __Вона подвійна відьма!__ -- заверещала Трейсі, її голос майже зривався на
писк. -- Так, __вона__! Вона одна з __них__! Увесь цей час була!

// 12904
//“__What?__” yelled Parvati, twisting around to look at Tracey. “That is
//the __looniest __thing -”
-- __Що?__ -- зойкнула Парваті, обернувшись навколо себе, щоб подивитись на
Трейсі. -- Це __найдурніше__, що...

// 12905
//“Of __course!__” said Lavender, now all the way on her feet and starting
//to bounce up and down with excitement. “I should’ve__ realized!__”
-- Ну __звісно__! -- сказала Лаванда, вона вже стояла на ногах і навіть
підстрибувала від збудження. -- Я мала __здогадатися__!

// 12906
//“Susan’s a __what?__” said Hermione.
-- Сьюзен __що__? -- спитала Герміона.

// 12907
//“A __double __witch!” said Tracey.
-- __Подвійна__ відьма! -- відповіла Трейсі.

// 12908
//“You see,” said Lavender, speaking very rapidly, “There’ve always been stories,
//about these children who are born as super magicians who can cast spells no one
//else can, and there’s a whole secret school hidden inside Hogwarts with classes
//that only they can see and go to -”
-- Розумієш, -- заторохтіла Лаванда, -- завжди ходили ці історії, про цих
дітей, що народилися суперчарівниками і вміли насилати закляття, які більше ніхто
не міг, і про цілу таємну школу, що прихована десь у Гоґвортсі, з класами й
таким іншим, що їх лише ті діти можуть бачити й відвідувати...

// 12909
//“Those are just __stories!__” yelled Parvati. “That’s not how real life
//works! I mean, sure, I read those books too -”
-- Це лише __байки__! -- заволала Парваті. -- У реальному житті такого не
буває! Себто, так, звісно, я теж читала всі ці книжки...

// 12910
//“Just a minute, please,” said Hermione. Maybe her mind __was __feeling a
//little slow after all. “You mean even though you __already __get to go to
//a magical school and everything, you still want to go to a __double
//__magical school?”
-- Одну секундочку, будь ласка, -- попросила Герміона. Мабуть, вона таки
__не зовсім__ відійшла. -- Ви хочете сказати, що, хоча ви __вже__
потрапили в чарівницьку школу і все таке, ви все одно мрієте потрапити до
__подвійної__ чарівницької школи?

// 12911
//Lavender looked at her, puzzled. “What?” said Lavender. “Who __wouldn’t
//__want to have super extra magical powers? It would be like this whole amazing
//__destiny__ and everything! It’d mean you were __special!__”
Лаванда подивилася на неї спантеличено.

-- А що? -- сказала Лаванда. -- А __хто__ б не хотів отримати екстра-супер магічні
здібності? Це було б ніби __призначення__ і все таке інше! Це б означало, що ми
__особливі__!


// 12912
//Hannah nodded to that, looking up from where she’d crawled to Daphne’s side and
//was checking the girl for broken bones. “I wish __I__ was a double witch,”
//Hannah said, and then, sounding a little sadder, “though I don’t believe there
//is any such thing, really… what did you see Susan do, exactly? I mean, are you
//sure you weren’t just seeing things after getting stunned?”
Анна згідно кивнула, дивлячись на них знизу вгору, -- вона підповзла була до Дафни й
перевіряла, чи цілі в неї кістки.

-- __Я__ б хотіла були подвійною відьмою, -- сказала Анна, і додала, трошки
сумно, -- хоча я не вірю, що таке насправді існує... що конкретно Сьюзен
робила, хто бачив? Я хочу сказати, ви впевнені, що вам це все не привиділося
після оглушення?

// 12913
//Hermione truly, truly couldn’t find any words at this point.
Герміона вже ніяк, ніяк не могла це все прокоментувати.

// 12914
//“Oh, no,” said Tracey. The Slytherin girl spun around to look at the entrance
//to the corridor, her robes fluttering around her. “Oh no! We’ve got to get out
//of here! We’ve got to get away before Susan comes back with someone who can
//Super-Memory-Charm us!”
-- О ні, -- простогнала Трейсі. Слизеринка стрімко розвернулася, щоб подивитися на вхід
у коридор, її мантія закрутилася в повітрі. -- О ні! Нам треба забиратися
звідси! Ми маємо піти, доки Сьюзен не повернулася з кимось, хто зможе суперзабуттятнути нас!

// 12915
//“Susan wouldn’t __do __that!” said Parvati. “I mean, if there even
//__was __-”
-- Сьюзен не __вчинить__ так з нами! -- заперечила Парваті. -- Я хочу сказати,
навіть якби дійсно __існувала__...

// 12916
//“WHAT’S GOING ON HERE?” roared a high-pitched squeaky voice, as Professor
//Flitwick stormed into the partially melted corridor like a small, dangerously
//compressed package of pure academic fury, an ashen-faced Padma gasping along
//behind him.
-- ЩО ТУТ КОЇТЬСЯ? -- проревів високий писклявий голос професора Флитвіка, який
увірвався у частково оплавлений коридор як маленький, небезпечно щільний
згусток чистої академічної люті. За ним, задихаючись, трюхикала сполотніла
Падма.

***

// 12917
//“What__ happened?__” Susan blurted to the girl who looked exactly like
//her, except for the scorched robes damp with sweat.
-- __Що__ трапилось? -- кинула Сьюзен у напрямку дівчини, що була викапана вона
сама, за винятком попаленої, вогкої від поту мантії.

// 12918
//“Ooh, great question!” said the other Susan Bones as she rapidly skinned off
//what was left of her borrowed clothes. A moment later the girl began to
//Metamorphose back into her more accustomed form of Nymphadora Tonks. “Sorry but
//I couldn’t think of anything myself so you’ve got about three minutes to decide
//on an answer to that -”
-- Оо, чудове питання! -- сказала інша Сьюзен Боунз, швидко здираючи з себе
рештки позиченого одягу. Секундою пізніше вона почала метаморфуватися назад,
у більш звичну подобу Німфадори Тонкс. -- Вибач, але сама
я нічого не придумала, тож у тебе приблизно три хвилини, щоб вигадати
відповідь...

***

// 12919
//As Daphne Greengrass observed afterward with some acidity, the flaw in
//Hermione’s cunning plan to make sure that House points were taken evenly from
//all four Houses if they got caught, was that it didn’t work on
//__detentions__.
Як потім уїдливо зазначила Дафна Ґрінґрас, головний недолік хитрого плану
Герміони, згідно якого очки знімуть однаково з кожного гуртожитку, полягав у
тому, що це не стосувалося __покарань__.

// 12920
//They’d all agreed to keep their mouths shut about Susan’s mysterious powers -
//even Tracey, after Susan threatened to have her Super-Memory-Charmed if she
//didn’t promise. Unfortunately, they discovered at dinnertime that someone had
//forgotten to tell the __bullies __about their agreement, and also that
//Susan Bones had sacrificed her soul to dreadful forbidden powers which now
//inhabited the hulk of her body and that was why they’d all gotten detention.
Вони всі домовилися не патякати про загадкові сили Сьюзен -- навіть Трейсі,
після того, як Сьюзен сказала, що суперзабуттятне її, якщо та не згодиться. На
жаль, за обідом вони дізналися, що хтось забув попередити __цькувальників__ про
цю домовленість, а також -- що Сьюзен принесла свою душу в жертву жахливим
забороненим силам, які тепер жили в її тілесній оболонці, і ось тому всі вони й
отримали покарання.

// 12921
//“Hermione?” Harry Potter said to her from beside her at the dinner table, his
//voice very tentative. “Please don’t take offense, and I’ll understand if you
//say it’s none of my business, but I think all this is starting to spin out of
//control.”
-- Герміоно? -- озвався до неї Гаррі Поттер, який сидів поряд за обіднім
столом, -- дуже обережно озвався. -- Будь ласка, не ображайся, і я зрозумію,
якщо ти скажеш, що це не моя справа, але я гадаю, що все це починає виходити
з-під контролю.

// 12922
//Hermione went on mashing the slice of chocolate cake on her plate into a
//seamless mush of cake and icing. “Yes,” Hermione said, her voice might have
//been a little acerbic, “that was what I said to Professor Flitwick while I was
//apologizing to him, that I knew things had gotten out of hand, and he yelled:
//__Really, Miss Granger? Do you think? __in a squeak so loud that my ears
//caught on fire. I mean my ears __actually caught on fire__. Professor
//Flitwick had to put them out again.”
Герміона продовжила м'яти шоколадний торт на своїй тарілці, довівши його до
стану пюре з власне торту і глазурування.

-- Так, -- сказала вона, і її голос міг бути трохи зарізким, -- саме це я й
сказала професорові Флитвіку, коли приносила йому свої вибачення, що я знаю, що
все це вийшло з-під контролю, а він такий заверещав: "`__Та ну, міс Ґрейнджер,
вам справді так здається?__`" -- на такій писклявій ноті, що мої вуха зайнялись
вогнем. Себто, __справді зайнялись вогнем__. Професорові Флитвіку довелося
знову їх гасити.

// 12923
//Harry had put his hand to his forehead. “Excuse me,” Harry said. His face was
//perfectly straight. “Sometimes I still have a little trouble getting used to
//that sort of thing. Hey, Hermione, remember when we were young and naive and we
//still thought the world was a relatively understandable place?”
Гаррі поклав руку собі на чоло.

-- Вибач, -- сказав Гаррі з кам'яним обличчям. -- Іноді мені ще буває складно
призвичаїтись до таких речей. Гей, Герміоно, а пам'ятаєш, коли ми ще були юні
та наївні, і гадали, що світ -- це відносно зрозуміле місце?

// 12924
//Hermione put her fork down and looked at him for a moment. “Do you sometimes
//wish you were a Muggle, Harry?”
Герміона опустила виделку і якусь мить дивилася на нього.

-- Тобі іноді хочеться бути просто маґлом, Гаррі?

// 12925
//“__Huh?__” said Harry. “Well, of course not! I mean, even if I was a
//Muggle, I’d probably have tried someday to take over the worrrrlllll-” as
//Hermione gave him a __look __and the boy hastily swallowed the word and
//said, “I mean __optimize__ of course, you __know __that’s what I
//really mean, Hermione! My point is, it’s not like my __goals __would
//change one way or another. But with magic it’s going to be a lot easier to get
//things done than if I had to do stuff using only the Muggle capability set. If
//you think about it logically, that’s __why __I’m going to Hogwarts instead
//of just ignoring all this and studying for a career in nanotechnology.”
-- __Га?__ -- перепитав Гаррі. -- Ну звісно ж ні! Я хочу сказати, навіть якби
я був маґлом, одного дня я все одно б спробував підкорити сві... -- тут
Герміона __подивилася__ на нього, і хлопчик поквапом проковтнув останнє слово і
сказав, -- я хотів сказати, __оптимізувати__, звісно, ти ж __знаєш__, що я маю
на увазі, Герміоно! Це я до того, що навряд чи б мої __цілі__ якось змінилися
б. Проте з магією я значно ближчий до своєї мети, ніж якби мені доводилося
обмежитися набором здібностей маґлів. Якщо піти за логікою, саме __тому__ я й
вчуся в Гоґвортсі замість того, щоб не зважати на нього й розбудовувати кар'єру в
нанотехнологіях.

// 12926
//Hermione, having finished hand-crafting her Chocolate Cake Sauce, began to dip
//her carrots in it and eat them.
Герміона, покінчивши з приготуванням свого авторського шоколаднотортового
соусу, почала вмочувати туди морквинки й гризти їх.

// 12927
//“Why do you ask?” said Harry. “Do __you __wish you were back in the Muggle
//world?”
-- Чому ти питаєш? -- сказав Гаррі. -- Хіба __тобі__ хочеться назад у
маґлівський світ?

// 12928
//“Not exactly,” Hermione said, as she crunched into both the carrot and the
//chocolate. “I was just, well, feeling strange about having __wanted __to
//be a witch… Did you want to be a wizard when you were little?”
-- Не зовсім, -- сказала Герміона, хрумкаючи одночасно морквою й шоколадом.
-- Мені просто було якось химерно, що мені взагалі __захотілося__ бути
чарівницею... Ти хотів бути чаклуном, коли був маленький?

// 12929
//“Of course,” Harry said promptly. “I also wanted psychic powers and
//super-strength and adamantium-reinforced bones and my own flying castle and
//sometimes I felt sad that I might have to settle for just being a famous
//scientist and an astronaut.”
-- Звісно, -- швидко сказав Гаррі. -- А ще я хотів мати здібності до
телекінезу, суперсилу, покриті адамантієм кістки, власну летючу фортецю, а іноді мені
було сумно, бо відчував -- можливо, доведеться обмежитися долею славетного
науковця й астронавта.

// 12930
//Hermione nodded. “You know,” she said softly, “I think the witches and wizards
//who __grow up __here don’t really appreciate magic properly…”
Герміона кивнула.

-- Знаєш, -- тихо промовила вона, -- Я гадаю, що відьми і чарівники, що
__ростуть__ тут, насправді не цінують магію належною мірою...

// 12931
//“Well, of course they don’t,” Harry said, “that’s what gives us our advantage.
//Isn’t that obvious? I mean seriously, that was bloody obvious to me within five
//minutes of walking into Diagon Alley.” There was a puzzled look on the boy’s
//face, like he couldn’t understand why she was paying attention to something so
//ordinary.
-- Ну звісно що не цінують, -- сказав Гаррі, -- ось чому ми маємо перевагу.
Хіба це не очевидно? Тобто, серйозно, це стало мені абсолютно очевидно протягом перших
п'яти хвилин на алеї Діаґон. -- На обличчі хлопця застиг спантеличений вираз,
ніби він ніяк не міг второпати, чому вона приділяє увагу такій банальності.
