// 15058
//== Taboo Tradeoffs, Aftermath 3, Distance
== Розділ 85. Неприпустимі поступки, Наслідок 3, відстань

// 15059
//__This chapter received a major, significiant revision on December 16th,
//2012. The main revision starts about halfway through - search on the word
//“trivial” to find it.__
// hedrok: гадаю, якщо хтось читає переклад, йому це не надто цікаво...
//__Цей розділ зазнав значної трансформації 16 грудня 2012 року. Головні зміни
//чигають на вас від середини тексту, ключове слово -- "тривіальний".__

//***

// 15060
//Slow and hard, the long stairway that led to the peak of Ravenclaw. From the
//inside, the stairway seemed like a straight upward slope, though from the
//outside you could see that it logically had to be a spiral. You could only get
//to the top of the Ravenclaw tower by making that long climb without shortcuts,
//stone step by stone step; passing beneath Harry’s shoes, pushed down by his
//wearying legs.
Піднятися на верхівку рейвенкловської вежі можна було повільно і складно,
довжелезними сходами. Зсередини ці сходи скидалися на прямовисний схил, хоча
ззовні вони, цілком послідовно, були гвинтовими. Піднятися до вершини вежі Рейвенклову можна
було лише подолавши цей довгий неминучий підйом, не оминувши жодної кам'яної
сходинки; і ось вони повзли назад під Гарріними чоботями, а він тиснув на них
виснаженими ногами.

// 15061
//Harry had seen Hermione safely off to bed.
Гаррі простежив був, що Герміона без проблем відправилася спати.

// 15062
//He had lingered in the Ravenclaw common room long enough to collect a few
//signatures that might be useful to Hermione later. Not many students had
//signed; wizards hadn’t been trained to think in the put-up-or-shut-up,
//stick-your-neck-out-and-make-a-prediction-or-stop-pretending-to-believe-in-your-theory
//rules of Muggle science. Most of them hadn’t seen anything __incongruent__
//about being too nervous to sign an agreement saying that Hermione got to hold
//it over them for the rest of their lives if they were wrong, while acting
//outwardly confident that she was guilty. But just having demanded the
//signatures would make the point after the truth came out, if anyone ever again
//suspected Hermione of anything Dark. She wouldn’t have to go through this
//__twice,__ at least.
Він достатньо потинявся у рейвенкловській вітальні, щоб зібрати декілька
підписів, що пізніше могли б стати Герміоні у пригоді. Мало хто підписав;
чаклуни були не навчені залізних правил маґлівської науки "`доведи або мовчи`",
піди на ризик та зроби передбачення, або не вдавай, нібито віриш в цю
гіпотезу. Більшість із них не бачила нічого __негармонійного__ в тому, що
вони надто нервувалися,
щоб підписати договір, за яким вони винні Герміоні до кінця свого життя, якщо
виявиться, що вони помилялись, і поводитися так, ніби вона винна. І
втім, просто попросивши тих підписів, він зробив свою справу -- після того, як
правда вийде на світло, вже ніхто не підозрюватиме Герміону у чомусь темному.
Принаймні, їй не доведеться __двічі__ проходити крізь це.

// 15063
//After that Harry had left the common room quickly, because all the kindly
//forgiving sentiments he’d reasoned out were getting harder and harder to
//remember. Sometimes Harry thought the deepest split in his personality wasn’t
//anything to do with his dark side; rather it was the divide between the
//altruistic and forgiving Abstract Reasoning Harry, versus the frustrated and
//angry Harry In The Moment.
Після цього Гаррі швидко пішов був з кімнати, бо настрій розуміння й прощення, що
він так старанно підтримував у собі, почав був вивітрюватися. Іноді Гаррі
здавалося, що найглибша розколина в його особистості розділяє зовсім не його світлу й
темну сторону, а радше альтруїстичного й миролюбного Гаррі-Взагалі та
спантеличеного й розлюченого Гаррі-Наразі.

// 15064
//The circular platform at the top of the Ravenclaw tower wasn’t the tallest
//place in Hogwarts, but the Ravenclaw tower jutted out from the main body of the
//castle, so you couldn’t see down into the top platform from the Astronomy
//tower. A quiet place to think, if you had an awful lot to think about. A place
//where few other students ever came - there were easier niches of privacy, if
//privacy was all you wanted.
Круглий майданчик на верхівці рейвенкловської вежі не був найвищою точкою
Гоґвортсу, та, позаяк вся вежа стирчала вбік від основного нагромадження замку,
майданчик нагорі не було видно з Астрономічної вежі. Місце, щоб спокійно
поміркувати, якщо є страшенно багато тем для роздумів. Місце, куди майже ніхто
більше не приходить -- є більш легкодоступні схованки, якщо потрібна лише
схованка.

// 15065
//The night-lit torches of Hogwarts were far below. The platform itself offered
//few obstructions; the stairs emerged from an uncovered gap in the floor, rather
//than an upright door. From this place, then, the stars were as visible as they
//ever were on Earth.
Нічні смолоскипи Гоґвортсу залишились далеко внизу. Ніщо на майданчику не
заважало роздивлятися довкола: вихід на сходи був через люк, а не через двері,
що затуляли б оглядовий простір. Для споглядання зірок із Землі це була найкраща
точка.

// 15066
//The boy lay down in the center of the platform, heedless of his robes that
//might be dirtied, dropping his head to rest upon the rock-tiled floor; so that,
//except for a few half-seen crenellations of stone at vision’s edge, and a
//sliver of crescent moon, reality became starlight.
Хлопчик ліг у центрі майданчика, не зважаючи на бруд і порох; поклав потилицю на
кам'яні плити підлоги. Тепер на межі його зору майоріло лише кілька стінних
горельєфів; а попри них і срібну скибочку місяця, реальність сповнилася
зоряного світла.

// 15067
//The pinpoints of light in dark velvet twinkled, wavering and returning, a
//different kind of beauty from their steady brilliance in the Silent Night.
Крихітні вістря голок мерехтіли на м'якому шовку неба -- то зникали, то
знову поверталися. Ця краса була геть інша від незмигного сяйва посеред
справжньої вічної тихої ночі.

// 15068
//Harry gazed out abstractly, his mind on other things.
Гаррі дивився в небо, а думки його були далеко звідси.

// 15069
//__This day your war against Voldemort has begun…__
// hedrok: копія з 062:10804
__Сьогодні розпочалася твоя війна з Волдемортом...__

// 15070
//Dumbledore had said that, after the Incident with Rescuing Bellatrix from
//Azkaban. That had been a false alarm, but the phrase expressed the sentiment
//well.
Дамблдор сказав це після випадку з порятунком Белатриси з Азкабану. То була
хибна тривога, втім, формулювання добре передавало загальний настрій.

// 15071
//Two nights ago his war had begun, and Harry didn’t know with __who__.
Дві ночі тому почалася війна, от тільки Гаррі не знав __з ким__.

// 15072
//Dumbledore thought it was Lord Voldemort, returned from the dead, making his
//first move against the boy who had defeated him last time.
Дамблдор гадає -- з лордом Волдемортом, що повстав із мертвих і зробив перший
хід проти хлопчика, від якого зазнав був колись поразки.

// 15073
//Professor Quirrell had put detection wards on Draco, fearing that Hogwarts’s
//mad Headmaster would try to frame Harry for the death of Lucius’s son.
Професор Квірел наклав відстежувальні захисні чари на Драко з остраху, що
божевільний директор Гоґвортсу може підставити Гаррі, зваливши на нього смерть
Луціусового сина.

// 15074
//Or Professor Quirrell had set up the entire thing, and __that__ was how
//he’d known where to find Draco. Severus Snape thought the Hogwarts Defense
//Professor was an obvious suspect, even __the__ obvious suspect.
А може то професор Квірел сам сфабрикував усю цю справу, і __тому__ знав, де шукати
Драко. Северус Снейп гадав, що професор із захисту -- очевидний підозрюваний,
навіть __найочевидніший__ підозрюваний.

// 15075
//And Severus Snape himself might or might not be even remotely trustworthy.
І самому Северусові Снейпу можна чи не можна трохи іноді довіряти.

// 15076
//__Someone__ had declared war against Harry, their first strike had been
//meant to take out Draco and Hermione both, and it was only by the barest of
//margins that Harry had saved Hermione.
__Хтось__ оголосив Гаррі війну, їхній перший удар мав би зняти з дошки водночас
і Драко, і Герміону, і врятувати Герміону ледь чи вдалося.

// 15077
//You couldn’t call it victory. Draco had been removed from Hogwarts, and if that
//wasn’t death, it wasn’t clear how it could be undone, or what shape Draco might
//be in when he got back. The country of magical Britain now thought Hermione an
//attempted-murderer, which might or might not make her decide to do the sane
//thing and leave. Harry had sacrificed his entire fortune to undo his loss, and
//that card could only be played once.
Це не назвеш перемогою. Драко усунуто з Гоґвортсу, і хоч це й не смерть, як
виправити нанесену шкоду однаково незрозуміло. Неясно також, яким Драко
повернеться. Чаклунська Британія тепер вважає Герміону потенційною вбивцею, через
що вона, можливо, виявить здоровий ґлузд і піде зі школи. Гаррі пожертвував
усіма своїми коштами, щоб повернути все на краще, і вдруге цього туза в нього
не буде.

// 15078
//Some unknown power had struck at him, and if that blow had been partially
//deflected, it had still hit __really hard.__
Його вразила якась невідома могутня сила, і хоча удар прийшовся не в центр,
гепнули таки __добряче__.

// 15079
//At least his dark side hadn’t asked anything of him in exchange for saving
//Hermione. Maybe because his dark side __wasn’t__ an imaginary voice like
//Hufflepuff; Harry might __imagine__ his Hufflepuff part as wanting
//different things from himself, but his dark side wasn’t like that. His “dark
//side”, so far as Harry could tell, was a different way that Harry sometimes
//__was__. Right now, Harry wasn’t angry; and trying to ask what “dark
//Harry” wanted was a phone ringing unanswered. The thought even seemed a little
//strange; could you owe something to a different way you sometimes were?
Принаймні, його власна темна сторона не зажадала від нього нічого за порятунок
Герміони. Можливо через те, що темна сторона -- це __не__ один з його уявних
внутрішніх голосів на кшталт уявного гафелпафця; Гаррі міг би __уявити__, що
його гафелпафська частина хоче чогось від нього, та його темна сторона була не
така. Його "`темна сторона`", як зрозумів Гаррі, була іншим способом __буття
самого Гаррі__. Просто зараз Гаррі не гнівається; тому дізнатися, що бажається
чи не бажається "`темному Гаррі`" -- це як стукати в порожню кімнату. Навіть
думалось про це якось химерно; чи можна стати боржником іншого себе?

// 15080
//Harry stared up at the random stars, the scattered twinkling lights that human
//brains couldn’t help but pattern-match into imaginary constellations.
Гаррі роздивлявся зірки, розсіяні вогники, що їх людський мозок автоматично
складає в уявні сузір'я.

// 15081
//And then there was that promise Harry had sworn.
А ще та обіцянка, що Гаррі був дав.

// 15082
//Draco to help Harry reform Slytherin House. And Harry to take as an enemy
//whomever Harry believed, in his best judgment as a rationalist, to have killed
//Narcissa Malfoy. If Narcissa had never gotten her own hands dirty, if indeed
//she’d been burned alive, if the killer hadn’t been tricked - those were all the
//conditions Harry could remember making. He probably should’ve written it down,
//or better yet, never made a promise requiring that many caveats in the first
//place.
// hedrok: умови з 47:8772
Драко допоможе з реформуванням гуртожитку Слизерин, а Гаррі
вважатиме особистим ворогом того, хто, на думку самого Гаррі, згідно
свого найкращого судження як раціоналіста, вбив Нарцису Мелфой. Якщо Нарциса сама не
вбивала, якщо вона дійсно згоріла заживо, якщо вбивцю не ввели в якусь оману --
Гаррі пам'ятав, як додав усі ці умови в договір. Варто було б, мабуть,
записати, чи ще краще, взагалі не давати обітниці, що потребувала стільки
додаткових умов.

// 15083
//There were plausible outs, for the sort of person who’d let themselves
//rationalize an out. Dumbledore hadn’t __actually__ confessed. He hadn’t
//come right out and said he’d done it. There were plausible reasons for an
//actually-guilty Dumbledore to behave that way. But it was __also__ what
//you’d expect to see, if someone else had burned Narcissa, and Dumbledore had
//taken credit.
Можна було б відкараскатися, якби він був з тих людей, що викручуються й вислизають.
Дамблдор не те що __прямо__ зізнався. Він не взяв і сказав, мовляв, так, це
був я. Він поводився так, як поводився б Дамблдор-що-спалив-Нарцису. Чи то як
Дамблдор-що-взяв-на-себе-відповідальність за вбивство Нарциси, що його вчинив
хтось інший.

// 15084
//Harry shook his head, flattening one side of his hair and then another against
//the stone-tiled floor. There was still a final out, Draco could still release
//him from the oath at any time. He could, at least, describe the situation to
//Draco, and talk about options with him, when they met again. It didn’t seem
//like a very likely prospect for release - but the idea of talking something
//over honestly was enough to satisfy the part of himself that demanded adherence
//to oaths. Even if it only meant delaying, it was better than taking a good man
//as an enemy.
Гаррі похитав головою, скуйовдив волосся о кам'яну підлогу. Лишався ще один
вихід: Драко сам може звільнити його від обіцянки, якщо захоче. Тож Гаррі може,
принаймні, описати йому своє бачення ситуації, обговорити з ним можливі
варіанти -- коли вони знову побачаться. Навряд чи Драко дійсно захоче його
звільнити, але перспектива щось чесно обговорити була до вподоби тій частині
Гаррі, що виступала за дотримання обіцянок. Навіть якщо це буде лише
відтягування часу -- це краще, ніж призначити ворогом хорошу людину.

// 15085
//__But__ is __Dumbledore a good man?__ asked the voice of Hufflepuff.
//__If Dumbledore burned someone alive - wasn’t the whole point that good
//people may kill, but never kill with suffering?__
__Та чи __хороший__ він, цей Дамблдор?__ спитав голос гафелпафця. __Якщо
Дамблдор спалив когось живцем... Хороші люди можуть убивати, але ніколи не
знущатимуться при цьому з жертви; хіба не це робить різницю між добрими й
поганими людьми?__

// 15086
//__Maybe he killed her instantly,__ said Slytherin, __and then lied
//to Lucius about the burning-alive part. But… if there was__ any
//__possibility of the Death Eaters magically verifying how Narcissa died…
//and if being caught in a lie would’ve endangered Light-side families…__
__Можливо він убив її миттєво__, припустив слизеринець, __а тоді
збрехав Луціусу про спалення живцем. Але ж... Якщо існувала __бодай якась__
можливість, що смертежери за допомогою магії зможуть перевірити, як саме
загинула Нарциса... І якщо в разі викриття брехні потрапили б у халепу родини
на боці світла...__

// 15087
//__Be careful what we cleverly rationalize,__ warned Gryffindor.
__Будьмо обережні з нашими розумними поясненнями__, попередив
грифіндорець.

// 15088
//__You have to expect reputational effects on how other people treat you,__
//said Hufflepuff. __If you decide there’s sufficient reason to burn a
//woman alive, one of the predictable side effects is that good people decide
//you’ve crossed the line and have to be stopped. Dumbledore should’ve expected
//that. He’s got no right to complain.__
__Треба очікувати, що твоя репутація впливає на ставлення людей до тебе__,
заперечив гафелпафець. __Якщо ти гадаєш, що може існувати достатня причина
для того, щоб спалити жінку живцем, то цілком очікуваний побічний ефект полягає
в тому, що хороші люди можуть вирішити, буцімто ти перетнув межу і маєш бути
знешкоджений. Дамблдор мав очікувати на це. Немає чого жалітися.__

// 15089
//__Or maybe he expects us to be smarter,__ said Slytherin. __Now that
//we know this much of the truth - no matter the exact details of the full story
//- can we really believe that Dumbledore is a terrible, terrible person who
//ought to be our enemy? In the middle of a horrible bloody war, Dumbledore set__
//one __enemy civilian on fire? That’s only bad by the standards of comic
//books, not by any sort of realistic historical standard.__
__А може він очікує, що ми розумніші за це__, провадив слизеринець.
__Тепер, коли нам відома така частина правди, -- знехтуємо точними деталями
цієї бурхливої історії, -- чи можемо ми справді повірити, що Дамблдор --
жахлива-прежахлива людина, що мусить стати нашим ворогом? Протягом страшної
кривавої війни Дамблдор підпалив __одного__ цивільного з протилежного табору?
Це погано хіба що за стандартами коміксів, а не за жодним історичним
стандартом.__

// 15090
//Harry stared up at the night sky, remembering history.
// hedrok: переклала Ольга, я не здатен це прибрати :)
Гаррі втупився в небо, порпаючись у нетрях своєї гуманітарної ерудиції.

// 15091
//In real life, in real wars…
В реальному житті, у справжніх війнах...

// 15092
//During World War II, there had been a project to sabotage the Nazi nuclear
//weapons program. Years earlier, Leo Szilard, the first person to realize the
//possibility of a fission chain reaction, had convinced Fermi not to publish the
//discovery that purified graphite was a cheap and effective neutron moderator.
//Fermi had wanted to publish, for the sake of the great international project of
//science, which was above nationalism. But Szilard had persuaded Rabi, and Fermi
//had abided by the majority vote of their tiny three-person conspiracy. And so,
//years later, the only neutron moderator the Nazis had known about was
//deuterium.
Під час Другої світової війни треба було саботувати нацистську програму зі
створення ядерної зброї. Роками раніше Лео Сілард, перша людина, що усвідомила
можливість ланцюгової ядерної реакції, переконала Фермі, що не варто
публікувати одне його відкриття -- про те, що очищений графіт є дешевим та
ефективним сповільнювачем нейтронів. Фермі хотів був публікувати заради
величного міжнародного проєкту науки, вищого за націоналізм. Та зрештою Сілард
перетягнув на свій бік Рабі, і Фермі підкорився рішенню більшості учасників
їхньої міні-змови на трьох. Тож під час війни нацистам був відомий лише один
сповільнювач нейтронів, а саме -- дейтерій.

// 15093
//The only deuterium source under Nazi control had been a captured facility in
//occupied Norway, which had been knocked out by bombs and sabotage, causing a
//total of twenty-four civilian deaths.
Єдиним джерелом дейтерію в сфері контролю нацистів був захоплений завод в
окупованій Норвегії, що його вивели з ладу бомбардування та саботаж. Ці заходи
спричинили смерть двадцяти чотирьох цивільних.

// 15094
//The Nazis had tried to ship the deuterium already refined to Germany, aboard a
//civilian Norwegian ferry, the __SS Hydro.__
Нацисти спробували доставити вже очищений дейтерій в Німеччину морем, на борту
цивільного норвезького порома "`SS Hydro`".

// 15095
//Knut Haukelid and his assistants had been discovered by the night watchman of
//the civilian ferry while they were sneaking on board to sabotage it. Haukelid
//had told the watchman that they were escaping the Gestapo, and the watchman had
//let them go. Haukelid had considered warning the night watchman, but that would
//have endangered the mission, so Haukelid had only shaken his hand. And the
//civilian ship had sunk in the deepest part of the lake, with eight dead
//Germans, seven dead crew, and three dead civilian bystanders. Some of the
//Norwegian rescuers of the ship had thought the German soldiers present should
//be left to drown, but this view had not prevailed, and the German survivors had
//been rescued. And that had been the end of the Nazi nuclear weapons program.
Кнута Гаукеліда і його помічників викрив нічний вартовий цивільного порому, коли
вони пробралися на борт, щоб вивести системи з ладу. Гаукелід сказав був
вартовому, що вони тікають від гестапо, і той їх відпустив. Гаукелід тоді
подумав, що варто б попередити вартового, та це б поставило під загрозу все
завдання, тож він лише потис його руку. І цивільне судно затонуло в найглибшому
районі озера, при цьому загинуло вісім німців, сім членів екіпажу і три
цивільних сторонніх свідки. Деякі з норвезьких рятівників воліли залишити
німецьких солдат тонути, але їхня думка не взяла гору, і вцілілих німців
дістали на берег. Так прийшов кінець нацистській ядерній програмі.

// 15096
//Which was to say that Knut Haukelid had killed innocent people. One of whom,
//the night watchman of the ship, had been a __good__ person. Someone who’d
//gone out of his way to help Haukelid, at risk to himself; from the kindness of
//his heart, for the highest moral reasons; and been sent to drown in turn.
//Afterward, in the cold light of history, it had looked like the Nazis had never
//been close to getting nuclear weapons after all.
Тож Кнут Гаукелід вбив був невинних людей. Один з котрих, нічний вартовий
судна, був __хорошою__ людиною. Він допоміг Гаукеліду, хоча і не мусив, хоч і
ризикував своїм життям; з власної доброти, заради високих моральних ідеалів; і
за це був відправлений на смерть. В сухому залишку історики вирішили, що
нацистам однаково було далеко до винайдення ядерної зброї.

// 15097
//And Harry had never read anything suggesting that Haukelid had acted wrongly.
І в жодній книзі, що читав Гаррі, не припускалося, буцімто Гаукелід вчинив
неправильно.

// 15098
//That was war in real life. In terms of total damage and who’d gotten hit, what
//Haukelid had done was considerably __worse__ than what Dumbledore might
//have done to Narcissa Malfoy, or what Dumbledore had possibly done to leak the
//prophecy to Lord Voldemort to get him to attack Harry’s parents.
Бо це була війна в реальному житті. З точки зору спричинених втрат Гаукелід
вчинив значно __гірше__ ніж Дамблдор, якщо він вбив Нарцису Мелфой, чи Дамблдор
підсунув лордові Волдеморту пророцтво, щоб той напав на батьків Гаррі.

// 15099
//If Haukelid had been a comic-book superhero, he’d have somehow gotten all the
//civilians off the ferry, he would’ve attacked the German soldiers directly…
Якби Гаукелід був супергероєм з коміксів, він якимось чином врятував би всіх
цивільних з того порому, він би напав лише на німецьких солдат...

// 15100
//…rather than let a single innocent person die…
...радше ніж дозволити загинути бодай одній невинній людині...

// 15101
//…but Knut Haukelid hadn’t been a superhero.
...але Кнут Гаукелід супергероєм не був.

// 15102
//And neither had been Albus Dumbledore.
І Албус Дамблдор теж -- не був.

// 15103
//Harry closed his eyes, swallowing hard a few times against the sudden choking
//sensation. It was abruptly very clear that while Harry was going around trying
//to live the ideals of the Enlightenment, Dumbledore was the one who’d actually
//__fought in a war__. Nonviolent ideals were cheap to hold if you were a
//scientist, living inside the __Protego__ bubble cast by the police
//officers and soldiers whose actions you had the luxury to question. Albus
//Dumbledore seemed to have started out with ideals at least as strong as Harry’s
//own, if not stronger; and Dumbledore hadn’t gotten through his war without
//killing enemies and sacrificing friends.
Гаррі заплющив очі, нервово ковтнув слину. Раптом йому стало кришталево ясно,
що, доки він тут носиться з ідеалами Просвітництва, намагаючись втілити їх в
життя, саме Дамблдор __б'ється на війні__. Легко бути пацифістом, коли ти
вчений, що живе всередині захисної бульбашки, яку створили поліція і армія,
що їхні дії ти маєш розкіш критикувати. Албус Дамблдор, видається, починав шлях з не
менш сильними принципами, ніж Гаррі, а то й більш принциповий був; і все ж
він не зміг пройти свою війну, не вбиваючи ворогів і не приносячи в жертву
друзів.

// 15104
//__Are you so much better than Haukelid and Dumbledore, Harry Potter, that
//you’ll be able to fight without a single casualty? Even in the world of comic
//books, the only reason a superhero like Batman even__ looks __successful
//is that the comic-book readers only notice when Important Named Characters die,
//not when the Joker shoots some random nameless bystander to show off his
//villainy. Batman is a murderer no less than the Joker, for all the lives the
//Joker took that Batman could’ve saved by killing him. That’s what the man named
//Alastor was trying to tell Dumbledore, and afterward Dumbledore regretted
//having taken so long to change his mind. Are you really going to try to follow
//the path of the superhero, and never sacrifice a single piece or kill a single
//enemy?____
__Скажи, Гаррі Поттере, хіба ти аж настільки кращий за Гаукеліда й Дамблдора, що
зможеш вести бій без жертв? Навіть у світі коміксів єдине, що надає супергерою
на кшталт Бетмена хоча б __вигляд__ успішності, -- це чарівна властивість
читачів коміксів помічати смерті винятково Основних Персонажів. А якщо Джокер
поцілив якогось безіменного статиста -- це лише необхідна демонстрація його
злодійства. Бетмен -- теж убивця, не менше за Джокера, адже він убив усіх тих
людей, що їх убив Джокер, бо міг їх врятувати, якби вбив Джокера. Саме це
намагався пояснити Дамблдорові чоловік на ім'я Аластор, і потім Дамблдор
шкодував, що не послухав його раніше. Ти що, дійсно збираєшся піти шляхом
супергероя? Не хочеш жертвувати жодною фігурою, не хочеш вбивати своїх
ворогів?__


// 15105
//Fatigued, Harry turned his attention away from the dilemma for a moment, opened
//his eyes again to regard the hemisphere of night, which required no decisions
//from him.
Стомлений, Гаррі відволікся від дилеми, знову розплющив очі, щоб роздивитися
нічну півкулю, -- півкуля не вимагала від нього жодних рішень.

// 15106
//Near the edge of his vision, the pale white crescent of the Moon, the light
//from which had left one-and-a-quarter seconds ago, around 375,000 kilometers of
//distance in Earth’s space of simultaneity.
На краю його бачення -- блідий білий півмісяць; світло, що відбилося одну цілу й
чверть секунди тому, приблизно 375 тисяч кілометрів відстані в просторі
синхронності Землі.

// 15107
//Above and to the side, Polaris, the North Star; the first star Harry had
//learned to identify in the sky, by following the edge of the Big Dipper. That
//was actually a five-star system with a brilliant central supergiant, 434
//light-years from Earth. It was the first ‘star’ whose name Harry had ever
//learned from his father, so long ago that he couldn’t have guessed how old he’d
//been.
Нагорі й праворуч -- Полярна зірка, Північна зоря; перша зірка, що її Гаррі
навчився був впізнавати в нічному небі, на краю Малої Ведмедиці. Насправді це
п'ятизіркова система з яскравим центральним супергігантом, в 434 світлових
роках від Землі. Це була перша "`зірка`", що її назву Гаррі дізнався від батька,
так давно, що зараз і не згадати, скільки йому було рочків тоді.

// 15108
//The dim fog that was the Milky Way, so many billions of distant stars that they
//became an indistinct river, the plane of a galaxy that stretched 100,000
//light-years across. If Harry had experienced any sense of wonder when he’d
//__first__ been told that, he’d been too young for him to remember now that
//first time, across a few years’ distance.
Бляклий серпанок -- то Чумацький Шлях, себто скупчення такої кількості
мільярдів далеких зірок, що вони зливаються в суцільний потік, у річку; це
площина галактики завширшки в 100000 світових років. Якщо Гаррі і відчув
здивування, коли йому __вперше__ розповіли про Чумацький Шлях, він був тоді
дуже маленький, тож не міг зараз уже згадати свої враження.


// 15109
//In the center of the constellation Andromeda, the star Andromeda, which was
//really the Andromeda Galaxy. The nearest galaxy to the Milky Way, 2.4 million
//light-years away, containing an estimated trillion stars.
В самому центрі сузір'я Андромеди -- зірка Андромеда, яка насправді -- галактика
Андромеди. Найближча до Чумацького Шляху галактика, віддалена на 2.4 мільйони
світлових років. За приблизними підрахунками, містить близько трильйона зірок.

// 15110
//Numbers like those made ‘infinity’ pale by comparison, because ‘infinity’ was
//just featureless and blank. Thinking that the stars were ‘infinitely’ distant
//was a lot less scary than trying to work out what 2.4 million light-years
//amounted to in meters. 2.4 million light-years, times 31 million seconds in a
//year, times a photon moving at 300,000,000 meters per second…
На фоні таких чисел "`нескінченність`" не вражає, позаяк
"`нескінченність`" просто бліда й невиразна. Вважати, що зірки
"`нескінченно`" далеко -- значно менш лячно, ніж намагатися перевести 2.4 мільйона
світлових років у метри. 2.4 мільйона світлових років помножити на 31 мільйон секунд у році
й помножити на швидкість фотона -- 300000000 метрів на секунду...

// 15111
//It was strange to think that such distances might __not__ be unreachably
//far away. Magic was loose in the universe, things like Time-Turners and
//broomsticks. Had any wizard ever tried to measure the speed of a portkey, or a
//phoenix?
Яка дивна ідея -- що такі відстані все ж __можливо__ подолати. Всесвітом
вирує магія, речі на кшталт часоворотів і мітел. Цікаво, чи якийсь чаклун
коли-небудь намагався виміряти швидкість летиключа чи фенікса?

// 15112
//And the human understanding of magic couldn’t possibly be anywhere
//__near__ the underlying laws. What would you be able to do with magic if
//you __really__ understood it?
Поточне людське розуміння навіть не __наближається__ до фундаментальних
законів. На що була б здатна магія, якби __справді__ второпати принципи її дії?

// 15113
//A year ago, Dad had gone to the Australian National University in Canberra for
//a conference where he’d been an invited speaker, and he’d taken Mum and Harry
//along. And they’d all visited the National Museum of Australia, because, it had
//turned out, there was basically nothing else to do in Canberra. The glass
//display cases had shown rock-throwers crafted by the Australian aborigines -
//like giant wooden shoehorns, they’d looked, but smoothed and carved and
//ornamented with painstaking care. In the 40,000 years since anatomically modern
//humans had migrated to Australia from Asia, nobody had invented the
//bow-and-arrow. It really made you appreciate how __non-obvious__ was the
//idea of Progress. Why would you even think of Invention as something important,
//if all your history’s heroic tales were of great warriors and defenders instead
//of Thomas Edison? How could anyone have suspected, while carving a rock-thrower
//with painstaking care, that someday human beings would invent rocket ships and
//nuclear energy?
Рік тому тато їздив до Національного австралійського університету в Канберрі,
і взяв із собою маму та Гаррі. Вони ходили на екскурсію до Національного музею
Австралії, бо, як виявилося, більше в Канберрі не було куди піти розважитись.
На скляних стендах лежали пожбурлячі каміння, зроблені австралійськими аборигенами,
-- вони були схожі на величезні дерев'яні лопатки для взуття, тільки рівні,
різьблені, вкриті витонченим орнаментом. За 40000 років після того, як
анатомічно сучасні люди мігрували до Австралії з Азії, ніхто не винайшов лука
зі стрілами. Це змушує замислитися, наскільки __неочевидна__ насправді ідея
Прогресу. Чому вважати Винахід чимось важливим, якщо всі героїчні оповіді з
історії твого народу -- про величних воїнів і захисників, а не про Томаса
Едісона? Хто б міг запідозрити, вирізблюючи пожбурляч каміння, що колись люди
винайдуть ракети і ядерну енергію?

// 15114
//Could you have looked up into the sky, at the brilliant light of the Sun, and
//deduced that the universe contained greater sources of power than mere fire?
//Would you have realized that if the fundamental physical laws permitted it,
//someday humans would tap the same energies as the Sun? Even if nothing you
//could imagine doing with rock-throwers or woven pouches - no pattern of running
//across the savannah and nothing you could obtain by hunting animals - would
//accomplish that even in imagination?
Чи можна подивитись у небо на сяюче світло Сонця й здогадатися, що всесвіт
має джерела живлення потужніші за вогнище? Чи можна було б здогадатися, що, за
згоди основних законів фізики, людина колись зможе живитися тією ж енергією, що
й саме Сонце? Навіть якщо нічого з того, що ти можеш зробити з пожбурлячами
каміння та витканими мішечками, жоден маршрут саванною, нічого, що можна
отримати полюванням на тварин, не допоможе досягти цього навіть в уяві?

// 15115
//It wasn’t like modern-day Muggles had gotten anywhere near the limits of what
//Muggle physics said was possible. And yet like hunter-gatherers conceptually
//bound to their rock-throwers, most Muggles lived in a world defined by the
//limits of what you could do with cars and telephones. Even though Muggle
//physics explicitly permitted possibilities like molecular nanotechnology or the
//Penrose process for extracting energy from black holes, most people filed that
//away in the same section of their brain that stored fairy tales and history
//books, well away from their personal realities: __Long ago and far away,
//ever so long ago.__ No surprise, then, that the wizarding world lived in a
//conceptual universe bounded - not by fundamental laws of magic that nobody even
//knew - but just by the surface rules of known Charms and enchantments. You
//couldn’t observe the way magic was practiced nowadays and __not__ be
//reminded of the National Museum of Australia, once you realized what you were
//seeing. Even if Harry’s first guess had been mistaken, one way or another it
//was still inconceivable that the __fundamental__ laws of the universe
//contained a special case for human lips shaping the phrase ‘Wingardium
//Leviosa’. And yet even that fumbling grasp of magic was enough to do things
//that Muggle physics said should be __forever impossible: __the
//Time-Turner, water conjured out of nothingness by __Aguamenti.__ What were
//the __ultimate__ possibilities of invention, if the underlying laws of the
//universe permitted an eleven-year-old with a stick to violate almost every
//constraint in the Muggle version of physics?
Сучасні маґли ще навіть не наблизилися до того, що маґлівська фізика вважає
межею можливого. Та водночас, подібно до тубільних мисливців і збирачів,
концептуально прив'язаних до своїх камінних пожбурлячок, світ
більшості маґлів обмежений можливостями їхніх машин і телефонів. Хоча
маґлівська фізика ясно визнає такі речі як молекулярні нанотехнології, чи
процес Пенроуза, що теоретично дозволяє отримувати енергію з чорних дір,
більшість заштовхує цю інформацію кудись до віддаленого куточку мозку, де
зберігаються казки й книжки з історії, себто, подалі від особистих реалій:
"`колись давно, в одній дуже далекій галактиці`". Тож нема чого дивуватися, що
чарівний світ живе в концептуальному всесвіті обмеженому -- навіть не
фундаментальними законами магії, що їх однаково ніхто не знає, -- якимись
поверховими правилами поширених чарів та замовлянь. Неможливо дивитися на те,
як сьогодні користуються магією, і не згадати ту виставку в Національному музеї
Австралії, коли ти вже зрозумів, що саме ти спостерігаєш. Хай перша гіпотеза
Гаррі виявилася провальною, але, так чи інакше, неможливо, щоб
__фундаментальні__ закони всесвіту містили виняток на випадок, якщо людські
губи зартикулюють "`Вінґардіум Левіоза`". І навіть таке поверхове використання
магії дозволяє робити таке, що маґлівська фізика вважає __недосяжним__:
часоворот, вода, створена з нічого за допомогою "`__Аґваменті__`". Які ж тоді
__найбільші__ потенційні наслідки нових винаходів, якщо базові закони всесвіту
дозволяють школяру з паличкою порушувати майже кожне обмеження маґлівської
версії фізики?

// 15116
//Like a hunter-gatherer trying to look up at the Sun, and guess that the
//universe had to be shaped in a way that allowed for nuclear energy…
Ніби мисливець-збирач, що дивиться на сонце, намагаючись здогадатися, що
всесвіт, либонь, зроблений так, що дозволяє існування ядерної енергії...

// 15117
//It made you wonder if maybe twenty thousand million million million meters
//wasn’t so much distance, after all.
Може, двадцять тисяч мільйонів мільйонів мільйонів метрів -- це не так вже й
далеко.

// 15118
//There was a step beyond Abstract Reasoning Harry which he could take, given
//time enough to compose himself and the right surroundings; something beyond
//Abstract Reasoning Harry, as that was beyond Harry In The Moment. Looking up at
//the stars, you could try to imagine what the distant descendants of humanity
//would think of your dilemma - in a hundred million years, when the stars would
//have spun through great galactic movements into entirely new positions, every
//constellation scattered. It was an elementary theorem of probability that if
//you knew what your answer would be after updating on future evidence, you ought
//to adopt that answer right now. If you __knew__ your destination, you were
//already there. And by analogy, if not quite by theorem, if you could guess what
//the descendants of humanity would think of something, you ought to go ahead and
//take that as your own best guess.
Існує наступна стадія розвитку Гаррі-Взагалі, на яку він може перейти, якщо
дати йому час зібратися з силами та помістити у правильне середовище; щось так
само більше за Гаррі-Взагалі, як той більше за Гаррі-Наразі. Роздивляючись
зорі, можна спробувати уявити, що подумають про твою дилему далекі нащадки
людства -- за сто мільйонів років, коли зорі повільно перекотяться на зовсім
інші позиції, і не буде вже на небі жодного відомого зараз сузір'я. Згідно
елементарної теореми ймовірності, якщо ти дізнався, якою буде твоя відповідь на
базі майбутнього свідчення, ти мусиш прийняти цю відповідь одразу. Якщо ти __знаєш__
свою мету, то ти вже там. І так само, хоч це і не зовсім доведена теорема, якщо
ти можеш вгадати, що подумають про щось нащадки людства, то мусиш взяти цю думку
на власне озброєння.

// 15119
//From that vantage point the idea of killing off two-thirds of the Wizengamot
//seemed a lot less appealing than it had a few hours earlier. Even if you
//__had__ to do it, even if you knew for a solid fact that it would be the
//best thing for magical Britain and that the complete Story of Time would look
//worse if you didn’t do it… even as a necessity, the deaths of sentient beings
//would still be a tragedy. One more element of the sorrows of Earth; the Most
//Ancient Earth from which everything had begun, long ago and far away, ever so
//long ago.
З цієї позиції, ідея вбити дві третини складу Чарверсуду вже не здавалася
такою привабливою, як декілька годин тому. Навіть якщо це __конче__ необхідно,
якщо знаєш, як факт, що це найкраще, що може статися з чаклунською Британією,
навіть якщо вся історія часу виглядатиме гірше в разі твоєї бездіяльності...
навіть за умов крайньої потреби, смерті розумних істот завжди лишатимуться
трагедією. Ще один елемент поневірянь земних; страждань, властивих Древній
Землі, з якої все було почалося, колись давно, в одній далекій галактиці.

// 15120
//__He is not like Grindelwald__. __There is nothing human left in
//him. Him you must destroy. Save your fury for that, and that alone -__
"`__Він не такий як Ґріндельвальд__`". "`__В ньому не залишилося нічого
людського. Його ти маєш знищити. Тож збережи свою лють для того дня, і тільки
для нього...__`"

// 15121
//Harry shook his head slightly, tilting the stars a little in his vision, as he
//lay on the stone floor looking upward and outward and forward in time. Even if
//Dumbledore was right, and the true enemy was utterly mad and evil… in a hundred
//million years the organic lifeform known as Lord Voldemort probably wouldn’t
//seem much different from all the other bewildered children of Ancient Earth.
//Whatever Lord Voldemort had done to himself, whatever Dark rituals seemed so
//horribly irrevocable on a merely human scale, it wouldn’t be beyond curing with
//the technology of a hundred million years. Killing him, even if you
//__had__ to do it to save the lives of others, would be just one more death
//for future sentient beings to be sad about. How could you look up at the stars,
//and believe anything else?
Гаррі струснув головою, зірки в полі зору трохи нахилилися. Він й далі лежав на
кам'яній підлозі, дивився вгору, і назовні, і вперед у часі. Навіть якщо
Дамблдор має рацію, і справжній ворог був цілковито божевільний і злий... за сто
мільйонів років органічна життєформа, відома як лорд Волдеморт, мабуть не надто
відрізнятиметься від інших спантеличених дітей Древньої Землі. Хай там що лорд
Волдеморт зробив був із собою, які б Темні Ритуали не здавались наразі
невиправними за звичною людською шкалою, будь-які їхні наслідки можна буде
вилікувати за сто мільйонів років. Його вбивство, навіть якщо __необхідне__
для збереження життів інших, буде для розумних істот майбутнього лише ще одним
приводом для суму. Як можна дивитися на зірки і вірити у щось інше?

// 15122
//Harry stared up at the twinkling lights of Eternity and wondered what the
//children’s children’s children would think of what Dumbledore had maybe-done to
//Narcissa.
Гаррі дивився на миготливі вогні Вічності й намагався уявити, що подумають діти
дітей дітей щодо всієї цієї історії з тим, що Дамблдор можливо-зробив із
Нарцисою.

// 15123
//But even if you tried framing the question that way, asking what humanity’s
//descendants would think, it still drew only on your own knowledge, not theirs.
//The answer still came from inside yourself, and it could still be mistaken. If
//you didn’t know the hundredth decimal digit of pi yourself, then you didn’t
//know how the children’s children’s children would calculate it, for all that
//the fact was trivial.
Та навіть якщо сформулювати питання до нащадків людства, спитавши їхньої думки,
відповідь все одно даватимеш ти сам, базуючись на власних знаннях, а не на
їхніх, тож відповідь ця все одно може бути помилковою. Якщо сам ти не знаєш
соту цифру в числі пі, то і не знаєш, як це число обчислюватимуть нащадки, хай
як тривіальна ця тема.

***

// 15124
//Slowly - he’d been lying there, looking at the stars, for longer than he’d
//planned - Harry sat up from the ground. Pushing himself to his feet, the
//muscles protesting, he walked over to the edge of the stone platform at the
//height of the Ravenclaw tower. The stone crenellations surrounding the edge of
//the tower weren’t high, not high enough to be safe. They were markers, clearly,
//rather than railings. Harry didn’t approach too close to the edge; there was no
//point in taking chances. Looking down at the Hogwarts grounds below, he was
//predictably feeling a sense of dizziness, the wobbly affliction called vertigo.
//His brain was alarmed, it seemed, because the ground below was so
//__distant__. It might have been fully 50 meters away.
Повільно -- він бо лежав тут, дивлячись на зірки, довше, ніж збирався, -- Гаррі
сів. Він обережно звівся на ноги, долаючи опір застиглих м'язів, підійшов до
краю кам'яного майданчика на вершині рейвенкловської вежі. Зубчата стіна
довкола вежі була невисока, недостатньо висока, щоб почуватися у безпеці.
Бортик був скоріш декоративний, ніж страхувальний. Гаррі не наближався до
краю; нащо зайвий ризик. Подивившись на землі Гоґвортсу далеко внизу, він
цілком очікувано відчув запаморочення, ілюзорне відчуття обертання. Видається,
його мозок стривожився, бо земля внизу була так __далеко__. На відстані,
можливо, повних 50 метрів.

// 15125
//The lesson, it seemed, was that things had to be __incredibly__ close by
//before your brain could comprehend them well enough to feel fear.
Сьогоднішній урок, видається, полягає в тому, що треба __неймовірно__ близько
до чогось підійти, щоб мозок зміг охопити це щось достатньо, щоб злякатися.

// 15126
//It was a rare brain that could feel strongly about anything, if it wasn’t close
//in space, close in time, near at hand, within easy reach…
Рідкісний мозок здатен реагувати на щось віддалене у просторі чи часі. Мозок
цікавить те, що під рукою, що можна помацати...

// 15127
//Before, Harry had imagined that going to Azkaban would require planning and
//cooperation from a grownup confederate. Portkeys, broomsticks, invisibility
//spells. Some way of getting to the bottom levels without the Aurors noticing,
//so he could carve his way into the central pit where the shadows of Death
//waited.
Раніше Гаррі гадав, що для нового візиту в Азкабан йому знадобиться планування
й співпраця з боку дорослого спільника. Летиключі, мітли, плащі-невидимки.
Якийсь спосіб дістатись нижніх рівнів, не потурбувавши аврорів, і потрапити
туди, де чигають тіні смерті.

// 15128
//And that had been enough to put the prospect away, into the future, safely
//apart from the __now__.
І цього було достатньо, щоб відкласти цей план на далеку перспективу, безпечно
відтермінувати його подалі від __тепер__.

// 15129
//He hadn’t realized until today that it might be as simple as finding Fawkes and
//telling the phoenix that it was time.
До сьогодні він не розумів, що насправді все просто -- треба лише знайти Фоукса
і сказати йому, що час настав.

// 15130
//Memories were rising up again, memories that Harry could never manage to forget
//for long. Though the stones beneath his feet were not smooth like metal, though
//the moonlit sky stretched all around him, somehow it was very easy to imagine
//himself trapped in a long metal corridor lit by dim orange light.
Спогади знову здійнялися в ньому -- спогади, які Гаррі ніколи не міг надовго
забути. Хоча каміння під ним не було гладеньким мов метал, хоча навколо нього
було осяяне місяцем небо, чомусь дуже легко було уявити себе в пастці довгого
металевого коридору в тьмяному оранжевому світлі.

// 15131
//The night was quiet, quiet enough for memories to be clearly audible.
Ніч була тиха -- достатньо тиха, щоб спогади були ясно чутні.

// 15132
//__No, I didn’t mean it, please don’t die!__
// hedrok: Копія з 055:9776
__Ні, я не хотіла, будь ласка, не помирай!__

// 15133
//__No, I didn’t mean it, please don’t die!__
__Ні, я не хотіла, будь ласка, не помирай!__

// 15134
//__Don’t take it away, don’t don’t don’t -__
// hedrok: Копія з 055:9800
__Не забирай його, не-не-не...__

// 15135
//The world blurred, and Harry wiped his eyes with his sleeve.
Зображення світу розмилося, і Гаррі витер очі рукавом.

// 15136
//If __Hermione__ had been the one behind that door -
Якби за тими дверима була __Герміона__...

// 15137
//If Hermione had been put in Azkaban, Harry would have called the phoenix and
//gone there and burned away every last Dementor and it wouldn’t have made a
//single difference how crazy it was or what else he’d wanted to do with his
//life. That was just - that was - that was just how it was.
Якби Герміону запроторили були в Азкабан, Гаррі би покликав фенікса, полетів
туди і спалив дощенту всіх дементорів до останнього, яке б це не було
божевілля, які б не були його плани на життя. Він би просто... він би зробив це,
і край.

// 15138
//And the woman who __was__ behind that door - wasn’t there someone,
//somewhere, to whom she too was precious? Wasn’t it only Harry’s distance from
//her life that was preventing his brain from being driven to Azkaban to
//__save her no matter what?__ What would it have taken to compel him? Would
//he have needed to know her face? Her name? Her favorite color? Would he have
//been driven to Azkaban to save Tracey Davis? Would he have been compelled there
//to save Professor McGonagall? Mum and Dad - there wasn’t even any question. And
//that woman had said she was someone’s mother. How many people had wished for
//the power to break Azkaban? How many prisoners of Azkaban dreamed nightly of
//such a miraculous rescue?
А __та__ жінка, за __тими__ дверима -- був, напевно, хтось, десь, кому вона теж
була дорога? Хіба не відстань від її життя не дає Гаррі
рвонути рятувати її з Азкабану __попри всі перешкоди__? Що потрібно, щоб штовхнути його
на цей крок? Можливо, достатньо було б знати її в обличчя? Чи знати, як її
звуть? Її улюблений колір? Полетів би він рятувати з Азкабану Трейсі Девіс? А
як щодо професорки Макґонеґел? Мама й тато -- звісно, тут жодних питань. А та
жінка сказала була, що вона -- чиясь мати. Скільки людей хотіло б мати
достатньо сил, щоб увірватися до Азкабану? Скільки в'язнів Азкабану щоночі
бачать сни про дивовижний порятунок?

// 15139
//__None. It’s a happy thought.__
__Жоден. Адже це щаслива думка.__

// 15140
//Maybe he __should__ harrow Azkaban. All he had to do was find Fawkes and
//tell him it was time. Visualize the center of the Dementor’s pit as he’d seen
//it from the broomstick, and let the phoenix take him there. Cast the True
//Patronus Charm at point-blank range and to hell with what came after.
Мабуть, він __мусить__ знищити Азкабан. Треба лише знайти Фоукса й сказати, що
час настав. Уявити центр ями з дементорами, що він його бачив тоді
з мітли. Дозволити феніксу перенести його туди. Накласти
чари істинного патронуса і до дідька всі наслідки.

// 15141
//All he had to do was go find Fawkes.
Треба було лише знайти Фоукса.

// 15142
//It might be as simple as thinking of the flame, calling for the fire-bird in
//his heart -
Можливо, можна просто подумати про вогонь, покликати вогняного птаха в глибині
свого серця...

// 15143
//A star flashed in the night.
На нічному небі спалахнула зірка.

// 15144
//By the time Harry’s eyes had jumped with a reflex action trained on meteor
//showers, another part of him was surprised that the astronomical phenomenon was
//still there; a faint star whose brightness was slowly visibly waxing. There was
//a startled moment when Harry wondered whether he was seeing, not a meteor, but
//a nova or supernova - could you __see__ them getting brighter like that?
//Was the first stage of a nova supposed to be that yellow-orange color?
Коли погляд Гаррі, тренований на завжди несподівані метеоритні дощі, опинився в
цій точці, якась частина його вже дивувалася, як це, що зірка й досі там; бліда
зірка, що її яскравість поступово, але відчутно зростає. Якусь секунду Гаррі
подумав, а чи не бачить від народження нової або наднової зорі. Хоча, чи можна
справді __побачити__ їхню зміну яскравості? Хіба перша фаза нової не має бути
жовто-помаранчевого кольору?

// 15145
//Then the new star moved again, and seemed to grow as well as brightening. It
//looked __closer__ suddenly, no longer so far away that distance became
//moot. Like what you thought was a star, turning out to be an airplane, a
//lighted form whose shape you could actually see…
Тоді нова зірка знову ворухнулася, і ніби почала ще й збільшуватись. Вона
раптом __поближчала__, вже не була так далеко, що відстань була незбагненною.
Ніби ви гадали, що бачите зірку, а виявилося, що це літак, підсвічену форму
якого ви змогли побачити...

// 15146
//…no, not a plane…
...ні, не літак...

// 15147
//The realization seemed to spread out from Harry’s chest in a wave of prickling,
//sweat preparing to break out.
Впізнавання зажевріло Гаррі в грудях, розтеклося мов тепла хвиля, і він спітнів
від передчуття.

// 15148
//…a bird.
...птах.

// 15149
//A piercing cry split the night, echoing from the rooftops of Hogwarts.
Різкий крик розколов ніч, відбився луною від дахів Гоґвортсу.

// 15150
//The approaching creature trailed fire as it flew, shedding golden flames like
//sparks from its feathers as the mighty wings beat and beat again. Even as it
//swooped up in a great curve to hover a few paces away from Harry, even as the
//flames surrounding its passage diminished, the creature seemed no dimmer, no
//less bright; as though some unseen Sun shone upon it and illuminated it.
Постать, що стрімко наближалася, лишала по собі вогняний слід, а ще палахкотіла
іскрами, що сипалися з пір'я, коли могутні крила били в повітрі. І ось уже
істота сповільнилася по широкій дузі, щоб зависнути в кількох кроках від Гаррі, і
вогняний слід на небі потьмянів -- та її власне світло не вщухає й не блякне;
ніби якесь невидне сонце світить і освітлює його.

// 15151
//Great shining wings red like a sunset, and eyes like incandescent pearls,
//blazing with golden fire and determination.
Величезні сяючі крила, червоні, як захід сонця; очі, як палаючі перли, а в очах
-- золотий вогонь і рішучість.

// 15152
//The phoenix’s beak opened, and let out a great caw that Harry understood as
//though it had been a spoken word:
Фенікс відкрив дзьоб і вилучив із себе гучний скрегіт, що його зміст Гаррі
легко зрозумів, так, ніби людською мовою було сказано:

// 15153
//__COME!__
__РУШАЙМО!__

// 15154
//Not even realizing, the boy stumbled back from the edge of the rooftop, eyes
//still locked on the phoenix, his whole body trembling and tensed, his fists
//clutching and releasing at his side; stepping back, stepping away.
Несвідомо хлопець позадкував від краю даху. Він не віднімав погляду від
фенікса, а все його тіло тремтіло від напруження; він то стискав кулаки, то
кидав руки висіти по боках тіла; і увесь час він відступав -- назад, далі він
фенікса.

// 15155
//The phoenix cawed again, a desperate, pleading, sound. It didn’t come through
//in words, this time, but it came through in feelings, an echo of everything
//that Harry had ever felt about Azkaban and every temptation to __action,__
//to just __do__ something about it, the desperate need to do something
//__now__ and not delay any longer, all spoken in the cry of a bird.
Фенікс знову крикнув -- відчайдушний, сповнений благання звук. Цього разу в
ньому не було слів -- лише почуття, що відлунювали всі почуття Гаррі щодо
Азкабану, спокусу __діяти__, просто __зробити__ щось із цим, несамовита потреба
зробити щось __зараз__, не відкладати далі ані на секунду -- усе це було в
скрику птаха.

// 15156
//__Let’s go. It’s time.__ The voice that spoke came from inside Harry, not
//from the phoenix; from so deep inside it couldn’t be given a separate name like
//‘Gryffindor’.
__Ходімо. Час настав.__ Голос прозвучав тепер всередині Гаррі, не від фенікса;
в такій глибині він звучав, що й окремого ймення, скажімо, "`грифіндорець`", вже не
можна було йому дати.

// 15157
//All he had to do was step forward and touch the phoenix’s talons, and it would
//take him where he needed to be, where he kept thinking he ought to be, down
//into the central pit of Azkaban. Harry could see the image in his mind, shining
//with unbearable clarity, the image of himself suddenly smiling with joyous
//release as he threw all his fears away and __chose__ -
Лише і треба -- зробити крок уперед, торкнутися кігтів фенікса, і він віднесе
Гаррі туди, де йому треба бути, де, як йому увесь час і здавалося, він мусить
бути, -- вниз, у центральну прірву під Азкабаном. Ця картина стояла в Гаррі перед
очима, така чітка й реальна, що це було нестерпно -- як він радісно
всміхається, нарешті відкинувши всі свої страхи і __робить вибір__...

// 15158
//“But I -” Harry whispered, not even aware of what he was saying. Harry lifted
//his shaking hands to wipe at his eyes from which tears had sprung, as the
//phoenix hovered before him with great wing-sweeps. “But I - there’s other
//people I also have to save, other things I have to do -”
-- Але ж я... -- вичавив із себе Гаррі, ще не усвідомлюючи, що каже. Гаррі
підвів долоні до обличчя, щоб витерти сльози, що проступили йому на очах.
Фенікс висів у повітрі поряд, підтримував себе широкими помахами крил. -- Але ж
я... є інші люди, яких я теж маю врятувати, інші речі, які я мушу зробити...

// 15159
//The fire-bird let out a piercing scream, and the boy flinched back as though
//from a blow. It wasn’t a command, it wasn’t an objection, it was the
//__knowledge -__
Вогняний птах пронизливо крикнув, і хлопчик сахнувся, як від удару. Це був не
наказ, не заперечення, це було __знання__...

// 15160
//The corridors lit by dim orange light.
Освітлені тьмяним оранжевим світлом коридори.

// 15161
//It felt like a tightening compulsion in Harry’s chest, the desire to just
//__do __it and get it over with. He might die, but if he didn’t die he
//could feel __clean__ again. Have principles that were more than excuses
//for inaction. It was __his__ life. His to spend, if he chose. He could do
//it any time he wanted…
Серце в Гаррі стискалося, йому хотілося просто __зробити__ це і покінчити з
цим нарешті. Можливо, він помре, та якщо не помре, то зможе нарешті
__очиститися__. Зможе мати принципи, що важать більше, ніж прості відмовки, щоб
нічого не робити. Це __його__ життя. Може витрачати його, як хоче. Може зробити
це, коли йому заманеться, в будь-який час...


// 15162
//…if he wasn’t a good person.
...якби він не був хорошою людиною.

***

// 15163
//The boy stood there on the rooftop, his own eyes locked with two points of
//fire. The stars might have had time to shift in their constellations while he
//stood there, agonizing over the decision…
Хлопець стояв на даху, його очі навпроти двох вогняних кульок. Можливо, зірки
мали час зрушити з місця в своїх сузір'ях, доки він стояв там, стояв і мучився
вибором...

// 15164
//…that wouldn’t…
...вибором, що...

// 15165
//…change.
...не зміниться.

// 15166
//The boy’s eyes flickered once to the stars above; and then he looked at the
//phoenix.
Очі хлопця один раз зиркнули на зорі вгорі; тоді він повернув увагу до фенікса.

// 15167
//“Not yet,” the boy said in a voice hardly audible. “Not yet. There’s too much
//else I have to do. Please come back later, when I’ve found others who can cast
//the True Patronus - in six months, maybe -”
-- Ще ні, -- промовив хлопець, майже нечутно. -- Ще ні. В мене ще
забагато завдань. Будь ласка, повернись потім, коли я знайду інших, що вміють
викликати справжнього патронуса... може, за пів року...

// 15168
//Without word, without sound, a sphere of fire surrounded the bird’s form,
//crackling and blazing with white and crimson veins as though it meant to
//consume that which lay within; and when the fire dispersed into grey smoke, no
//phoenix remained.
Без жодного слова чи звуку постать птаха огорнулася вогнем; вогняна сфера
тріскотіла й спалахувала білими та кармінними венами так, ніби хотіла пожерти те,
що було всередині неї; а коли вогонь розвіявся сірим димом, фенікса вже не
було.

// 15169
//There was silence on the top of the Ravenclaw tower. The boy gradually lowered
//his hands from his ears, pausing only to wipe at his wet cheeks.
На верхівці Рейвенкловської вежі запала тиша. Хлопець повільно відняв долоні
від вух, зупинився, щоб протерти мокрі щоки.

// 15170
//Slowly, the boy turned -
Повільно хлопець повернувся...

// 15171
//Then cried out and leapt back and almost fell off the Ravenclaw tower; though
//the misstep would hardly have mattered, with that other wizard standing there.
А тоді закричав і відстрибнув назад так, що майже впав з Рейвенкловської вежі;
хоча мабуть, впасти йому все одно не вдалося б у присутності цього іншого
мага, що стояв тепер на даху.

// 15172
//“And so it was done,” Albus Dumbledore said, almost in a whisper. “So it was
//done.” Fawkes was on his shoulder, staring at where the other phoenix had been
//with an indecipherable avian gaze.
-- І так воно сталося, -- промовив Албус Дамблдор, майже пошепки. -- Так воно
сталося.

На його плечі сидів Фоукс, він роздивлявся місце, де щойно зникнув
інший фенікс своїм пташиним поглядом, що його не можливо було прочитати.

// 15173
//“__What are you doing here?__”
-- __Що ви тут робите?__

// 15174
//“Ah?” said the ancient man standing on the roof-platform’s opposite corner. “I
//felt the presence of a creature Hogwarts did not know, and came to see, of
//course.” Slowly the old wizard’s shaking hand came up to remove the half-moon
//glasses, his other hand wiped at his eyes and forehead with his robe’s sleeve.
//“I dared - I dared not speak - I knew, I knew this choice above all choices
//must be your own -”
-- Ась? -- відгукнувся древній стариган, що стояв у протилежному кутку дахового
майданчика. -- Я відчув присутність створіння, що його Гоґвортс не впізнав, і
прийшов подивитися, звичайно, -- повільно тремтяча рука старого чарівника
піднялася зняти серпасті окуляри, а інша -- витерти очі й лоба рукавом мантії.
-- Я не смів... не наважувався говорити... я знав, знав, що з усіх виборів цей
-- мусить бути твоїм власним...

// 15175
//A strange apprehension was beginning to fill Harry, welling up in him like a
//sick feeling in his stomach.
Гаррі відчув тривогу, що наростала в ньому, мов нудота в шлунку.

// 15176
//“That everything depended on this,” Albus Dumbledore said, still in that
//almost-whisper, “that much I knew. But which choice led into darkness, that I
//could not guess. At least the choice was your own.”
-- Що все залежить від цього вибору, -- провадив Албус Дамблдор далі, досі
напівпошепки, -- це я розумів. Та який вибір веде у темряву -- не знав.
Та, принаймні, цей вибір твій власний.

// 15177
//“I don’t -” Harry said, and then his voice stopped.
-- Я не... -- почав Гаррі, і зупинився.

// 15178
//A terrible hypothesis, rising in credibility…
Жахлива гіпотеза, дедалі більш імовірна...

// 15179
//“The phoenix comes,” said the old wizard. “To those who would fight, to those
//would act even at cost of their lives, the phoenix comes. Phoenixes are not
//wise, Harry, they know no means to judge us, save witnessing the choice. I
//thought it was to my death I went, when the phoenix took me to fight
//Grindelwald. I did not know that Fawkes would sustain me, and heal me, and stay
//by my side -” The old wizard’s voice quavered, for a moment. “It is not spoken
//of - you should realize, Harry, why it is never spoken of - if the one knew,
//the phoenix could not judge. But to you, Harry, I may say it now, for the
//phoenix comes only once.”
-- Фенікс приходить, -- пояснив старий чарівник, -- до тих, хто готовий битися;
до тих, хто діятиме, не шкодуючи свого життя. Фенікси не мудрі, Гаррі, і не
можуть нас оцінювати і судити, вони -- лише свідки вибору. Я гадав, що йду на
смерть, коли фенікс поніс мене битися з Ґріндельвальдом. Я не знав, що Фоукс
підтримуватиме мене, лікуватиме мене і лишиться зі мною... -- голос старого
чарівника на мить затремтів. -- Про це не говорять... Ти мусиш зрозуміти,
Гаррі, чому... якби хтось знав, фенікс не зміг би розсудити правильно. Але
тобі, Гаррі, вже можна це чути, позаяк фенікс приходить лише один раз.

// 15180
//The old wizard walked across the top of the Ravenclaw tower to where a boy
//stood rooted in dawning horror, in dawning and utter horror.
Старий чарівник перетнув оглядовий майданчик рейвенкловської вежі і підійшов
до хлопця, що заклякнув був у жахливому усвідомленні.

// 15181
//__In my duel with Grindelwald I could not win, only fight him for long
//hours until he collapsed in exhaustion; and I would have died of it afterward,
//if not for Fawkes -__
// hedrok: про 077:13528, але слова трохи відрізняються
__В моїй дуелі з Ґріндельвальдом я не міг перемогти, тільки битися з ним багато
годин, щоб він впав у знемозі; і я б теж загинув від неї згодом, якби не
Фоукс...__

// 15182
//Harry didn’t even know he was speaking, until the whisper had escaped him -
Гаррі навіть не розумів, що говорить, доки не почув власний шепіт...

// 15183
//“Then I __could__ have -”
-- Виходить, я __міг__ би...

// 15184
//“Could you have?” said the ancient wizard, his voice sounding far older than
//his normal tones. “Three times, now, a phoenix has come for my student. One did
//send hers away, and the grief of it broke her, I think. And the last was cousin
//to your young friend Lavender Brown, and he -” The old wizard’s voice cracked.
//“He did not return, did poor John, and he saved none of those he meant to save.
//It is said, among the few scholars of phoenix-lore, that not one in four
//returns from their ordeal. And even if you did survive - for the life you must
//lead, Harry James Potter-Evans-Verres - the choices you must make and the path
//you must walk - to always hear the phoenix’s cries - who is to say it would not
//have driven you mad?” The old wizard raised his sleeve again, drawing it once
//more across his face. “I had more joy of Fawkes’s companionship, in the days
//before I fought Voldemort.”
-- Чи міг би? -- запитався древній чарівник, і голос його звучав значно старше,
ніж зазвичай. -- Тепер вже тричі фенікс прилітав по моїх учнів. Одна відіслала
його, і горе від вчиненого, здається, розчавило її. Другий був кузеном твоєї
юної подруги Лаванди Браун, і він... -- тут голос старого чарівника затнувся.
-- Він не повернувся, бідний Джон, і не врятував нікого з тих, кого збирався
врятувати. Серед небагатьох знавців феніксів подейкують, що лише один з чотирьох
повертається зі свого походу. Та навіть якби ти вижив -- для якого життя,
Гаррі Джеймс Поттер-Еванс-Веррес? Для життя, в якому ти мусив би завжди чути
крики фенікса -- хтозна, не звело б це тебе з розуму? -- старий чарівник знову
утерся рукавом. -- Я більше любив компанію Фоукса до того, як почав боротьбу з
Волдемортом.

// 15185
//The boy did not seem to be listening, all his eyes were on the red-gold bird on
//the ancient wizard’s shoulder. “Fawkes?” the boy said in shaking voice. “Why
//won’t you look at me, Fawkes?”
Здавалося, хлопець не слухає, він дивився лише на червоно-золотого птаха на
плечі чарівника.

-- Фоуксе? -- тремтячим голосом звернувся він до фенікса. -- Чому ти не дивишся
на мене, Фоуксе?

// 15186
//Fawkes craned his head to peer at the boy curiously, then turned back and
//resumed gazing at his master.
Фоукс нахилив голову й зацікавлено подивився на хлопця, тоді обернувся назад і
продовжив вивчати свого власника.

// 15187
//“See?” said the old wizard. “He does not reject you. Fawkes may not be
//interested in you in quite that way, now; and he knows -” the wizard smiled
//wryly, “- that you are not exactly loyal to his master. But one to whom the
//phoenix comes at all - cannot be one whom a phoenix would dislike.” The
//wizard’s voice fell to a whisper again. “There never was a bird seen on Godric
//Gryffindor’s shoulder. Though it is not written even in his secrets, I think he
//must have sent his phoenix away, before he chose the red and gold for his
//colors. Perhaps the guilt of it urged him to greater lengths than he ever would
//have dared otherwise. Or it might have taught him humility, and respect for
//human frailty, and failure…” The wizard bowed his head. “I truly do not know if
//your choice was wise. I truly do not know if it was the right thing, or the
//wrong thing. If I knew, Harry, I would have spoken. But I -” Dumbledore’s voice
//broke, then. “I am nothing but a foolish young boy who has become a foolish old
//man, and I have no wisdom.”
-- Бачиш? -- сказав старий чарівник. -- Він не зневажає тебе. Можливо, тепер
ти його не так цікавиш; і він знає... -- тут чарівник сардонічно посміхнувся,
-- що ти не надто вірний його господареві. Втім, людина, до якої фенікс
взагалі прилітав, -- не може бути неприємна феніксу, -- голос чарівника знову
стишився до шепоту. -- На плечі Ґодрика Ґрифіндора ніколи не бачили птаха. Хоча
це ніде не записано, я гадаю, він відіслав свого фенікса, перш ніж обрав
червоний і золотий своїми офіційними кольорами. Можливо, відчуття провини за
цей вчинок гнало його далі, ніж він дійшов би інакше. А може цей досвід
навчив його покорі й скромності, повазі до слабкості людей, навчив поразці...
-- чарівник похитав головою. -- Я дійсно не знаю, чи ти зробив мудрий вибір. Я
дійсно не знаю, чи це було правильно, чи неправильно. Якби я знав, Гаррі, я б
заговорив. Але я... -- Дамблдору знову перебило подих. -- Я лише дурний
маленький хлопчик, що виріс у дурного стариганя, і мудрості в мене катма.

// 15188
//Harry couldn’t breathe, the nausea seeming to fill and overflow his whole body,
//stomach locked solid. He was suddenly and terribly certain that he had failed,
//in some final sense failed, failed this very night -
Гаррі не міг дихати, нудота підбиралася йому до горла, а живіт скрутило
намертво. Він раптово і остаточно усвідомив, що зазнав поразки в якомусь
фінальному, остаточному сенсі -- зазнав поразки саме цієї ночі...

// 15189
//The boy whirled and ran out to the curb of the Ravenclaw rooftop. “Come back!”
//His voice cracked, rising to a shriek. __“Come back!__”
Хлопець стрімко обернувся й вибіг до краю рейвенкловського даху.

-- Повернися! -- його голос тріснув, піднявся майже до вереску. -- __Повернися!__

***

// 15190
//__Final Aftermath:__
__Останній наслідок:__

// 15191
//She came awake with a gasp of horror, she woke with an unvoiced scream on her
//lips and no words came forth, she could not understand what she had seen,
//__she could not understand what she had seen__ -
Вона прокинулася від жаху, хапаючи ротом повітря, на її губах застиг крик, але
слів не було, вона не розуміла, що була побачила, __не розуміла, що була
побачила__...

// 15192
//“What time is it?” she whispered.
-- Котра година? -- вичавила з себе вона.

// 15193
//Her golden jeweled alarm clock whispered back, “Around eleven at night. Go back
//to sleep.”
Її золотий, інкрустований коштовним камінням будильник, прошепотів у
відповідь:

-- Близько одинадцятої ночі. Повертайся в ліжко.

// 15194
//Her sheets were soaked in sweat, her nightclothes soaked in sweat, she took her
//wand from beside the pillow and cleaned herself up before she tried to go back
//to sleep and eventually succeeded.
Вся її постіль була мокра від поту, нічний одяг просякнутий потом теж, тож
вона взяла паличку з подушки поряд, привела себе до ладу, спробувала заснути, і
врешті-решт їй це вдалося.

// 15195
//Sybill Trelawney went back to sleep.
Сивіла Трелоні знову заснула.

// 15196
//In the Forbidden Forest, a centaur woken by a nameless apprehension ceased
//scanning the night sky, having found only questions there and no answers; and
//with a folding of his many legs, Firenze went back to sleep.
У забороненому лісі кентавр, що його розбудило якесь безіменне передчуття,
припинив роздивлятися нічне небо, бо він знайшов там лише питання і жодних
відповідей; тож, вклавши ноги зручніше, Фіренце знову заснув.

// 15197
//In the distant lands of magical Asia, an ancient witch named Fan Tong, sleeping
//the tired days away, told her anxious great-great-grandson that she was fine,
//it had only been a nightmare, and went back to sleep.
В далеких землях магічної Азії древня відьма на ім'я Фен Тонґ, що спала вдень,
сказала стурбованому пра-пра-пра-онуку, що, мовляв, в неї все гаразд, це був лише
нічний кошмар, і знову заснула.

// 15198
//In a land where Muggleborns received no letters of any kind, a girl-child too
//young to have a name of her own was rocked in the arms of her annoyed but
//loving mother until she stopped crying and went back to sleep.
В землі, де маґли ніколи не отримують листів, дівчинка, така маленька, що
навіть власного імені в неї ще не було, плакала на руках своєї роздратованої,
але люблячої матері, аж доки вона не заспокоїлася й не заснула.


// 15199
//None of them slept well.
Всім їм спалося погано.
