// 18743
//== Failure, Pt 1
== Розділ 111. Невдача, ч.1

// 18744
//The Dark Lord was laughing.
Темний Лорд сміявся.

// 18745
//From the empty air came the voice of the Defense Professor laughing wildly, so
//high and terrible his laughter; it was Voldemort’s laughter now, the Dark
//Lord’s laughter beyond all hiding or restraint.
Посеред порожнього повітря лунав дикий сміх професора із захисту -- високим і
жахливим був його сміх. Тепер це був сміх Волдеморта, сміх Темного Лорда без
жодних спроб його сховати чи стримати.

// 18746
//Harry’s mind was disarrayed. His eyes kept staring at where Albus Dumbledore
//had been. There was a horror in him that was too huge for understanding or
//reflection. His mind kept trying to fall back through time and undo reality,
//but that wasn’t a sort of magic that existed, and reality stayed the same.
Думки Гаррі були в хаосі. Він ніяк не міг відвести очі від місця, де щойно був
Албус Дамблдор. У Гаррі наростав надто великий жах, щоб мати змогу розуміти й
міркувати. Розум намагався повернутися в часі й скасувати дійсність, та такої
магії не існувало, тож дійсність лишалася незмінною.

// 18747
//He had lost, he had lost Dumbledore, there were no take-backs, and that meant
//he had lost the war.
Він програв, він втратив був Дамблдора, не було жодних шансів щось виправити,
отже він програв був війну.

// 18748
//And the Dark Lord went on laughing.
Темний Лорд і далі реготав.

// 18749
//“Ah, ah hah, ah hah hah ha! Professor Dumbledore, ah, Professor Dumbledore,
//such a fitting end to our game!” Another burst of wild laughter. “The wrong
//sacrifice even at the finish, for the piece you gave up everything to save was
//already in my possession! The wrong trap even from the beginning, for I could
//have abandoned this body at any time! Ah, hahahahaha, aha! You never did learn
//cunning, you poor old fool.”
-- Ах, ах-ха, ах-хах-хах-ха! Професоре Дамблдор, ах, професоре Дамблдор, який
доречний фінал нашої гри! -- знову вибух дикого сміху. -- Неправильна пожертва
навіть наприкінці, бо фігура, задля порятунку якої ти віддав усе, вже моя!
Неправильна пастка від самого початку, бо я міг покинути це тіло в будь-яку
мить! Ах, хахахахаха, аха! Ти так і не навчився бути хитрим, бідолашний старий
дурню.

// 18750
//“You -” A voice was coming from Harry’s throat. “You -”
-- Ви... -- пролунало з горла Гаррі. -- Ви...

// 18751
//“Ahahahaha! Why, yes, little child, you were always along on this adventure as
//my hostage, it was your whole purpose in being here. Ha, hahahaha! You are
//decades too young to play this game against the real Tom Riddle, child.” The
//Dark Lord drew back the hood of the Cloak, his head becoming visible, and began
//to remove the rest of the Cloak. “And now, boy, __you have helped me,
//yess indeed, and so it iss time to ressurrect your girl-child friend. To keep
//promisse.__” The Dark Lord’s smile was cold, cold indeed. “I suppose you have
//doubts? Mark well, I could kill you this instant, for there is no longer a
//Headmaster of Hogwarts to be informed of it. Doubt me all you wish, but
//remember that.” The hand was once more holding the gun. “Now come along,
//foolish child.”
-- Ахахахаха! О так, дитятко, ти з самого початку цієї пригоди був моїм
заручником, лише для цього ти був тут. Ха, хахахаха! Ти на десятиліття
замолодий, щоб грати проти справжнього Тома Редла, дитя, -- Темний Лорд відкинув
каптур Плаща, його голову знову стало видно, а тоді почав знімати Плащ. -- А
тепер, хлопче, __ти допоміг мені, о так, тож часс восскрессити твою
дівчину-подругу. Шщоб не порушшити сслово__, -- посмішка Темного Лорда була
холодною, справді холодною. -- Гадаю, ти маєш сумніви? Знай, я можу вбити тебе
хоч зараз, бо вже немає директора Гоґвортсу, тож нікого про це не буде
повідомлено, -- у його руці знову зʼявився пістолет. -- А тепер ходімо, дурне
дитя.

// 18752
//And they left.
І вони пішли.

// 18753
//They went back out through the door into the Potions room, the Dark Lord
//banishing the returned purple fire with a stroke of his wand. They went through
//the chamber where the boggart had been, and the chamber of ruined chess
//statues, and through the burned door of the chamber of keys. The Dark Lord
//floated up through the trapdoor, and Harry struggled up afterward through the
//spiral staircase of leaves, the tendrils of the Devil’s Snare twitching and
//then moving back as though afraid. The Boy-Who-Lived was trying hard not to
//burst into tears, and his dark-side patterns weren’t helping, maybe because
//Voldemort had never known or dealt with guilt.
Вони повернулися крізь двері до кімнати зіль, Темний Лорд помахом палички
загасив пурпуровий вогонь, що повернувся на місце. Вони пройшли кімнатою, де був
ховчик, кімнатою зі зруйнованими шаховими статуями, крізь згорілі двері до
кімнати з ключами. Темний Лорд піднісся крізь люк, і Гаррі ледве видряпався
слідом за ним спіральними листяними сходами, вусики пастки диявола смикнулися,
але лише відсахнулися, ніби від страху. Хлопчик-Що-Вижив докладав неймовірних
зусиль, щоб не розплакатися, темна сторона нічим не могла зарадити -- напевно,
Волдеморт ніколи не відчував провини.

// 18754
//They passed the huge three-headed Inferi, and at a whispered word from the Dark
//Lord it collapsed over the trapdoor and became a corpse again.
Вони пройшли повз величезного триголового інферія, Темний Лорд прошепотів слово,
і той впав на люк, знову ставши просто трупом.

// 18755
//They passed Severus Snape standing guard, who told them both that he was
//guarding the door, and that they must leave or he would deduct House points.
Вони пройшли повз Северуса Снейпа, той лише сказав, що охороняє двері і вони
мають піти, або він почне знімати очки гуртожитків.

// 18756
//The Dark Lord spoke the words __“Hyakuju montauk”__ without pausing in his
//stride, accompanied by a jab of his wand; and Severus staggered before he
//lifelessly drew himself up beside the door once more.
Темний Лорд, навіть не сповільнившись, вимовив "`__хякуджюу монтаук__`" з різким
ударом паличкою. Северус впав і знову розтягнувся на підлозі без ознак життя.

// 18757
//“What -” Harry said, as he followed. “What did you -”
-- Що... -- сказав Гаррі, що йшов слідом. -- Що ви...

// 18758
//“Just fulfilling my obligation to my faithful servant. It shall not kill him,
//as I promised you.” The Dark Lord laughed again.
-- Просто даю належне моєму вірному слузі. Це його не вбʼє, як я тобі й обіцяв,
-- Темний Лорд знову розсміявся.

// 18759
//“The hostages -” Harry said. It was hard to keep his voice steady. “The
//students, you said you’d stop whatever is going to kill them -”
-- Заручники... -- нагадав Гаррі, йому доводилося докладати зусиль, щоб голос не
зривався. -- Учні, ви сказали, що зупините те, що їх убʼє...

// 18760
//“__Yess. Sstop worrying. Will do on our way out.__”
-- __Так. Припини хвилюватисся. Зроблю це по дорозі звідсси.__

// 18761
//“Out?”
-- Звідси?

// 18762
//“We are leaving, child.” The Dark Lord was still smiling.
-- Ми йдемо звідси, дитя, -- посмішка не зникала з лиця Темного Лорда.

// 18763
//The bad feeling this raised was lost in a sea of other bad feelings.
Погане передчуття здійнялося серед моря інших поганих відчуттів.

// 18764
//The Dark Lord was now consulting what he’d called the Hogwarts Map, the
//handwritten lines upon it seeming to move as they walked. Some part of Harry’s
//mind that had been considering what to do if they ran into Aurors on patrol
//(whom the Dark Lord could kill, or Obliviate, in an instant) gave up that hope
//as well.
//! 8%
Тепер Темний Лорд дивився на те, що він називав Картою Гоґвортсу. Написані від
руки лінії ніби рухалися, коли вони йшли. Частина розуму Гаррі обмірковувала, що
робити, якщо вони натраплять на загін аврорів (Темний Лорд зможе їх миттєво
вбити чи забуттятнути), і втратив навіть цю надію.

// 18765
//They went down the Grand Staircase to the second floor, encountering no one.
Вони спустилися головними сходами на другий поверх, не стрівши нікого.

// 18766
//The Dark Lord made a turn Harry did not know, and went down another
//stair-flight. As they descended past one floor and another, the windows stopped
//and the torches began, they were within the Slytherin dungeons now.
Темний Лорд завернув у якийсь прохід, якого Гаррі не знав, і спустився ще на
марш сходів. Вони спускалися поверх за поверхом, вікна скінчилися, почалися
смолоскипи -- тепер вони були в слизеринських підземеллях.

// 18767
//Ahead, the form of a person in Hogwarts robes appeared.
Попереду них зʼявилася людина в мантії.

// 18768
//The Dark Lord kept walking toward that person.
Темний Лорд до неї наблизився.

// 18769
//Harry followed.
Гаррі йшов слідом.

// 18770
//A sixth or seventh-year Slytherin was waiting by a section of wall that was set
//with an artistic carving of Salazar Slytherin wielding his wand, against what
//looked like a giant covered in icicles. The witch made no comment at seeing
//Professor Quirrell walking upright, or seeing Harry in his company, or seeing
//the gun in the Defense Professor’s hand. If her eyes were blank, Harry couldn’t
//tell the difference.
Шести- чи семикласниця зі Слизерину чекала коло секції стіни, на якій була
вирізьблена сцена: Салазар Слизерин здійняв паличку проти велетня, вкритого
бурульками. Відьма жодним чином не прокоментувала, що професор Квірел спокійно
ходить, що Гаррі з ним, що в руці професора із захисту пістолет. Наскільки міг
судити Гаррі, вона взагалі могла нічого не бачити.

// 18771
//The Dark Lord reached into his robes, took out a Knut, and flipped it to her.
//“Klaudia Alicja Tabor, I command you thus. Take this Knut to the spell circle I
//showed you beneath the Quidditch stands and put it in the center. Then
//Obliviate yourself of the last six hours.”
Темний Лорд дістав з мантії та кинув їй кнат.

-- Клавдіє Аліціє Табор, наказую тобі. Візьми цей кнат та поклади в центр кільця
закляття, яке я показував тобі під квідичними трибунами. Тоді забуттятни себе на
останні шість годин.

// 18772
//“Yes, lord,” the witch said, bowing to him, and went on her way.
-- Так, володарю, -- сказала відьма, вклонилася та пішла.

// 18773
//“I thought -” Harry said. “I thought you needed the Stone to -”
-- Я гадав... -- сказав Гаррі. -- Я гадав, вам потрібен Камінь, щоб...

// 18774
//The Dark Lord was still smiling, he had never stopped smiling. “I did not say
//that part in Parseltongue, child. All I said in Parseltongue was that I had set
//events in motion to kill students, events that I would stop if I obtained the
//Stone. The rest was in human speech. I would also have stopped the Blood Fort
//sacrifice if I had not obtained the Stone, so long as I was not discovered and
//restrained. The students of Hogwarts are a valuable resource, whom I have
//already spent much time training.” Then the Dark Lord hissed to the wall,
//“__Open.__”
Темний Лорд і далі посміхався, посмішка ані на мить не полишала його обличчя:

// hedrok: щодо "Blood Fort"
// https://typemoon.fandom.com/wiki/Blood_Fort_Andromeda
// https://uk.wikipedia.org/wiki/Fate/stay_night
// TODO завантажую аніме
-- Цю частину я не казав парселмовою, дитя. Парселмовою я сказав лише, що
запустив закляття, що вбʼє учнів, і я спиню його, якщо отримаю Камінь. Решту я
казав людською мовою. Я б спинив пожертву "`Кривавий форт`", навіть якби не
отримав Камінь, хіба що мене б викрили й завадили мені. Учні Гоґвортсу --
цінний ресурс, і я вже витратив чимало часу на їхнє тренування.

Тоді Темний Лорд прошипів стіні:

-- __Відкрийсся__.

// 18775
//Harry’s eyes saw the tiny snake that had been set in the upper-left of the
//carving, even as the wall slowly swung backward, revealing the opening of a
//huge pipe. Moss grew on its sides and a musty dusty smell welled up from it;
//the interior was also covered with cobwebs in multiple sheets.
Гаррі побачив невеличку змію в лівому верхньому куті різьбленої картини, і стіна
повільно розчахнулася назад, відкривши за собою величезну трубу. По її боках ріс
мох, звідти дмухнуло запахом накопиченого пороху, трубу вкривало багатошарове
павутиння.

// 18776
//“Spiders…” murmured the Dark Lord. He sighed, and for that brief moment he
//sounded once more like Professor Quirrell.
-- Павуки... -- промурмотів Темний Лорд. Він зітхнув, і ненадовго знову почав
скидатися на професора Квірела.

// 18777
//The Dark Lord walked into the huge pipe, the cobwebs burning away before him.
//Harry, not seeing any other better options, followed.
Темний Лорд зайшов у трубу, павутиння перед ним згорало. Гаррі не бачив інших
опцій, крім як слідувати за ним.

// 18778
//The pipe branched in a Y-shape, then branched again. The Dark Lord went left,
//then right.
Труба розгалужувалася у формі літери "`У`", а потім знову. Темний Лорд повернув
ліворуч, потім праворуч.

// 18779
//The pipe came to a solid metal wall. __“Open,”__ the Dark Lord hissed, and
//a crack appeared in the metal; it seemed to fold into itself.
Труба завершилася суцільною металевою стіною.

-- __Відкрийсся,__ -- прошипів Темний Лорд, і в металі зʼявилася тріщина, він
ніби склався сам у себе.

// 18780
//Beyond was the middle of a long, stone tunnel.
Поза ним був довгий камʼяний коридор, що йшов у обидва боки.

// 18781
//“We shall be walking a while,” said the Dark Lord. “Did you have more questions
//to ask, little child?”
-- Ми деякий час будемо йти, -- сказав Темний Лорд. -- Чи є в тебе ще питання,
маленьке дитя?

// 18782
//“I - I can’t think of any - right now -”
-- Я... не можу вигадати... зараз...

// 18783
//Another cold laugh replied to this, and they walked into the tunnel, turning
//right.
Черговий вибух холодного сміху був йому відповіддю. Вони зайшли до тунелю й
повернули праворуч.

// 18784
//Harry didn’t know, then or ever, how long he walked; the light of burning
//spiderwebs was too dim to read his mechanical watch, and Harry had not thought
//to look at the time before entering. It felt like they walked for miles, miles
//beneath the ground.
Гаррі не знав, ані тоді, ані потім, як довго вони йшли. Світло від вогню, яким
займалося павутиння, було надто тьмяним, щоб він міг побачити час на механічному
годиннику, і Гаррі не спало на думку подивитися перед тим, як вони зайшли до
тунелю. Видавалося, вони йшли кілометри й кілометри під землею.

// 18785
//Slowly, Harry’s mind tried to recover itself a final time. Very possibly final,
//if he was right about the Dark Lord killing him after this… though the Dark
//Lord had said that he would resurrect Hermione, which seemed pointless if that
//was true… was that simply the Dark Lord following through on a promise he would
//not otherwise have been able to make in Parseltongue… why had he not just shot
//Harry on the spot…
//! 16%
Розум Гаррі намагався оговтатися востаннє. Дуже ймовірно, що востаннє, якщо він
не помилявся щодо того, що Темний Лорд його невдовзі вбʼє... хоча Темний Лорд
казав, що воскресить Герміону, а це тоді видавалося безґлуздим... чи Темний
Лорд просто виконував обіцянку, бо інакше він не міг би дати її парселмовою...
чому він просто не пристрелив Гаррі одразу...

// 18786
//__Seriously, __some last functioning part of his brain said to all the
//other parts, __this would be a good time to think of something, something
//that the Dark Lord has not already thought of, something we can do without our
//pouch or our wand or our Time-Turner, something that Professor Quirrell has not
//imagined we can do… think, think, pretty pretty please think of something?
//Don’t shut down now, even if you’re scared, even if we’ve never really really
//faced death before in the sense of being about to die in the next hour, THIS IS
//NOT THE TIME TO SHUT DOWN -__
__Серйозно__, гукнула якась остання робоча частина його мозку решті його частин,
__зараз чудовий час, щоб вигадати щось, щось, про що Темний Лорд ще не подумав,
щось, що ми можемо зробити без капшучка, без палички та без часовороту, щось, що
професор Квірел не може уявити, щоб ми зробили... думай, думай, будь ласочка,
вигадай щось? Не вимикайся зараз, навіть якщо тобі страшно, навіть якщо ми
насправді ніколи раніше не були в ситуації, коли ми помремо протягом години,
ЗАРАЗ НЕ ЧАС ВИМИКАТИСЯ...__

// 18787
//Harry’s mind stayed blank.
Гаррі нічого не спало на думку.

// 18788
//__Suppose,__ said that last remaining part, __suppose we try to
//condition on the fact that we win this, or at least get out of this alive. If
//someone TOLD YOU AS A FACT that you had survived, or even won, somehow made
//everything turn out okay, what would you think had happened -__
__Припустимо__, сказала ця остання частина, __припустимо, що ми виходимо з того,
що переможемо, чи принаймні виберемося з цього живі. Якщо хтось СКАЗАВ БИ ТОБІ
ЯК ФАКТ, що ти виживеш, чи навіть переможеш, якимось чином зробиш так, що все
буде гаразд, як би ти подумав, це сталося...__

// 18789
//__Not legitimate procedure,__ whispered Ravenclaw, __the universe
//doesn’t work like that, we’re just going to die.__
__Неприйнятна процедура__, прошепотів рейвенкловець, __всесвіт так не
влаштовано, ми просто помремо.__

// 18790
//__Someone realises we’re missing, __thought Hufflepuff, __and
//Mad-Eye Moody shows up with a squad of Aurors and rescues us. I think the time
//has come to admit we’re not more competent than the standard authorities.__
__Хтось зрозуміє, що нас немає,__ подумав гафелпафець, __і зʼявиться Дикозор
Муді зʼявиться із загоном аврорів та врятує нас. Гадаю, прийшов час визнати, що ми не
більш компетентні за звичайний уряд.__

// 18791
//__The saving factor does have to be something we__ do__ somehow,__
//said the last voice. __Otherwise there’s no point in our thinking about
//it.__
__Порятунок має бути повʼязаний з чимось, що ми __зробимо__,__ сказав цей
останній голос. __Інакше немає сенсу про цей порятунок розмірковувати.__

// 18792
//__Problem two,__ said Gryffindor. __Harry Potter isn’t missing, he’s
//right there at the Quidditch match where everyone can see him. Professor
//Quirrell thought of that too, it’s part of why he sent that fake note. Problem
//three. I don’t think Mad-Eye Moody and an Auror squad can beat the Dark Lord,
//and certainly not before he kills us. I’m not sure the entire DMLE can beat the
//Dark Lord if he’s fighting seriously and Dumbledore is gone. Problem four. The
//Quidditch match was not disrupted, that’s probably the only reason why
//Professor Quirrell was willing to try something as complicated as bringing us
//along on this trip in the first place.__
__І друга проблема__, сказав ґрифіндорець. __Гаррі Поттера не "`немає`", він на
квідичному матчі, де всі можуть його бачити. Професор Квірел продумав і це,
почасти він надіслав хибного листа мені для цього. Проблема третя. Навряд чи
Дикозор Муді разом із загоном аврорів здатні перемогти Темного Лорда, і вже
точно не перед тим, як він нас убʼє. Не певен, чи все ВДМЗ разом здатне
перемогти Темного Лорда, якщо він битиметься на повну тепер, коли Дамблдора
немає. Проблема четверта. Квідичний матч проходив спокійно, напевно це єдина
причина, чому професор Квірел вирішив вдатися до таких складнощів, як взяти мене
з собою.__

// 18793
//__Thinking along different lines,__ ventured Slytherin__, maybe
//Professor Quirrell calls in someone else to Memory-Charm us__.
//__Legilimency, Imperius, Confundus, who knows what else, we’re not a
//perfect Occlumens. Then the Dark Lord would have a smart - well, sort-of smart
//lieutenant that he could use. That could be another reason why Professor
//Quirrell was so willing to tell us secrets, if he knew that the memory would
//disappear. It’s also a reason to leave the Hogwarts wards, so the Dark Lord can
//call Bellatrix to Apparate in and do the work…__
__Інший варіант__, подав голос слизеринець, __можливо, професор Квірел викличе
когось, хто накладе на нас чари хибної памʼяті. Виманологія, імперіус,
конфундус, хтозна що ще, ми не бездоганний блоколог. І тоді в Темного Лорда буде
розумний... ну, ніби розумний посіпака, якого він може використовувати. Можливо,
саме через це професор Квірел спокійно розповідав нам свої таємниці -- він знав,
що ця памʼять зникне. А також це може бути причиною вийти за межі дії оберегів
Гоґвортсу -- щоб Темний Лорд міг викликати Белатрису, вона явилася й зробила це
все...__

// 18794
//__This entire reasoning process is illegitimate and I refuse to
//participate, __said Ravenclaw.
__Увесь цей хід думок неправомірний, я відмовляюся брати в ньому участь__,
сказав рейвенкловець.

// 18795
//__What lovely last words,__ said the last voice. __Now shut up and
//think.__
__Які чудові останні слова__, зауважив той останній голос. __А тепер замовкни та
розмірковуй.__

// 18796
//Rough stone tunnel went by underfoot, Harry’s shoes sometimes dipping into
//moisture or nearly slipping on a curved surface. The neurons in his brain,
//which kept on firing, imagined voices talking to each other, yelling at each
//other, even as the Listener stayed numb with horror and shame.
Під ногами досі був тунель з грубого каміння. Інколи Гаррі ступав у вологе, чи
ледь не падав на кривих поверхнях. Нейрони його мозку й далі спрацьовували,
уявні голоси розмовляли один з одним, кричали один на одного, хоча слухач був
німим від жаху й сорому.

// 18797
//Gryffindor and Hufflepuff were conducting a debate about suicide by charging
//the Dark Lord’s gun, or by swallowing the little jewel on Harry’s steel ring.
//It seemed unclear whether the fate of the world was better or worse if the Dark
//Lord had Harry as a mind-slave; if the Dark Lord was going to win anyway, it
//might be better if he won faster.
Ґрифіндорець із гафелпафцем сперечалися щодо самогубства методом спроби
відібрати в Темного Лорда зброю, чи просто проковтнути самоцвіт на сталевому
персні Гаррі. Було незрозуміло, на ліпше чи на гірше для світу буде, якщо в
Темного Лорда буде раб-Гаррі. Якщо Темний Лорд переможе в будь-якому разі,
можливо, буде ліпше, якщо він переможе швидше.

// 18798
//And the last voice kept talking through it all; even in the depths of failure
//that last voice remained. __What else did the Dark Lord always say in
//human speech and never in Parseltongue? Do we remember? Anything like that,
//anything at all?__
А останній голос все не замовкав. Незважаючи на всю глибину його поразки, цей
голос і далі розмовляв:

__Що ще Темний Лорд казав лише людською мовою, а не парселмовою? Чи памʼятаємо
ми? Чи було щось таке, будь-що?__

// 18799
//It was all too distant in time, too distant in time even though it had all
//happened this very day. The Dark Lord had told him in Parseltongue just now
//that it was time to revive Hermione, and then he’d said other things all in
//English, Harry could hardly remember for all that they’d just been spoken.
//Before then… before then there’d been the Circle of Concealment, when Professor
//Quirrell had hissed that the barrier would explode if touched. And the Defense
//Professor had said in English for Harry not to take off his Cloak or try
//crossing the Circle, said in English that the resonance might strike Professor
//Quirrell afterwards but Harry would be dead. Said in English that if Harry
//touched the magic and Professor Quirrell didn’t remember how to halt the
//resonance, it would kill them both…
Це все сталося надто давно, надто давно, хоч і сталося того ж дня. Темний Лорд
щойно сказав парселмовою, що час воскрешати Герміону, а тоді сказав купу всього
людською мовою, Гаррі ледве памʼятав, що саме, хоч це відбулося буквально щойно.
А раніше... раніше було кільце приховування, тоді професор Квірел прошипів, що
барʼєр вибухне, якщо його торкнутися. І професор Квірел сказав людською, щоб
Гаррі не знімав Плаща й не перетинав кільце, сказав людською мовою, що резонанс
нанесе шкоду професорові Квірелу, але Гаррі вже буде мертвий. Людською мовою
сказав: якщо Гаррі торкнеться магії професора Квірела, він не памʼятатиме, як
спинити резонанс, і це вбʼє їх обох.

// 18800
//__Suppose it doesn’t kill us both,__ said the last voice. __On
//Halloween in Godric’s Hollow, the Dark Lord’s body was burned and we only ended
//up with a scar on our forehead. Suppose the resonance between us is deadlier to
//the Dark Lord than to us. What if this entire time we’ve been able to kill the
//Dark Lord at any time, just by dashing forward and touching our hands to any
//part of his exposed skin? And then it makes our scar bleed again, but that’s
//all. The sense of ‘stop, don’t do that’ is inherited from the Dark Lord’s worst
//memory of his mistake in Godric’s Hollow, it may not actually apply to the
//Boy-Who-Lived.__
//! 25%
__Припустимо, резонанс убʼє не нас обох__, сказав останній голос. __Під час
Геловіну в Ґодриковій Долині тіло Темного Лорда згоріло, а в нас лише виник шрам
на чолі. Припустимо, що резонанс більш смертоносний для Темного Лорда, ніж для
нас. А раптом весь цей час ми могли вбити Темного Лорда, просто кинувшись уперед
та торкнувшись рукою будь-якої частини його шкіри? Тоді наш шрам знову
закривавить, але це все. Відчуття "`стій, не треба`" просто успадковано від
Темного Лорда, як його найгірший спогад про помилку в Ґодриковій Долині,
можливо, це насправді не стосується Хлопчика-Що-Вижив.__

// 18801
//A small note of hope rose.
Крихітна надія підвела голову.

// 18802
//Rose, and was quashed.
Підвела й зникла.

// 18803
//__The Dark Lord can just throw away his wand,__ droned Ravenclaw.
//__Professor Quirrell can turn into his Animagus form. Even if he dies the
//Dark Lord will possess someone else and return, and then torture our parents,
//to punish us.__
__Темний Лорд може просто відкинути паличку__, протяжно зауважив рейвенкловець.
__Професор Квірел може перекинутися на подобу анімага. Навіть якщо він помре,
він оволодіє кимось іншим та повернеться, і тоді катуватиме наших батьків, щоб
покарати нас.__

// 18804
//__We might be able to get to our parents in time,__ said the last voice.
//__We might be able to hide them. We might be able to get the
//Philosopher’s Stone away from the Dark Lord if we killed his current body now,
//and that Stone could provide the nucleus of a counter-army.__
__Можливо, ми встигнемо до батьків вчасно__, сказав останній голос. __Можливо, у
нас вийде їх сховати. Можливо, вийде забрати філософський камінь в Темного
Лорда, якщо ми вбʼємо його поточне тіло, і тоді Камінь стане ядром для
контрвійська.__

// 18805
//The Dark Lord was moving on through the stony corridor. His hand still held the
//gun. He was at least four meters away from Harry.
Темний Лорд ішов далі камʼяним коридором. З його руки не зникав пістолет. Між
ним і Гаррі було принаймні чотири метри.

// 18806
//__If we dart forward, he will sense us approaching through the resonance,
//__said Hufflepuff.__ He will fly forward rapidly, he can do that, he has
//the broomstick-enchantments that let him fly. He will fly forward, turn around,
//and fire the gun. He knows about the resonance, he’s thought of this already.
//This is not something the Dark Lord has failed to consider. He will be ready
//for it, and waiting.__
__Якщо ми кинемося вперед, він відчує через резонанс, що ми наближаємося__,
сказав гафелпафець. __Він спробує швидко відлетіти вперед, він це може, в нього
є чари мітли, що дозволяють йому літати. Він полетить уперед, розвернеться й
вистрілить з пістолета. Він знає про резонанс, він уже про це подумав. Це не
якась можливість, якої Темний Лорд не розгляне. Він буде готовий до цього й
чекатиме.__

// 18807
//__Continuing the same line of argument,__ said the last voice.
//__Suppose we can freely cast magic on Professor Quirrell but he can’t
//cast it on us.__
__Розвинемо цю думку__, сказав останній голос. __Припустимо, що ми спокійно
можемо використовувати магію на професорі Квірелі, але він на нас -- не може.__

// 18808
//__Why would that be true?__ demanded Ravenclaw. __In fact, we have
//evidence that it’s false. ____In Azkaban, when Professor Quirrell’s Avada
//Kedavra hit our Patronus Charm, it felt like our head was splitting apart -__
__З чого б це воно було так?__ різко спитав рейвенкловець. __Насправді в нас
навіть є свідчення, що це хибна гіпотеза. В Азкабані, коли Авада Кедавра
професора Квірела зіткнулася з нашими чарами патронуса, відчуття було таке, ніби
голова от-от розколеться...__

// 18809
//__Suppose that was all __his__ magic going out of control. Suppose
//if we’d just cast, say, a Luminos targeting him, nothing bad would have
//happened.__
__Припустимо, що це все була __його__ магія, що вийшла з-під контролю.
Припустимо, що якби ми наслали, скажімо, Лумінос на нього, нічого поганого б не
сталося.__

// 18810
//__But why?__ said Ravenclaw. __Why suppose that?__
__Але чому?__ спитав рейвенкловець. __Чому таке припускати?__

// 18811
//__Because,__ thought Harry, __it explains why Professor Quirrell
//didn’t __warn me__ not to cast any magic on him in Azkaban. Because
//Professor Quirrell never said in Parseltongue, that I can remember, that I’d
//hurt myself if I tried to cast magic on him. He could have given me that
//warning, but he didn’t, even though he gave me a lot of other warnings. Absence
//of evidence is weak evidence of absence.__
__Бо__, подумав Гаррі, __це пояснило б, чому професор Квірел __не попередив
мене__, що не можна насилати на нього будь-яку магію в Азкабані. Бо професор
Квірел ніколи не казав парселмовою, наскільки я памʼятаю, що я завдам собі
шкоди, якщо використаю на ньому магію. Він міг би зробити таке застереження, але
не зробив, хоча застерігав прямим текстом багато від чого. Відсутність свідчень
-- слабке свідчення відсутності.__

// 18812
//There was a pause while Harry’s parts considered this.
Запала мовчанка, доки всі частини Гаррі обмірковували це.

// 18813
//__We don’t actually have our wand,__ said Ravenclaw.
__Але в нас немає палички__, сказав рейвенкловець.

// 18814
//__We might get it back at some point,__ thought the last voice.
__Можливо, ми її отримаємо назад__, подумав останній голос.

// 18815
//__But even then,__ Harry thought, and the grey hopelessness returned,
//__the resonance is something the Dark Lord knows about. He’s already
//thought of everything I can do with that, he already has a response prepared.
//That was my mistake from the beginning. I didn’t respect the Dark Lord’s
//intelligence, I didn’t think that maybe he knew everything I knew and could see
//everything I saw and had already taken it into account.__
__Але навіть тоді__, подумав Гаррі, і сіра безнадія повернулася, __резонанс --
це щось, про що Темний Лорд знає. Він вже обміркував усе, що ми можемо зробити з
цього приводу, і вже підготував відповідь. Ось в чому була моя помилка від
початку. Я не поважав інтелект Темного Лорда, не вірив, що він знає все, що знаю
я, і може передбачити все, що можу вигадати я, і вже підготувався до цього.__

// 18816
//__Then,__ said the last voice, __conditional on our winning, we must
//have hit him with something he doesn’t know about.__
__Тоді__, сказав останній голос, __за умови, що ми переможемо, ми маємо нанести
удар чимось, про що він не знає.__

// 18817
//__Dementors,__ offered Gryffindor.
__Дементори__, запропонував ґрифіндорець.

// 18818
//__The Dark Lord __knows__ we can destroy, deflect, and possibly
//control Dementors,__ said Ravenclaw. __He doesn’t know how, but he knows
//we have the capability, and where the heck would we get a Dementor anyway?__
__Темний Лорд __знає__, що ми здатні знищувати, змусити відступити й можливо
контролювати дементорів__, сказав Рейвенкловець. __Він не знає, як, але він
знає, що ми це можемо, та й де в біса дістати дементора?__

// 18819
//Maybe, ventured Hufflepuff,__ the Dark Lord’s whole horcrux system would
//short out via the resonance if we grabbed him and held him, sacrificing our own
//life to destroy him forever.__
//! 32%
__Можливо__, наважився гафелпафець, __уся система горокраксів Темного Лорда
вимкнеться через резонанс, якщо схопити й тримати його, пожертвувавши своїм
життям, щоб знищити його назавжди.__

// 18820
//__Bullhockey,__ said Ravenclaw. __But I guess it doesn’t hurt to
//engage in some pleasant fantasy before we die, no matter how stupid.__
// hedrok @ сталий вираз bullhockey
__Нісенітниця__, сказав рейвенкловець. __Та, гадаю, не завадить помріяти про
щось приємне перед смертю, хай який це ідіотизм.__

// 18821
//__If Lord Voldemort had a strong enough fear of death,__ Hufflepuff
//argued, __if he ____wanted strongly enough to just not need to think
//about death again, then the horcrux system __could__ have design flaws
//like that. It never occurred to Voldemort to test his horcruxes on someone
//else, that could indicate he wasn’t able to think about the subject clearly -__
__Якщо Лорд Волдеморт достатньо сильно боїться смерті__, наполягав гафелпафець,
__якщо він дуже хотів не мати потреби більше думати про смерть, то система
горокраксів __може__ мати такі вади. Волдемортові так і не спало на думку
перевірити свої горокракси на комусь іншому, це може свідчити про те, що він не
може тверезо розмірковувати щодо цього...__

// 18822
//__So his fear of death is his fatal weakness?__ said Ravenclaw.
//__Yeah, no. I’m thinking someone with over a hundred horcruxes might have
//a few failsafe mechanisms in there.__
__Тож його страх смерті -- це його фатальна слабкість?__ спитав рейвенкловець.
__Ну ні. Гадаю, хтось з понад сотнею горокраксів має достатньо захисних
механізмів щодо цього.__

// 18823
//And Harry’s brain went on thinking.
І мозок Гаррі працював далі.

// 18824
//A genuine asymmetry in the magical resonance between them… seemed improbable,
//there was no reason for the magical effect to work like that. But the magical
//backlash could hit the stronger wizard harder, the more powerful magic
//resonating more dangerously. That could explain the observed event in Godric’s
//Hollow (Voldemort explodes, baby survives), and also explain the observed event
//in Azkaban (Voldemort severely impaired by backlash of his strong magic,
//first-year Boy-Who-Lived hit by lighter backlash of his weak magic). Or if it
//was only the caster’s magic that resonated, that could also explain both those
//two observations. That might even explain why Professor Quirrell had been in no
//rush to warn Harry against casting any magic on him. Though there was another
//obvious reason why Professor Quirrell would avoid raising the subject of the
//resonance; it was a gigantic hint about the mystery of Godric’s Hollow, if
//Harry had ever made the connection.
Справжня асиметричність в їхньому магічному резонансі... видавалася
малоймовірною, не було жодної причини, чому б цей магічний ефект так працював.
Але магічна реакція могла бити сильніше по сильнішому чарівнику, потужніша магія
могла резонувати небезпечніше. Це могло пояснити спостереження в Ґодриковій
Долині (Волдеморт вибухає, дитя виживає), а також пояснити спостереження в
Азкабані (Волдеморт знепритомнів на тривалий час через магічну реакцію,
першокласника Хлопчика-Що-Вижив ударило легше через його слабкішу магію). Чи,
можливо, лише магія того, хто накладав закляття, резонувала. Це також пояснило б
обидва спостереження. Це навіть могло б пояснити, чому професор Квірел аж ніяк
не квапився попередити Гаррі, щоб той не насилав на професора закляття. Хоча
була й інша очевидна причина, чому професор Квірел уникав згадок про резонанс.
Бо це був яскравий натяк щодо таємниці Ґодрикової Долини, якби Гаррі колись
побачив цей звʼязок.

// 18825
//The part that was numb with grief and guilt took this opportunity to observe,
//speaking of obliviousness, that after events at Hogwarts had turned serious,
//they really really __really REALLY__ should have reconsidered the decision
//made on First Thursday, at the behest of Professor McGonagall, __not to
//tell Dumbledore about the sense of doom that Harry got around Professor
//Quirrell.__ It was true that Harry hadn’t been sure who to trust, there was a
//long stretch where it had seemed plausible that Dumbledore was the bad guy and
//Professor Quirrell the heroic opposition, but…
Його частина, що була приголомшена горем та провиною, скористалася можливістю
зазначити, як легковажно було з його боку після того, як події в Гоґвортсі стали
серйозними, не переглянути прийняте першого ж четверга рішення __не розповідати
Дамблдорові про відчуття невідворотного, яке не полишало Гаррі в присутності
професора Квірела__. Він справді, __справді-СПРАВДІ__ мав би переглянути це
рішення, на якому наполягала була професорка Макґонеґел. Так, тоді Гаррі не був
певен, кому довіряти, тривалий час йому видавалося можливим, що лихий --
Дамблдор, а професор Квірел -- герой опозиції, але...

// 18826
//Dumbledore would have realised.
Дамблдор би зрозумів.

// 18827
//Dumbledore would have realised instantly.
Дамблдор би зрозумів миттєво.

// 18828
//The wise old wizard with the true phoenix on his shoulder would have known, and
//Harry hadn’t trusted him, Harry hadn’t told him all the relevant facts, and the
//reason for this had been sheer neglect to reconsider a cached decision made
//four days into the start of the school year. It had been marked ‘something not
//to tell Dumbledore’ and even after Azkaban, even after Hermione died, even
//after everything, Harry had simply forgot to promote the question to
//deliberation and reconsider the tradeoff.
Старий мудрий чарівник зі справжнім феніксом на плечі зрозумів би, а Гаррі йому
не довіряв, Гаррі не розповів йому усіх важливих фактів, лише через те, що не
зібрався ще раз обміркувати вже прийняте четвертого дня школи рішення. Цей факт
просто був позначений міткою "`не розповідати Дамблдорові`", і навіть після
Азкабану, навіть коли померла Герміона, після всього, Гаррі забув просунути це
питання й ще раз свідомо зважити всі за та проти.

// 18829
//Another wave of grief and shame washed over Harry, and for a time he walked on
//in the silence of the last voice, other voices being happy enough to fill the
//gap.
Чергова хвиля смутку й сорому нахлинула на Гаррі, і деякий час він ішов, а
останній голос мовчав. Решта голосів з радістю заповнювали тишу.

// 18830
//After what was at least several miles, and many grey thoughts, the stone tunnel
//ended.
Після принаймні кількох кілометрів, незліченних чорних дум, камʼяний тунель
скінчився.

// 18831
//The Dark Lord climbed up stone steps, and Harry followed after.
Темний Лорд піднявся камʼяними сходами, Гаррі пішов слідом.

// 18832
//The two of them came into a dark, dank stone building. Dirty old stone doors
//swung open without being touched.
Вони опинилися в темному, сирому будинку. Брудні старі камʼяні двері
розчахнулися без доторку.

// 18833
//Before them lay marble slabs, rising up from bare ground, upon them names and
//dates. The tombstones were scattered in nothing like neat rows, and the rest of
//the graveyard ran wild.
Перед ними були мармурові плити, що трохи вивищувалися над землею, під ними --
імена й дати. Надгробки були розкидані по території, зовсім не нагадували
охайні ряди, решта цвинтаря теж була хаотичною.

// 18834
//The moon above was over three-quarters full, already seeming bright with night
//not fully fallen.
Місяць у небі був на три чверті повний, і вже був яскравим, хоча день ще не
повністю згаснув.

// 18835
//Harry had stopped walking upon seeing the graveyard. There was a blaring alarm
//in his brain saying to be __anywhere other than here, __but there weren’t
//any options for accomplishing that. So that alarm cried unanswered, even as
//behind Harry the stone doors of the mausoleum swung shut again and sealed
//themselves.
Гаррі спинився, побачивши цвинтар. В його мозку дзвеніла тривога: "`треба бути
будь-де, тільки не тут`", та він не бачив жодної можливості цього досягти. Тож
тривога й далі дзвеніла, без жодної реакції. За спиною Гаррі камʼяні двері
мавзолею зачинилися.

// 18836
//The Dark Lord came into the center of the scattered graveyard. He stopped
//walking, and waved his wand above his head in a small circle.
Темний Лорд пройшов до центру розкиданого цвинтаря. Він спинився й зробив
паличкою над головою невеличке коло.

// 18837
//There was a rumbling sound, and smoothly from the ground rose an altar, at
//least two meters wide and of black stone carved with grey sigils. And then
//surrounding the altar groaned up six dark-marble obelisks, regularly spaced,
//gleaming darkly beneath the fading twilight sky.
//! 40%
З гуркотом з землі піднявся вівтар. Принаймні два метри завширшки чорного каменю
з вирізьбленими сірими знаками. Навколо вівтаря з тріскотом виникли шість
обелісків з темного мармуру, на рівних відстанях. Вони темно виблискували під
сутінковим небом.

// 18838
//The unanswerable alarm in Harry’s brain grew louder.
Тривога в мозку Гаррі забила гучніше.

// 18839
//“This,” said the Dark Lord in Professor Quirrell’s cadences, “is a workspace I
//made for myself, convenient to either Hogwarts or Hogsmeade.” The Dark Lord
//flourished a hand at the altar. “That is where Miss Granger shall revive, and
//also where I shall be reborn into my true body. I shall remake myself first, of
//course. __Magicss to revive girl-child eassier with true body.__” A
//strange snakish laughter accompanied these words. ”__Resst asssured that
//though ssome asspects of girl-child’ss ressurrection sshall be what otherss
//conssider Dark, girl-child will not be harmed or made ugly by it. Sshall sstill
//look like hersself, mind sshall be her own, nor sshall I or mine harm her
//after.”__
-- Це, -- сказав Темний Лорд з модуляціями професора Квірела, -- робоче місце,
що я створив для себе. Зручно розташоване як для Гоґвортсу, так і для Гоґсміда,
-- Темний Лорд вказав рукою на вівтар: -- Тут оживе міс Ґрейнджер, а також я
відновлю своє справжнє тіло. Спочатку я відтворю себе, звісно. __Магія для
восскрессіння дівчини буде легшшою у ссправжньому тілі__, -- дивний зміїний сміх
лунав з цими словами. -- __Не хвилюйсся, хоча для відродження дівчини й потрібні
мисстецтва, шщо їх іншші називають темними, дівчина не буде ані пошшкоджена, ані
сспотворена. Має бути ссобою, і зовні, і розумом, ані я, ані мої не нашшкодять
їй у майбутньому.__

// 18840
//Harry’s tongue was dry and his mind was having trouble functioning. “Please,
//Professor, would you say in Parseltongue what is your real purpose in
//resurrecting Miss Granger?”
У роті Гаррі пересохло, язик ледве функціонував:

-- Будь ласка, професоре, чи не могли б ви назвати парселмовою справжню причину,
чому ви воскрешаєте міс Ґрейнджер?

// 18841
//“__To resstore to you girl-child friend’ss counssel and resstraint. To
//make ssure sshe iss part of the world for you to care about. That, boy, iss
//truly the greater part of the reasson I am doing thiss deed.__” Again snakish
//laughter accompanied these words, conveying sardonic awareness of some vast
//irony.
-- __Шщоб відновити те, як твоя подруга сстримувала тебе й радила тобі. Шщоб
вона була часстиною ссвіту, шщо дорога тобі. Це, хлопче, й ссправді переважно є
причиною, чому я так вчиняю__, -- і знову зміїний сміх, сардонічне знання якоїсь
безмежної іронії.

// 18842
//A small spark of hope kindled inside Harry, alongside the much greater note of
//confusion, and the fear that a perfect Occlumens could indeed lie in
//Parseltongue. Harry didn’t understand why the Dark Lord was doing this, if the
//next step was just to kill the Boy-Who-Lived or enslave him…
Іскорка надії зажевріла в Гаррі, а також значно більше відчуття спантеличення,
страх того, що бездоганний блоколог насправді може брехати парселмовою. Гаррі не
розумів, чому Темний Лорд це робить, якщо невдовзі він просто вбʼє чи поневолить
Хлопчика-Що-Вижив...

// 18843
//Maybe he’d just never understood Professor Quirrell at all, maybe somehow
//Harry’s model of Tom Riddle was just __that wrong__… maybe the
//Boy-Who-Lived would be Obliviated of the last day and dropped off somewhere
//with a confused Hermione Granger, while Lord Voldemort went on to conquer the
//world…?
Можливо, він просто ніколи взагалі не розумів професора Квірела, можливо,
якимось чином Гарріна модель Тома Редла просто __аж така хибна__... а може
на Хлопчика-Що-Вижив просто чекає забуттятус усього цього дня, а тоді його
десь залишать разом з Герміоною Ґрейнджер, а лорд Волдеморт піде собі
завойовувати світ?..

// 18844
//Hope flared up in Harry, but it was a confused hope that didn’t make any sense.
//It didn’t square with the Dark Lord who had mocked Dumbledore and laughed at
//his defeat. Harry couldn’t come up with any consistent account of Professor
//Quirrell’s motives that allowed for something like that.
Надія запалала в серці Гаррі, та це була спантеличена надія, що не мала
анікрихти сенсу. Це не вʼязалося з тим, як Темний Лорд збиткувався був з
Дамблдора й реготав з його поразки. В Гаррі не було послідовної гіпотези мотивів
професора Квірела, що враховувала б і цей факт.

// 18845
//__I do not know what is meant to happen next.__
__Я не знаю, що станеться далі.__

// 18846
//The Dark Lord had moved forward to the altar. He knelt there, and seemed to
//reach deep into the stone of the altar itself, drawing forth a vial of liquid
//that looked black in the fading twilight.
Темний Лорд підійшов до вівтаря. Опустився на коліна й ніби занурив руку
всередину самого вівтаря, дістав звідти пляшечку з рідиною, що в сутінках
видавалася чорною.

// 18847
//When the Dark Lord spoke again his voice was clipped and precise. “Blood,
//blood, blood so wisely hidden,” said the Dark Lord.
Коли Темний Лорд знову заговорив, його голос був рубаним та точним:

-- Кров, кров, кров так мудро прихована.

// 18848
//And the obelisks surrounding the altar began to speak, voices like a chanting
//chorus coming from the motionless stones, cadances older than Latin.
І обеліски навколо вівтаря почали промовляти, ніби з нерухомих каменів скандував
хор, мова видавалася старшою за латину.

// 18849
//__Apokatastethi, apokatastethi, apokatastethi to soma mou emoi.__
__Апокатастетгі, апокатастетгі, апокатастетгі то сома моу емоі.__

// 18850
//__Apokatastethi, apokatastethi, apokatastethi to soma mou emoi.__
__Апокатастетгі, апокатастетгі, апокатастетгі то сома моу емоі.__

// 18851
//The obelisks’ chant echoed after the end of each line, as if they were speaking
//out of synchrony with each other. The blood was poured from the vial, and it
//seemed to catch and hang over the altar, slowly expanding through the air,
//taking on a shape.
Декламація обелісків лунала після кінця кожного рядка, ніби вони вимовляли слова
несинхронно. Кров полилася з пляшечки й зависла над вівтарем, повільно
поширювалася в повітрі, набувала форми.

// 18852
//__Apokatastethi, apokatastethi, apokatastethi to soma mou emoi (emoi).__
__Апокатастетгі, апокатастетгі, апокатастетгі то сома моу емоі.__

// 18853
//__Apokatastethi, apokatastethi, apokatastethi to soma mou emoi (emoi).__
__Апокатастетгі, апокатастетгі, апокатастетгі то сома моу емоі.__

// 18854
//A tall form rested upon the altar, and even in the dimming twilight it looked
//too pale.
Висока фігура лежала на вівтарі, у тьмяному сутінковому світлі вона видавалася
надто блідою.

// 18855
//The Defense Professor reached his hand into his robe, and drew forth a small
//irregular chunk of red glass.
Професор із захисту дістав з мантії невеличкий безформний шматок червоного скла.

// 18856
//He placed that upon the tall pale body.
Він поклав Камінь на високе бліде тіло.

// 18857
//The Stone stayed there for a time, minutes at least. The irregular chunk of red
//glass did not glow, or flash, or give any other indication of power.
Камінь лишався там деякий час, принаймні більше хвилини. Безформний шматок скла
не засяяв, не заблимав, жодним чином не виявляв силу.

// 18858
//Then the Stone moved, just a little, turning slightly upon the body.
А тоді Камінь ворухнувся -- лише трохи, злегка обернувся на тілі.

// 18859
//The Defense Professor took back the Stone into his robes, and prodded the tall
//form that lay motionless upon the altar, touching the eyes with his fingers,
//poking the chest with his wand.
//! 48%
Професор із захисту поклав Камінь назад до мантії та почав тикати високе тіло,
що лежало на вівтарі. Він торкався очей пальцями, тикав у груди паличкою.

// 18860
//He threw back his head, then, and laughed.
Він відкинув голову та зареготав.

// 18861
//“Incredible,” said the Dark Lord, in the voice of the Defense Professor that
//Harry had known. “Fixed, it is fixed in form! A mere construct sustained by
//magic, become the true substance at the Stone’s touch! And yet I sensed
//nothing! Nothing! I feared I had been deceived, that I had obtained a false
//Stone, but the substance proves true to my every test!” The Defense Professor
//tucked the red glass back into his robes. “That is eldritch even by my
//standards, I admit.”
// @Eliezer Він трохи вище вже сховав камінь.
-- Неймовірно, -- сказав Темний Лорд голосом професора із захисту, якого знав
був Гаррі. -- Постійна, воно зафіксувало форму! Проста конструкція з магії стала
справжньою матерією від доторку Каменя! А я не відчув нічого! Нічого! Я боявся
був, що мене обманули, що я отримав підробний Камінь, та матерія справжня
згідно всіх моїх перевірок! Визнаю, це надприродно навіть за моїми мірками.

// 18862
//Then the Defense Professor walked around the altar, five times he walked around
//it, chanting something too low for Harry to hear.
Тоді професор із захисту обійшов вівтар. Пʼять разів обійшов його, наспівуючи
щось надто тихо, щоб Гаррі міг розчути слова.

// 18863
//The Dark Lord placed his wand in the hand of the figure lying on the altar.
Темний Лорд поклав свою паличку до руки тіла, що лежало на вівтарі.

// 18864
//He placed his hands, both of them, over the body’s forehead.
Він поклав обидві руки на чоло фігури.

// 18865
//The Dark Lord spoke. “__Fal. Tor. Pan.”__
-- __Фал. Тор. Пан__, -- промовив Темний Лорд.

// 18866
//Without any warning there was a flash like lightning that lit up the entire
//graveyard, and Harry staggered back a step, his hands involuntarily going to
//his forehead. It felt as if he had been shot there, or a wasp stung him, upon
//his scar.
Без жодного попередження спалахнула блискавка, освітивши весь цвинтар. Гаррі
відсахнувся на крок, він обхопив руками чоло. Відчуття було, ніби в його шрам
влучила куля, чи вкусила оса.

// 18867
//The Defense Professor collapsed.
Професор із захисту впав.

// 18868
//And the too-tall figure sat up upon the altar.
А надто високий чоловік сів на вівтарі.

// 18869
//It swung around smoothly, and stood tall upon the ground, at least a head
//higher than a normal man. The form’s limbs were lean and pale, little-muscled
//but giving an impression of terrible strength.
Він плавним рухом звівся на ноги і постав у весь свій зріст, принаймні на
голову вищий за звичайну людину. Кінцівки його були худими й блідими, мʼязів
було мало, та чомусь від них виникало враження страшенної сили.

// 18870
//Harry took another staggering step back, his hands still clasped to his scar.
//Though the distance between them was wide, Harry felt a sense of terrifying
//apprehension in the air, as though the sense of doom had always been been
//__out of focus__ and had now clarified, concentrated into a physical pain
//in the scar on Harry’s forehead.
Гаррі непевно відступив ще на крок, руки не відпускали шрам. Хоч вони й були
далеко один від одного, Гаррі відчував жахливе передчуття в повітрі, ніби
відчуття невідворотного завжди було __не сфокусованим__, а тепер воно
сконцентрувалося у фізичний біль у шрамі Гаррі.

// 18871
//Was that what Voldemort was __supposed__ to look like? The nose looked
//like, it looked like it had __malfunctioned__ during the resurrection
//process -
Чи __мав__ Волдеморт бути таким? Ніс був... був таким, ніби щось __пішло не
так__ під час воскресіння...

// 18872
//The too-tall figure threw back his head and laughed, raising his hands and wand
//to look at them. The left hand opened wide and it was like a pale half-spider
//with four over-long legs, fingers caressing the wand held in the other hand.
//Leaves stirred up from the graveyard, approaching to dance around the too-tall
//figure, surrounding him and clothing him, reforming into a high-necked shirt
//and flowing robes; and Lord Voldemort was laughing. Exactly the mirthless
//laughter that Harry remembered coming from his own throat inside the Dementor’s
//nightmare, precise in tone and timbre.
Надто високий чоловік відкинув голову та зареготав, підвів руки з паличкою, щоб
оглянути їх. Він широко розкрив ліву долоню, складалося враження, що це половина
блідого павука з чотирма надто довгими ногами, пальці потирали паличку, яку він
тримав в іншій руці. Листя здійнялося на цвинтарі, наблизилося в танку навколо
надто високої фігури, наблизилося з усіх боків та одягнуло його, перетворилося
на сорочку з високим коміром та вільну мантію. А лорд Волдеморт не припиняв
сміятися. Гаррі памʼятав, як саме цей безжальний сміх видавало його власне
горло, коли його полонило жахіття дементора. Саме такий тон і тембр.

// 18873
//Red eyes gleamed beneath the fading twilight, their pupils slitted like a
//cat’s.
Червоні очі сяяли в останніх променях сутінків, зіниці були вузькими, мов у
кота.

// 18874
//The form that Voldemort had abandoned raised itself, quivering, from the
//ground; and in a voice that Harry could barely hear, Quirinus Quirrell gasped,
//“Free - oh, free -”
Покинуте Волдемортом тіло підвелося із землі, хоча й тремтіло. Гаррі ледве міг
розчути голос, коли Квірін Квірел видихнув:

-- Вільний... ох, вільний...

// 18875
//“__Stupefy,__” said the high cold voice of Voldemort, and Quirinus
//Quirrell was blasted down into the ground; then, with a wave of Voldemort’s
//other hand, Quirinus Quirrell was picked up and flung away from the altar.
-- __Закляктус__, -- пролунав холодний високий голос Волдеморта, і Квіріна
Квірела відкинуло назад на землю.

Тоді Волдеморт помахом руки підняв Квіріна Квірела з землі й відкинув від
вівтаря.

// 18876
//Voldemort walked away from the altar, then turned and looked at Harry; and the
//pain in Harry’s scar flared at it.
Волдеморт відійшов від вівтаря, а тоді розвернувся й поглянув на Гаррі. Біль у
шрамі Гаррі від цього спалахнув з новою силою.

// 18877
//“Frightened, child?” Voldemort hissed, like there was an undercurrent of
//Parseltongue even to the Dark Lord’s human speech. “Good. Place the girl on the
//altar, and break your Transfiguration. __Iss time for me to revive her.__”
-- Налякався, дитя? -- прошипів Волдеморт, ніби навіть у людській мові Темного
Лорда було щось від парселмови. -- Добре. Поклади дівчину на вівтар та скасуй
свою трансфігурацію. __Часс її восскрешшати.__

// 18878
//__Is this really going to happen? Are we really going to do this?__
__Невже це справді станеться? Ми справді це робимо?__

// 18879
//Harry swallowed, mastering his fear through that note of impossible hope amid
//the confusion, and walked over to the altar. Then Harry took off his left shoe,
//and his left sock, and took off the toe-ring that was Hermione Granger, the
//Transfigured shape identical to the toe-ring that had been given Harry as an
//emergency portkey. There was a twinge of regret in Harry for not having the
//real portkey now, but only a twinge; an inner-circle Death Eater would
//routinely put up boundaries against portkeys, if Severus had been right. Behind
//Harry, Voldemort laughed again in what sounded like surprised appreciation.
//! 56%
Гаррі ковтнув слину, опанував страх за допомогою неможливої надії, що здійнялася
посеред спантеличення, і підійшов до вівтаря. Тоді Гаррі зняв лівий черевик та
ліву шкарпетку, зняв перстень з великого пальця -- це була Герміона Ґрейнджер,
він трансфігурував її на форму, що не відрізнялася від персня, який Гаррі дали як
летиключ на крайній випадок. Гаррі трохи шкодував, що в нього тепер не було
справжнього летиключа, та лише крапельку шкодував. Смертежери внутрішнього кола
завжди зводили обереги проти летиключів, якщо Северус не помилявся. За спиною
Гаррі Волдеморт знову засміявся -- зі здивуванням та схваленням.

// 18880
//“I need my wand to __Finite__ her,” Harry said aloud.
-- Мені потрібна паличка, щоб виконати "`__Фініте__`", -- сказав Гаррі вголос.

// 18881
//“You do __not__.” High the voice and cruel. “You learned to sustain a
//Transfiguration by touch alone, without further use of the wand. You can
//likewise break your own Transfiguration wandlessly, by commanding your
//sustaining magic to drain away. Do so now.”
-- __Не потрібна__, -- пролунав високий та жорстокий голос. -- Ти навчився
підтримувати трансфігурацію самим доторком, без допомоги палички. Так само ти
можеш скасувати власну трансфігурацію безпаличково, наказавши магії, що
підтримує трансфігурацію, повернутися. Зроби це зараз.

// 18882
//Harry swallowed, and touched the toe-ring. He had to try three times, and clear
//his mind, before he could push his magic out of the toe-ring, as before he had
//learned to make a tiny stream of magic flow in.
Гаррі ковтнув слину й торкнувся персня. Йому довелося спробувати тричі, очистити
розум, доки не вийшло виштовхати магію з персня так само, як він уже вмів
змушувати крихітний потік магії наповнювати перстень.

// 18883
//The breaking of the spell went much more slowly that way than a __Finite
//Incantatem__, almost like the sped-up reverse of watching something being
//Transfigured. The toe-ring distorted, flowing together, expanding. Colors
//changed, textures changed.
Скасування закляття відбувалося значно повільніше, ніж якби було використано
"`__Фініте Інкантатем__`", майже скидалося на прискорену перемотку назад запису
трансфігурації. Перстень викривився, розтікся, розширився. Кольори змінювалися,
змінювалися текстури.

// 18884
//Two-thirds of a dead girl lay strewn across the altar, on her side with one arm
//falling off the altar’s edge, the position in which the reversion had chanced
//to place her. No blood flowed now from the chewed stumps of her thighs. The
//dead girl wore Hermione Granger’s face, but twisted and pale. It was as Harry
//had seen before in the hospital’s back room, the image burned into his brain
//during thirty long minutes of Transfiguration, the image he had reproduced
//during four even longer hours to Transfigure the decoy. The dead girl was
//naked, for her clothes were not part of her, and had not been Transfigured.
Дві третини мертвої дівчини розкинулися на вівтарі. Вона лежала на боці, одна
рука звисала за край вівтаря -- у таку позу її поклало скасування
трансфігурації. З обгризаних обрубків ніг кров уже не текла. Дівчина мала
обличчя Герміони Ґрейнджер, хоча перекручене й бліде. Саме так Гаррі й
запамʼятав був її в задній кімнаті шкільної лікарні, це зображення викарбувалося
в його розумі, доки він тридцять довгих хвилин її трансфігурував, а потім це
зображення він відтворював був навіть довші чотири години, доки трансфігурував
ляльку на її місці. Мертва дівчина була голою, бо одяг не був її частиною,
відповідно, не був трансфігурований.

// 18885
//The sight brought back flashbacks, of the hours spent in the infirmary room, of
//the nightmares afterward, all of which Harry suppressed.
Це видовище викликало спогади: години в кімнаті лікарні, жахіття, що сталися
потім, і про це все Гаррі старався зараз не думати.

// 18886
//“Go back,” said Voldemort’s high voice. “This is my work, now.”
-- Відійди, -- пролунав високий голос Волдеморта. -- Тепер час попрацювати мені.

// 18887
//Harry swallowed, and retreated from the altar, to the mouth of the long
//corridor where he’d stood before. “Her body is, should be, around five Celsius,
//I cooled her so, so there wouldn’t be brain damage -” Harry’s own voice was
//wavering in pitch. __Is he really going to do this? Really?__ There had to
//be a catch and Harry just couldn’t see it. Voldemort had said that neither he
//nor any of his would harm Hermione, that her body and mind would be her own -
//__why?__
Гаррі ковтнув слину й відійшов від вівтаря до входу в довгий коридор, де він
раніше й стояв.

-- Температура її тіла має бути пʼять градусів за Цельсієм, я охолодив її, щоб
не було пошкодження мозку... -- його голос весь час зривався.

__Він справді це зробить? Справді?__ Тут мав бути якийсь підступ, тільки от
Гаррі не розумів, який. Волдеморт сказав був, що ані він, ані його посіпаки не
нашкодять Герміоні, і що тіло й розум будуть її власними... __чому?__

// 18888
//Voldemort walked forth to the altar once more, orienting the body before him
//with a wave of his hand to lie straight across the altar. The Dark Lord spoke
//with high monotone precision, “Flesh, flesh, flesh so wisely hidden.”
Волдеморт знову підійшов до вівтаря, помахом руки розвернув тіло, щоб воно
лежало вздовж вівтаря. Монотонним високим голосом Волдеморт промовив:

-- Плоть, плоть, плоть так мудро прихована.

// 18889
//The obelisks began chanting once more.
Обеліски знову почали свій наспів.

// 18890
//__Apokatastethi, apokatastethi, apokatastethi to soma hou emoi (emoi).__
__Апокатастетгі, апокатастетгі, апокатастетгі то сома моу емоі.__

// 18891
//__Apokatastethi, apokatastethi, apokatastethi to soma hou emoi (emoi).__
__Апокатастетгі, апокатастетгі, апокатастетгі то сома моу емоі.__

// 18892
//New flesh flowed out of the stumps of the girl’s thighs, creeping forward like
//an ooze and solidifying.
Нова плоть потекла з обрубків стегон дівчини, просувалася вперед мов болото й
твердішала.

// 18893
//The obelisks ceased chanting. A complete form lay naked upon the altar.
Обеліски змовкли. Ціле голе тіло лежало на вівтарі.

// 18894
//It didn’t look like Hermione. A Hermione Granger should be standing up and
//talking, she should have her Hogwarts uniform.
Це не було схоже на Герміону. Герміона Ґрейнджер стояла й розмовляла б, вона
мала бути у шкільній формі Гоґвортсу.

// 18895
//Voldemort raised a hand, then hissed, as though in annoyance. With a violent
//gesture, the robes around Quirinus Quirrell’s sleeping from were torn in half,
//his purple-and-green tie shredded, and his suit-jacket drawn from him to where
//Voldemort stood. Some part of Harry flinched, as if seeing the Dark Lord
//Voldemort attacking Professor Quirrell.
Волдеморт здійняв руку й роздратовано зашипів. Він різко змахнув рукою, і мантія
Квіріна Квірела, що й далі спав, розідралася навпіл, пурпурово-зелена краватка
розірвалася на клапті, а піджак підлетів до Волдеморта. Частина Гаррі
здригнулася, ніби він бачив, як Темний Лорд Волдеморт напав на професора
Квірела.

// 18896
//Voldemort plunged his hand deliberately into the suit jacket, which jerked as
//though something were being broken; then Voldemort shook out the suit jacket
//onto the ground beside him, emptying out the contents. Harry’s pouch fell from
//it, and his Time-Turner, and a broomstick, and Voldemort’s gun, and the Cloak,
//and a number of amulets and rings and stranger devices that Harry did not
//recognize.
Волдеморт занурив руку в піджак, той смикнувся, ніби в ньому щось зламалося.
Тоді Волдеморт почав витрушувати піджак, і весь його вміст посипався на землю. З
нього випав капшучок Гаррі та його часоворот, мітла, пістолет Волдеморта, Плащ,
чимало амулетів та перснів, а також дивніші пристрої, що їх Гаррі не впізнавав.

// 18897
//And finally a chunk of red glass, which was laid upon Hermione Granger’s form,
//and allowed to stay there for a time.
І нарешті шматок червоного скла. Його Волдеморт поклав на тіло Герміони
Ґрейнджер, та залишив там на деякий час.

// 18898
//Minutes passed. The Dark Lord donned an amulet from the heap of things beside
//the altar; also from the heap, Voldemort took four short wooden rods with
//straps upon them, and reached beneath his robes to attach them, it looked like
//they went on his upper arms and upper thighs. The Dark Lord rose into the air,
//moved left, right, up and down, seeming to wobble slightly at first; then his
//flight stabilized.
//! 64%
// hedrok @ що це за амулет? Він одягнув його чи прикріпив поряд з вівтарем?..
Минали хвилини. Темний Лорд надягнув амулет з купи поряд з вівтарем. Також
Волдеморт дістав з купи чотири короткі деревʼяні жезли з ремінцями, прикріпив їх
під мантією, видавалося, вони йшли від ліктів до плечей та вздовж стегон. Темний
Лорд здійнявся в повітря, полетів ліворуч, праворуч, вниз та вгору. Спочатку він
трохи хитався, та потім його політ став стабільним.

// 18899
//The chunk of red glass turned, slightly.
Шматок червоного скла злегка повернувся.

// 18900
//The Dark Lord Voldemort floated to the ground, and prodded Hermione Granger’s
//body with his wand.
Темний Лорд Волдеморт підлетів до землі й почав тикати тіло Герміони Ґрейнджер
паличкою.

// 18901
//“__There iss an obsstacle,__” hissed Voldemort.
-- __Є одна перепона__, -- прошипів Волдеморт.

// 18902
//In Harry’s mind the expectation of betrayal or other failure had already been
//so strong that the confirmation came only as a dull shock, not a sharp one.
//“__What obsstacle?__”
Гаррі настільки очікував зради чи невдачі, що підтвердження цього факту лише
злегка засмутило його, а не викликало розпач.

-- __Яка перепона?__

// 18903
//“__Girl’ss body iss resstored. Ssubstance iss repaired. But not magic, or
//life… thiss iss body of dead Muggle.”__ Voldemort turned from the altar, began
//to pace. “The full ritual would solve this. But that would require time… time
//and the blood of Granger’s enemy, and I do not think Draco Malfoy still
//qualifies, nor can I take my own blood unwillingly… foolish.” Voldemort’s voice
//was a lower hiss. “Foolish, I should have foreseen this, and prepared. Her
//brain might awaken with an electrical shock, I know that much of Muggle
//medicine… but would her magic return to her? That I do not know, and I suspect
//if she awakens as a Muggle she will be a Muggle forever. Still, I can think of
//nothing better.” The Dark Lord raised his wand -
-- __Тіло дівчини відновлене. З матерією вссе гаразд. Та в ній немає ані магії,
ані життя... це тіло мертвого маґла.__

Волдеморт відвернувся від вівтаря й почав ходити туди-сюди.

-- Повний ритуал розвʼязав би цю проблему, -- вів далі Волдеморт. -- Та на це
потрібен час... час і кров ворога Ґрейнджер. Сумніваюся, що Драко Мелфой
підійде, а власну кров я не можу віддати проти власної волі... нерозумно, --
тепер Волдеморт тихіше шипів слова. -- Нерозумно, я мав би це передбачити й
підготуватися. Її мозок можна розбудити ударом струму, принаймні це з
маґлівської медицини мені відомо... та чи повернеться тоді до неї магія? Я не
знаю, і підозрюю, що як вона прокинеться маґлом, то лишиться маґлом назавжди.
Але я не можу вигадати нічого ліпшого... -- Темний Лорд здійняв паличку...

// 18904
//“Wait!” Harry blurted, feeling hope return. __She needs a spark of life
//and magic, just a spark to get her started…__
-- Заждіть! -- випалив Гаррі, до нього знову повернулася надія. __Їй потрібна
лише іскра життя й магії, просто іскра, щоб вона повернулася до норми.__

// 18905
//Voldemort turned and looked at him. The snakelike face showed some slight
//degree of surprise.
Волдеморт обернувся й поглянув на нього. На обличчі, що скидалося на зміїне,
було видно легке здивування.

// 18906
//“__Think I have ssomething that might work,__” Harry hissed.
//”__Needss wand. Have no intentionss to usse it againsst you.__” Harry said
//nothing about expecting his intentions wouldn’t change; he’d simply blurted out
//the idea fast enough that he hadn’t formed any specific intentions yet.
-- __Гадаю, я знаю дешщо, шщо може сспрацювати__, -- прошипів Гаррі. --
__Потрібна паличка. Не маю намірів викорисстовувати її проти васс.__

Гаррі нічого не казав про те, чи очікує він, що ці наміри зміняться. Просто
випалив ідею якомога швидше, щоб жоден намір не встиг сформуватися.

// 18907
//“This,” Voldemort hissed, “I desire to see.” The Dark Lord reached into the
//heap of things by the altar, and picked up the wrapped form of Harry’s wand. It
//was thrown, gliding through the air and then dropping at Harry’s feet; and then
//the Dark Lord floated back, the heap of things moving smoothly backwards with
//him.
-- Це, -- прошипів Волдеморт, -- я хотів би побачити.

Темний Лорд дістав з купи біля вівтаря загорнуту паличку Гаррі. Він кинув її,
тоді вона попливла повітрям і впала коло ніг Гаррі. Після цього Темний Лорд
відлетів назад, купа предметів плавно перемістилася слідом.

// 18908
//Harry unwrapped his wand, and moved forward.
Гаррі розгорнув паличку й пішов уперед.

// 18909
//__We have our wand back, that’s step one,__ said the last voice, the voice
//of hope.
__Ми повернули паличку, це перший крок__, пролунав останній голос -- голос
надії.

// 18910
//No part of Harry had any idea what step two might be, but it was still step one
//accomplished.
Жодна з частин Гаррі гадки не мала, яким може бути другий крок, та перший крок
було здійснено.

// 18911
//And Harry stood before the reformed body of Hermione Granger, who was still
//naked and dead, on a twilight-lit stone altar.
І ось Гаррі стояв поряд з відновленим тілом Герміони Ґрейнджер, що досі була
голою та мертвою, лежала на осяяному присмерком камʼяному вівтарі.

// 18912
//“Lord Voldemort,” Harry said, “I beg you, please give her some clothes. It
//might help me do this.”
-- Лорде Волдеморт, -- сказав Гаррі, -- благаю вас, будь ласка, дайте їй одяг.
Це мені може допомогти.

// 18913
//“Granted,” hissed Voldemort. The pain in Harry’s scar flared as the naked
//girl’s body lifted into the air, then flared again as dead leaves danced around
//her and she was clothed in the seeming of a Hogwarts uniform, though the trim
//was red instead of blue. Hermione Granger’s hands folded over her chest, her
//legs straightened, and her body drifted back down.
-- Згода, -- прошипів Волдеморт.

У шрамі Гаррі спалахнув біль, коли тіло дівчини піднялося над вівтарем, і знову
спалахнув, коли сухе листя затанцювало навколо неї та перетворилося на форму
Гоґвортсу, хоча та була оздоблена червоним замість синього. Руки Герміони
склалися на грудях, ноги випрямилися, і вона опустилася назад на вівтар.

// 18914
//Harry looked at her.
Гаррі поглянув на неї.

// 18915
//Focused on her, now that she looked human again.
Сфокусувався на ній, тепер вона знову видавалася людиною.

// 18916
//__She looks like she is sleeping, not dead.__ It took a conscious effort
//to look for breathing, fail to see it, and make the deduction. So far as naked
//perception was concerned… Hermione might as well be alive, right now.
__Вона ніби просто спить, а не померла.__ Треба було свідомо роздивлятися, чи
дихає вона, побачити, що ні, і лише тоді можна було зробити правильний висновок.
Зі швидкого погляду... Герміона могла бути й живою, прямо зараз.

// 18917
//That Hermione Granger would not approve of this situation, taken as a whole,
//seemed beyond question. But it didn’t mean that she would rather stay dead than
//be alive, other things being equal, though they might not be.
Герміона Ґрейнджер була б не в захваті від ситуації загалом, у цьому не було
жодних сумнівів. Та це не означало, що вона ліпше б залишилася мертвою, ніж
ожила за умови, що це ні на що не вплине. Хоча може й вплинути.

// 18918
//__Because you wish to live, because my best guess is that you would wish
//to live…__
__Бо ти хочеш жити, я ставлю на те, що ти хотіла б жити...__

// 18919
//Harry reached out his shaking left hand, and touched Hermione’s forehead. It
//was warm now, not the chill of five degrees Celsius; either Voldemort had
//increased her body temperature to normal, or the magic of the ritual had done
//it automatically. Which meant that Hermione’s brain was currently warm and
//without oxygen, come to think.
//! 72%
Гаррі простягнув лівицю, що тремтіла, і торкнувся чола Герміони. Воно тепер було
теплим, а не прохолодним -- не пʼять градусів за Цельсієм. Чи то Волдеморт
підняв температуру її тіла до нормальної, чи то магія ритуалу зробила це
автоматично. А це означало, що мозок Герміони зараз був теплим та без кисню,
якщо про це подумати.

// 18920
//That did it, the sense of urgency rising in him.
Тоді Гаррі наважився, бо в ньому здійнялося відчуття невідкладності.

// 18921
//Harry’s feet assumed the stance, his wand swung up to point at Hermione
//Granger’s dead body. The __only__ thing wrong with Hermione’s body was
//that it was dead; everything else about that body was right, only one thing
//needed changing.
Гаррі став у позицію, направив паличку на мертве тіло Герміони Ґрейнджер.
__Єдине__, що було не так з тілом Герміони, -- воно було мертвим. Усе інше з
тілом було гаразд, треба було змінити лише цей факт.

// 18922
//__You don’t belong here, death.__
__Тобі тут не місце, смерть.__

// 18923
//__“Expecto,__” Harry shouted, feeling __the magic and the life__ rise
//up into the Patronus Charm that was fueled by both, ”__PATRONUM!__”
-- __Експекто__, -- закричав Гаррі, він відчував, як __магія та життя__ перейшли
до чарів патронуса, що живився і тим, і тим, -- __ПАТРОНУМ!__

// 18924
//The girl in the Hogwarts uniform was surrounded by a blazing aura of silver
//fire, as the Patronus was born inside her.
Дівчина у формі Гоґвортсу яскраво засяяла срібним вогнем, коли всередині неї
народився патронус.

// 18925
//Harry staggered, as he felt a __dip,__ a bite. Intuition or Tom Riddle’s
//memory told Harry that the life and magic that had just flowed into Hermione
//would never return to him, either one. It hadn’t been all his life or all his
//magic, not by a long shot, there hadn’t been __time__ to expend that much,
//but whatever he’d just expended was gone forever.
Гаррі похитнувся, відчувши __зменшення__, втрату. Інтуїція чи памʼять Тома Редла
підказували Гаррі, що життєва сила й магія, що щойно перетекли до Герміони вже
ніколи не повернуться до нього. Це не було все його життя чи вся магія, зовсім
ні, не було навіть __часу__, щоб стільки витратити, та витрачене ним сьогодні
було втрачене назавжди.

// 18926
//And Hermione Granger was breathing, just like she was sleeping, rhythmic
//inhalations and exhalations. The twilight sky had dimmed further, and Harry
//could not see if color was returning to her, but it should have been, it
//certainly should have been. She looked to be sleeping peacefully, and it wasn’t
//because being dead looked like sleeping, it was because she was asleep and her
//body was fine and nothing was hurting her while she slept.
І Герміона Ґрейнджер почала дихати, ніби вона просто спала: ритмічно набирала й
випускала повітря. Сутінкове небо потемнішало сильніше, Гаррі вже не бачив, чи
повернувся до неї колір, та мав би, безперечно мав би. Видавалося, вона мирно
спить, і не через те, що смерть схожа на сон, а через те, що вона спала й усе
було гаразд, і нічого в неї не боліло, доки вона спала.

// 18927
//Some part of Harry, that had somehow managed not to speak up earlier, quietly
//pointed out that they were still in a graveyard, the recently victorious Lord
//Voldemort was still in control of the situation, and that his guess about
//Hermione wanting to be alive was just a guess.
Якась частина Гаррі, що якимось дивом стрималася й промовчала раніше, тепер тихо
зазначила, що вони досі на цвинтарі, нещодавно переможний лорд Волдеморт досі
мав повний контроль над ситуацією, а його припущення, що Герміона хотіла б жити,
було лише припущенням.

// 18928
//Harry was still smiling, as he slowly lowered his wand. The celebratory
//fireworks going off inside his mind were restrained, Harry wasn’t screaming and
//running around in little circles like Professor Flitwick, but that -
Гаррі й далі усміхався, він повільно опустив паличку. Уявні святкові феєрверки
в його голові були доволі стриманими, Гаррі не кричав та не бігав маленькими
колами, як професор Флитвік, та...

// 18929
//That -
Це...

// 18930
//__THAT,__ Harry said aloud inside his mind, __THAT is what I call
//Step Two.__
__ЦЕ__, промовив Гаррі подумки, __ЦЕ я називаю крок два.__

// 18931
//“Interesting,” said the cold high voice. “Your Patronus draws upon your life as
//well as your magic… I guessed that much, for it was too powerful for a
//first-year to fuel with magic alone. And yet there must be more to the puzzle,
//since not just any life-fueled spell would have done… was your happy thought
//the image of her returning to life? Was that all it took?” Lord Voldemort was
//again toying with his wand, a dark interest in those red-slitted eyes. “I
//suspect I will feel quite stupid when I finally comprehend that spell, someday
//in my eternity. Now step away from the girl. __There iss more work I
//intend to do, to give her besst chance of continued life.__”
-- Цікаво, -- пролунав холодний високий голос. -- Твій патронус потребує не лише
твоєї магії, а й твоєї життєвої сили... Про це я вже здогадався був, надто вже
він сильний, щоб першокласник був здатен живити його самою магією. Та все ж таки
має тут бути щось іще, бо не кожне закляття, що використовує життєву силу,
спрацювало б... твоя щаслива думка була про повернення її до життя? Це все, що було
потрібно? -- лорд Волдеморт знову грався паличкою, у його червоних очах-щілинах
була чорна цікавість. -- Підозрюю, я почуватимуся дуже дурним, коли нарешті
зрозумію це закляття, колись протягом моєї вічності. Тепер відійди від дівчини.
__Я планую шще дешщо зробити, надати їй найвишщі шшансси на довге життя.__

// 18932
//Harry stepped back, reluctantly, the sense of tension starting to return to
//him. He almost tripped over one haphazard grave marker, as the Dark Lord
//continued to walk forward.
Гаррі неохоче відійшов назад, напруження поверталося до нього. Він ледь не
перечепився через якийсь неочікуваний надгробок, а Темний Лорд ішов уперед.

// 18933
//Standing before the altar, the Dark Lord laid one finger upon Hermione
//Granger’s forehead.
Підійшовши до вівтаря, Темний Лорд поклав палець на чоло Герміони Ґрейнджер.

// 18934
//Then the Dark Lord tapped his finger upon Hermione Granger’s forehead, and
//said, in a voice so low Harry almost did not hear, “__Requiescus.__”
Тоді Темний Лорд стукнув пальцем по чолу Герміони Ґрейнджер та сказав таким
тихим голосом, що Гаррі ледве почув:

-- __Реквіскус.__

// 18935
//Voldemort waved his hand at an obelisk, which began to rotate, turning itself
//to lay flat upon the ground, pointing outward. “Fascinating indeed,” Voldemort
//hissed. “She is alive, and magical, and not another Tom Riddle as I feared you
//might have made her.”
Волдеморт махнув рукою в бік обеліска, той почав крутитися, обернувся так, щоб
лягти на землю й показувати назовні.

-- І справді захопливо, -- прошипів Волдеморт. -- Вона жива, магічна, і не стала
черговим Томом Редлом, як я боявся, ти зробиш.

// 18936
//The tension was rising again in Harry. He’d put his wand away into the back
//belt of his pants, he __did not want__ to remind Voldemort that he still
//had the wand on him. “What are you doing to her now?”
Напруга всередині Гаррі зростала. Він поклав паличку за пасок штанів і __не
хотів__ нагадувати Волдемортові, що досі має паличку.

-- Що ви тепер з нею робите?

// 18937
//Another obelisk turned, lay flat upon the ground. “__There iss old, losst
//ritual to ssacrifice magical creature, transsfer magical nature to ssubject.
//Limitationss are great. Transsfer iss temporary, only few hourss. Ssubject
//ssometimess diess when transsfer wearss off. But Sstone will make permanent.__”
Ще один обеліск повернувся й ліг на землю.

-- __Ісснує сстарий, загублений ритуал пожертви магічної ісстоти, передача
магічної природи ссубʼєкту. Ссерйозні обмеження. Передача тимчасова -- лишше на
кілька годин. Ссубʼєкт інколи помирає, коли ефект закінчується. Та Камінь
зробить її ссталою.__

// 18938
//Four obelisks lay flat upon the ground, evenly spaced; the other two obelisks
//had been floated away.
Чотири обеліски лежали на землі на рівних відстанях. Інші два відлетіли подалі.

// 18939
//Voldemort began to reach into his own mouth, checked himself, hissed with
//annoyance again. He gestured at the sleeping mouth of Quirinus Quirrell, and
//from Quirrell’s mouth floated up two teeth, almost invisible in the falling
//night. One of these went to the pile of items, the other floated to before the
//altar.
//! 80%
Волдеморт потягнувся до рота, спинився, знову роздратовано зашипів. Він вказав
на рот Квіріна Квірела, що досі спав, і з його рота вилетіли два зуби, майже
невидимі вночі. Один з них доповнив купу предметів, інший підлетів до вівтаря.

// 18940
//Moments later, Harry cried out and took a step back.
За мить Гаррі зойкнув та відсахнувся.

// 18941
//Huge and misshapen, lumpy skin, legs thick as tree-trunks, a small head that
//looked like a coconut perched upon a boulder.
Величезний та неправильної форми, грудкувата шкіра, ноги завтовшки як стовбури
дерев, невеличка голова, що скидалася на кокос на валуні.

// 18942
//A mountain troll stood within the circle of obelisks, motionless as though
//asleep while standing.
Гірський троль стояв у колі обелісків нерухомо, немовби він спав стоячи.

// 18943
//“__What are you doing?__”
-- __Шщо ви робите?__

// 18944
//Voldemort’s mouth was stretched in a wide smile; it looked __horrible __on
//him, like his face had too many teeth. __“Sshall ssacrifice my fallback
//weapon, and girl-child sshall gain troll’ss power of regeneration.
//Transsfiguration ssicknesss iss nothing before that, if perchance it wass not
//fixed by previouss ritual. And no knife sshall sslay girl-child, nor cutting
//cursse, nor ssicknesss take her.__”
Рот Волдеморта розтягнула широка посмішка -- це було __жахливе__ видовище, ніби
в нього було забагато зубів.

-- __Принессу в жертву ссвою запассну зброю, і дівчина отримає ссилу
регенерації троля. Їй сстане не сстрашна хвороба транссфігурації, раптом її не
вилікував попередній ритуал. І жоден ніж її не вбʼє, як і різальне прокляття,
вона ніколи не хворітиме.__

// 18945
//“Why - why are you doing this?” Harry’s voice shook.
-- Чому... чому ви це робите? -- голос Гаррі тремтів.

// 18946
//“__Have not the tiniesst intention of letting girl-child die again, after
//going to ssuch lengthss to ressurrect her.”__
-- __Не маю ані крихти бажання, шщоб дівчина знову померла піссля того, як я
доклав сстільки зуссиль, шщоб восскрессити її.__

// 18947
//Harry swallowed. “I’m very confused.” Was Voldemort __practicing being
//nice?__ This hypothesis did not seem like a sufficient explanation.
Гаррі ковтнув слину.

-- Я дуже спантеличений, -- промовив він.

Волдеморт що, __практикувався бути добрим__? Видавалося, ця гіпотеза не була
достатнім поясненням.

// 18948
//“Stay well back,” Voldemort said coldly. “This ritual is Darker than the last.”
//The Dark Lord began a new chant, softer syllables that seemed to seethe through
//the air like living things; and Harry, feeling a new surge of apprehension,
//stepped backwards.
-- Відійди подалі, -- холодно сказав Волдеморт. -- Цей ритуал темніший за
попередній.

Темний Лорд почав новий монотонний наспів, мʼякіші склади заповнили повітря, мов
живі істоти. А Гаррі, відчувши, як наростає неприємне відчуття, відійшов назад.

// 18949
//Then Harry cried aloud, as pain flared again within his scar. The mountain
//troll crumbled in on itself, becoming ashes hanging in the air, then dust, and
//then the dust seemed to blow away without going anywhere; it was gone.
А тоді Гаррі скрикнув, бо біль знову спалахнув у його шрамі. Гірський троль
почав кришитися, став попелом, що висів у повітрі, тоді порохом, а потім і порох
ніби здуло, хоч нікуди його не здувало. Він зникнув.

// 18950
//Hermione Granger slept on peacefully, whatever spell of repose Voldemort had
//cast on her being sufficient to the task.
Герміона Ґрейнджер мирно спала, хай яке закляття Волдеморт наклав на неї для
цього, його було достатньо.

// 18951
//“Um,” Harry said in a small voice. “Did it work?”
-- Ем, -- тихенько почав Гаррі. -- Спрацювало?

// 18952
//“__Diffindo.__”
-- __Діфіндо.__

// 18953
//Harry stepped forward with a choked yell, and then halted, both as the
//stupidity of his motion caught up with him, and as the sudden cut that the
//Severing Charm had opened on Hermione’s leg closed almost as quickly as it had
//been made. In seconds there was only a light stain of blood on the surrounding
//flesh.
Гаррі почав бігти уперед із приглушеним криком, а тоді спинився: водночас він
збагнув усю дурість свого руху, а також рана від різальних чарів загоїлася майже
так швидко, як була зроблена. За секунди лишилася лише пляма крові на плоті
навколо.

// 18954
//The Stone was laid again on Hermione, and after a time it turned. Voldemort
//laughed once more, as he passed his hand over her. “Marvelous.”
Камінь знову поклали на Герміону, а по певному часі він обернувся. Волдеморт
знову розсміявся, провівши над нею рукою:

-- Чудесно.

// 18955
//Then another tiny tooth was floating within the circle of obelisks; and an
//instant later, a unicorn stood where the troll had stood before, eyes dull and
//head lowered.
Ще один крихітний зуб злетів до кола обелісків. За мить на місці троля стояв
єдиноріг. Його очі були тьмяними, голова опущена.

// 18956
//“What?” Harry said. “Why a __unicorn?__”
-- Що? -- спитав Гаррі. -- Чому __єдиноріг__?

// 18957
//“__Power of unicorn’ss blood to presserve life makess excellent
//combination with troll’ss healing. Only Fiendfyre and Killing Cursse sshall
//girl-child fear, from thiss day.”__ A flicker of snakish laughter.
//“__Bessidess, had sspare unicorn left over, might ass well usse.”__
-- __Ссила крові єдинорога зберігати життя -- чудова комбінація з цілюшщою
ссилою троля. Тепер дівчина може боятисся лишше зложару та ссмертельного
прокляття__, -- напад зміїного сміху. -- __Крім того, мав запассного єдинорога,
вирішшив, чому б ним не сскорисстатисся.__

// 18958
//“Unicorn’s blood has side effects-”
-- Кров єдинорогів має побічні ефекти...

// 18959
//“__That iss only when power of unicorn’ss blood iss sstolen by another.
//Thiss sspell will make power of unicorn belong insside girl-child, ass if sshe
//wass alwayss born that way.”__
-- __Лишше якшщо ссилу крові єдинорога вкрав іншший. Це закляття зробить так,
шщоб кров єдинорога була вссередині дівчини, ніби вона такою й народиласся.__

// 18960
//The grim chant and its seething words began again.
Невблаганний наспів знову полився повітрям.

// 18961
//Harry watched, not understanding in the slightest.
Гаррі дивився і нічогісінько не розумів.

// 18962
//__Forget understanding, what am I seeing?__
//! 88%
__Грець із розумінням, що я спостерігаю?__

// 18963
//__I’m seeing the Dark Lord Voldemort going to enormous lengths to
//resurrect Hermione Granger and keep her alive. It’s like he thinks that his own
//life depends on Hermione Granger being alive, somehow.__
__Я спостерігаю, що Темний Лорд Волдеморт вдається до крайніх заходів, щоб
воскресити Герміону Ґрейнджер та зберегти їй життя. Ніби він знає, що його
власне життя якимось чином залежить від того, чи житиме Герміона Ґрейнджер.__

// 18964
//The confused parts of Harry looked around for a procedure to follow. ‘Make a
//prediction based on your best current hypothesis’ was the first thought that
//came to mind, but it didn’t seem to lead anywhere. The plot of the story wasn’t
//going how it ought to, after the villain had won.
Спантеличені частини Гаррі роззиралися довкола в пошуках процедури, яку треба
виконати. "`Зроби передбачення на основі найкращої поточної гіпотези`" -- перше,
що спало йому на думку, та це ні до чого не призводило. Сюжет розвивався не так,
як мав би після того, як лиходій переміг.

// 18965
//Again the blaze of pain in his scar, like a blow to Harry’s forehead. The
//unicorn swayed, and then disintegrated as the troll had done.
І знову спалах болю в шрамі, ніби Гаррі вдарили в чоло. Єдиноріг заколихався та
дезінтегрував так само, як троль.

// 18966
//The Dark Lord laid the Stone upon Hermione’s form once more, clasping her hands
//around it.
Темний Лорд знову поклав Камінь на Герміону, а тоді поклав на нього її руки.

// 18967
//Voldemort watched the unremarkable process for a time, then turned while the
//Stone still laid on her, making a high humming sound in his throat. “Ah, yes,”
//hissed Voldemort. “That would be most appropriate. Do you still have the diary
//I gave you, boy? The diary of the famous scientist?”
Волдеморт спостерігав за Каменем деякий час, потім озирнувся, доки Камінь ще
лежав на ній, і гучно замугикав.

-- О, так, -- прошипів Волдеморт. -- Це буде вкрай доречно. Чи маєш ти при собі
щоденника, що я його тобі дав? Щоденник відомого науковця?

// 18968
//Harry’s brain took a moment to place what Voldemort was talking about. It had
//been in Mary’s Room, in Mary’s Place, in October, that precious gift from a
//friend. The thought should have triggered a wave of awful sadness, for the
//Professor Quirrell that had been lost or never real; but there had been enough
//of that emotion already, and his brain had set it aside for now.
Гаррі заклякнув на мить, згадуючи, про що йдеться. Це було в жовтні, в "`Кімнаті
Мері`", у закладі "`У Мері`", цінний подарунок від друга. Ця думка мала б
ви{stress}кликати хвилю неймовірного суму, бо втрачений професор Квірел ніколи
навіть не був справжнім. Та цієї емоції вже й так було через край, тож його
мозок просто не зважав.

// 18969
//“Yes,” Harry said aloud. “I think it’s in my pouch, can I check?” Harry
//__knew__ it was in the pouch. He’d loaded it up with everything that he
//might possibly conceivably need, that he owned or had bought; everything that
//could have been a quest item.
-- Так, -- сказав Гаррі вголос. -- Гадаю, у моєму капшучку. Можна перевірити?

Гаррі __знав__, що той у капшучку. Він поклав у капшучок усе, що тільки могло йому
теоретично стати в пригоді, що він мав або купив. Усе, що могло бути сюжетним
предметом.

// 18970
//From the heap of items by the altar, Harry’s mokeskin pouch was drawn out,
//tossed to Harry’s feet.
З купи речей коло вівтаря виринув моковий капшучок Гаррі та приземлився біля ніг
Гаррі.

// 18971
//“Roger Bacon’s diary,” Harry said as he reached in a hand, and the diary
//appeared. Professor Quirrell had said that the diary would emerge unscathed
//from a fire, so Harry threw it toward Voldemort’s altar. Harry did not wince;
//there were more important things to worry about than polite treatment of books,
//even that one.
-- Щоденник Роджера Бекона, -- сказав Гаррі та простягнув руку, щоденник
зʼявився.

Професор Квірел казав був, що щоденнику не нашкодить навіть вогонь, тож Гаррі
кинув його до вівтаря Волдеморта. Гаррі не здригнувся -- його уваги потребували
важливіші речі, ніж обережне ставлення до книжок, навіть до цієї книжки.

// 18972
//Voldemort picked up the diary, examining it, appearing quite absorbed.
Волдеморт підняв щоденник, оглянув його, видавалося, був доволі зосередженим.

// 18973
//Harry, as quietly and unobtrusively as he could, attached the pouch to his belt
//loop in back, where it wouldn’t be visible, near where Harry had put his wand.
Гаррі якомога тихіше й непомітніше повісив капшучок на свій пасок поряд з
паличкою -- там, де його буде не видно.

// 18974
//__Step three, the pouch.__
__Крок третій, капшучок.__

// 18975
//“Yes,” Voldemort hissed as he flipped pages of the diary, “this will do quite
//well.” The Stone moved slightly, and the Dark Lord’s other hand stored the
//Stone again within his robes.
-- Так, -- прошипів Волдеморт, гортаючи сторінки щоденника, -- це підійде.

Камінь злегка повернувся, і Темний Лорд поклав його до мантії.

// 18976
//“What was your hidden purpose behind the diary?” Harry said when the pouch was
//attached to his belt, and he’d put both of his empty hands where Voldemort
//could see them again. “I tried translating a little at the beginning, but it
//was going slowly -” Actually, it had been excruciatingly slow and Harry had
//found other priorities.
-- Яким був ваш мотив дарувати мені щоденник? -- спитав Гаррі, коли припасував
капшучок та склав свої порожні руки так, щоб Волдеморт знову міг їх бачити. -- Я
старався перекласти трохи початку, та справи просувалися повільно...

Насправді, справи просувалися жахливо повільно, і Гаррі знайшов інші справи.

// 18977
//“__Diary wass exactly what it sseemed, a gift meant to sseduce you to my
//sside.__” Voldemort made intricate gestures in the air with his wand, not even
//looking at what his hand was doing, as he held the diary in his other hand. For
//a moment Harry thought he could see a trail of darkness in the air, but the
//moonlight was too faint for certainty. “And now, my dear boy,” Voldemort’s high
//voice was laced with grim amusement, as his wand briefly tapped Hermione
//Granger’s forehead with a casual gesture, “I make this diary into a far more
//precious gift, a sign of how much wisdom I have learned from you. For I would
//never want you to be deprived of Hermione Granger’s counsel and restraint, not
//ever while the stars yet live. __Avadakedavra.__”
-- __Шщоденник був ссаме тим, чим видававсся -- подарунок з метою переманити
тебе на ссвій бік.__

Волдеморт виконував у повітрі складні жести паличкою, навіть не дивлячись, що
він робить. Він тримав щоденник в іншій руці. На мить Гаррі здалося, що він
бачить доріжку з темряви в повітрі, та місячне сяйво було надто слабким, щоб
бути певним.

-- А тепер, мій любий хлопче, -- високий голос Волдеморта сповнювала нещадна
веселість, він спокійно й швидко торкнувся чола Герміони Ґрейнджер, -- я
перетворю цей щоденник на значно цінніший подарунок -- знак того, як багато
мудрості я в тебе почерпнув. Бо я хочу, щоб ти завжди мав поради й стримування
Герміони Ґрейнджер, доки живуть зірки. __Авадакедавра__.

// 18978
//The green bolt of the Killing Curse blazed out faster than Harry could possibly
//have cast the Patronus Charm, faster than he could possibly have moved, it was
//already over even as Harry cried out and went for his wand.
Зелена блискавка смертельного прокляття спалахнула швидше, ніж Гаррі навіть
теоретично міг би створити патронуса, швидше, ніж він міг би поворухнутися, усе
було скінчено ще до того, як Гаррі скрикнув та потягнувся за паличкою.

// 18979
//Quirinus Quirrell’s unconscious body did not even jerk, in death. The green
//light struck into it without other sign.
Непритомне тіло Квіріна Квірела навіть не смикнулося, коли померло. Зелене
світло влучило в нього без жодних інших ознак.

// 18980
//Darkness glowed in the air, anti-light in the trails that Voldemort had made
//before, and the Diary of Roger Bacon darkened as though corruption were
//creeping over it, even as a shiver appeared in the air around Hermione
//Granger’s form.
Темрява засяяла в повітрі -- доріжки антисвітла, як та, що Волдеморт нещодавно
створив. Щоденник Роджера Бекона потемнішав, ніби ним ширилася хвороба. Повітря
навколо Герміони Ґрейнджер затремтіло.

// 18981
//The pain in Harry’s scar flared overwhelmingly, like a brand driven into his
//forehead, it sent Harry dodging unthinkingly to one side as Tom Riddle’s
//reflexes took over.
//! 96%
Нестерпний біль спалахнув у шрамі Гаррі, ніби йому випалювали клеймо, Гаррі
бездумно відстрибнув убік -- рефлекси Тома Редла взяли гору.

// 18982
//And Voldemort was also screaming, shrieking as he dropped the diary to the
//ground, holding his own head and screaming.
Та Волдеморт теж кричав -- волав, впустив щоденник на землю, тримався за голову
й кричав.

// 18983
//__Chance -__
__Шанс...__

// 18984
//The last voice of hope said that, as Harry tried frantically to think, to
//understand. There wasn’t any __point__ in trying to kill Voldemort now, it
//might only __annoy__ him, weapons couldn’t kill him while any of his
//hundreds of horcruxes remained -
Це сказав останній голос надії, а Гаррі несамовито старався міркувати,
зрозуміти. Не було __сенсу__ намагатися вбити Волдеморта зараз, це лише
__роздратує__ його. Зброя не могла його вбити, доки лишався бодай один з сотні
його горокраксів...

// 18985
//But it still seemed worth it to temporarily discarnate Voldemort, take the
//Stone and Hermione and run.
І все ж таки видавалося, що тимчасово позбавити Волдеморта тіла могло бути того
вартим. Просто взяти Камінь, Герміону та тікати.

// 18986
//Harry’s right hand had already taken his wand. His left hand went around to his
//back, reached awkwardly into his pouch, began to make a silent sign, three
//English letters.
// hedrok @ якщо в когось є коротше слово ніж "`пістолет`" для перекладу "gun",
//        скажіть, будь ласка.
У правиці Гаррі вже тримав паличку. Лівицю він незручно занурив у капшучок за
спиною та швидко написав вісім літер.

// 18987
//“No!” cried Voldemort. He’d dropped his hands from his head, was staring at
//Hermione’s body as though bewildered. “No, no!”
-- Ні! -- заволав Волдеморт. Він відкинув руки від голови й витріщався на тіло
Герміони, ніби збентежений. -- Ні, ні!

// 18988
//The item came up from Harry’s pouch into his hand, and Harry began to step
//forward as smoothly as he could, diminishing the range between them to what his
//brief trials had shown was doable.
Предмет потрапив у руку Гаррі з капшучка, і Гаррі почав йти вперед якомога
тихіше, зменшуючи відстань між ними до мінімально можливої, згідно його
невеличкого досвіду.

// 18989
//“My great creation -” gasped Voldemort. His voice was high, sounding panicked.
//“Two different spirits cannot exist in the same world - it is gone, it is
//severed! A horcrux, I must make a horcrux at once -” Voldemort’s gaze fell on
//Hermione Granger’s still-sleeping form, and he began to raise his wand in the
//air, executing the same gestures as before.
// #пророцтво
-- Мій великий витвір... -- скрикнув Волдеморт. У нього був високий сповнений
паніки голос. -- Два різні духи не можуть існувати в одному світі... він
зникнув, його пошкоджено! Горокракс, я маю негайно створити горокракс...

Погляд Волдеморта опустився на Герміону Ґрейнджер, що досі спала, він підвів
паличку в повітря й почав виконувати ті ж жести, що й раніше.

// 18990
//Harry raised his gun and pulled the trigger three times.
Гаррі здійняв свій пістолет і тричі натиснув на гачок.

// 18991
//**__The next chapter will post in 2.5 hours, at 1PM Pacific / 9PM
//UTC.__**

// 18992
//**I’ll be on a train, though, so don’t panic if it’s a
//little late.**
