// 19346
//== Aftermath, Something to Protect, Pt 0
== Розділ 116. Наслідки, варте захисту, ч.0

// 19347
//At first Anna had been gratified to see the final Quidditch Cup go on so long -
//as a Gryffindor she was a bystander at the House Cup thing, it wasn’t like
//Gryffindor ever won. In contrast, last year’s World Cup of Quidditch, to which
//her family had bought some very expensive tickets, had been over in __ten
//minutes__ which was __awful__. Modern Quidditch games had become too short,
//the Snitch caught much too quickly. It was a widely-talked problem among
//aficionados: broomstick enchantments had advanced, while the Snitch stayed the
//same regulation speed, with the result that Quidditch games had become shorter
//and shorter. At professional levels the sport of Quidditch had been reduced to
//a contest of who had the deepest pockets for their Seeker’s experimental racing
//broom, and the rest of the players might as well have been watching from the
//stands.
Спочатку Анна була рада тому, як сильно затягнувся фінал кубка квідичу:
ґрифіндорка, вона лише спостерігала за кубком гуртожитків -- так чи інакше, а
Ґрифіндор ніколи не вигравав. Натомість минулого року, коли її родина купила
дорогезні квитки на Кубок світу з квідичу, гра закінчилася за якісь жалюгідні
__десять хвилинок__, і це було просто __жахливо__. Сучасні матчі з квідичу
стали були закороткі, позаяк снич навчилися ловити дуже швидко. Ця проблема
широко обговорювалася серед завзятих поцінувачів спортивного напрямку: чари на
мітлах ставали дедалі більш просунутими, а снич літав все з тією ж швидкістю, закріпленою в
правилах. В результаті матчі дедалі коротшали. На рівні професійного спорту
квідич деградував до рівня змагання поміж спонсорів у спроможності придбати нову
експериментальну гоночну мітлу для ловця; решта гравців взагалі могла з тим
самим успіхом дивитися на матч з трибун.


// 19348
//Everyone knew something had to be done, the situation had been getting worse
//for __centuries__ and now it was__ intolerable.__ But the
//International Confederation of Wizards’ Quidditch Committee was mired in all
//the usual acrimony of the I.C.W., screaming disputes between Germans and
//Bulgarians, and somehow nobody could agree on __exactly__ how to fix the
//rules. To Anna the correct course seemed obvious, just make the Snitch fast
//enough to restore the four-hour or five-hour games of the early nineteenth
//century and the Golden Age of Quidditch. Except the Belgians thought the
//duration of a professional game should be two hours like in __La Belle
//____Époque__ when Belgium had dominated Quidditch, and the lunatic
//Italians wanted to go back to the week-long Quidditch games of the fourteenth
//century, and Britain’s even crazier blood purists kept on talking up the
//occasional day-long Quidditch match as proof that broomsticks couldn’t
//__really __have improved since everything was better in the old days
//__which was not how the Interdict of Merlin worked.__
Всі знали, що з цим треба щось робити, бо проблема ставала дедалі гіршою
__протягом століть__ і набула __нестерпних__ масштабів.
Втім, Комітет Міжнародної Конфедерації
Чаклунів з питань квідичу потопав у багнюці взаємних суперечок і претензій, як
і вся МКЧ -- на тлі гострого протистояння німців та болгарів; чомусь ніхто не
міг домовитися про те, __які саме__ зміни варто внести в правила. Для Анни
єдине правильне рішення було цілком очевидне: треба просто пришвидшити снич
достатньо, щоб повернути чотири-, п'ятигодинні матчі стандарту раннього
дев'ятнадцятого сторіччя -- золотої ери квідичу. Ось тільки бельгійці
чомусь вважали, що матч професійної ліги має тривати дві години, як у часи __La
Belle Époque__, коли Бельгія була лідером у квідичі; натомість схиблені
італійці воліли повернутися до тижневих матчів чотирнадцятого сторіччя, а
найбільш кризануті поборники чистоти крові намагалися на прикладі рідкісних
сучасних цілодобових матчів з квідичу переконати всіх, що мітли не могли __насправді__
вдосконалитись, позаяк за старих часів все було краще, __хоча
насправді Інтердикт Мерліна призводить не до цього__.
//! brownian: Тут трохи дивно — виходить, що доба довша за тиждень?
//! hedrok: так, дякую.

// 19349
//She was one hundred percent on the side of Harry Potter that it was time for
//Hogwarts to give up on those gibbering slowpokes and just change the rules,
//starting here and now. But not by __eliminating the Snitch,__ that was
//going all the way back to __eleventh century Kwidditch.__ It didn’t matter
//if Headmistress Hufflepuff had first introduced the innovation because one of
//her students had wanted to play the game but not been suited to the usual
//roles. Snitches had caught on internationally because it was more exciting when
//the game could always end in the next minute.
Вона на сто відсотків поділяла думку Гаррі Поттера, що прийшов час Гоґвортсу
забити на белькотіння тих черепах і просто змінити правила, тут і зараз. Але ж не
шляхом __скасування снича__, це вже __квідич одинадцятого сторіччя__ якийсь. І
неважливо, що директорка Гафелпаф вперше запропонувала цю інновацію, бо
один з її учнів хотів грати, але не вписувався в жодну з існуючих ролей. Сничі
дістали міжнародного визнання, бо коли матч може закінчитися у будь-яку
мить, гра набуває саспенсу.

// 19350
//Anna had been arguing this viewpoint at the top of her lungs for the last
//thirty minutes, quite forgetting to pay attention to the game. Thanks to a
//lucky coincidence of seating she’d been near the Boy-Who-Lived and his sign,
//and hence she’d managed to stake out her position right from the start.
Останні тридцять хвилин Анна на максимальній гучності обстоювала цю точку
зору, геть закинувши стежити за перебігом гри. Завдяки щасливому збігу
обставин, їй дісталося місце поруч із Хлопчиком-Що-Вижив та його плакатом, і
тому їй вдалося одразу чітко окреслити свою позицію.

// 19351
//She was aware, in the back of her mind, that if the Quidditch rules really
//__did__ change starting here and now, then this was the __most
//important thing she’d ever do.__ She could almost __feel__ the pressure of
//Time twisting around her as though the fate of Quidditch Itself were being
//settled this very day, and she was standing close to the center of it… though
//she hadn’t gotten high-enough scores in Divination to actually sense anything
//like that, of course.
Вона спинним мозком відчувала: якщо правила квідичу __дійсно__ зміняться
просто тут і просто зараз, це буде __її найважливіший в житті внесок__. Вона
майже __відчувала__, як Час тисне на неї, звивається довкола так, ніби доля
всього квідичу вирішувалася в ці години, а вона -- вона стояла поруч із центром
цих змін... хоча, звісно, в неї не були аж таки високі бали з віщування, щоб
справді щось таке відчути.

// 19352
//She hardly noticed when at one point the Boy-Who-Lived stood up to go to the
//bathroom.
В якийсь момент вона ледь звернула увагу, що Хлопчик-Що-Вижив встав, щоб вийти в
туалет.

// 19353
//The Boy-Who-Lived did catch her eye when he trudged back; Harry Potter looked a
//bit tired and wobbly, though his uniform appeared as trim as if he’d just
//changed into a new one.
Коли він повернувся, вона помітила, що він якийсь втомлений і ковзає
ногами. Натомість його форма -- така хрустка, ніби це новий комплект з шафи.

// 19354
//She noticed half an hour later on, when Harry Potter seemed to sway a bit, and
//then hunch over, his hands going to cover up his forehead; it looked like he
//was prodding at his forehead scar. The thought made her slightly worried;
//everyone knew there was __something going on__ with Harry Potter, and if
//Potter’s scar was hurting him then it was possible that a sealed horror was
//about to burst out of his forehead and eat everyone. She dismissed that
//thought, though, and continued to explain Quidditch facts to the historically
//ignorant at the top of her lungs.
Ще за пів години вона побачила, що Гаррі Поттера ніби трохи хитає, а тоді -- що
він зсутулився, прикривши руками лоба; виглядало так, ніби він мацає свій шрам.
Думка про шрам дещо занепокоїла її; всі знають, що з Гаррі Поттером __щось не
так__, і якщо в Поттера болить шрам, то, можливо, запечатане в його голові
жахіття готове вирватися і зжерти всіх довкола. Та вона відігнала від себе
побоювання і не жаліючи легень викладала факти про квідич історично непідкованим
кадрам далі.

// 19355
//She definitely noticed when Harry Potter stood up, hands still on his forehead,
//and dropped his hands to reveal that his famous lightning-bolt scar was now
//blazing red and inflamed. It was __bleeding,__ with the blood dripping
//down Potter’s nose.
Вона на власні очі побачила, коли Гаррі Поттер підвівся й відняв руки від лоба
-- його славнозвісний шрам палав червоним і був запаленим. З нього цівкою
лилася __кров__, крапаючи Поттерові на ніс.

// 19356
//She stopped talking mid-sentence. Other people turned to look at what she was
//staring at.
Вона замовкла посеред речення. Інші повернулись подивитися, на що вона
витріщається.

// 19357
//“Professor McGonagall?” Harry Potter said in a wavering voice. There were tears
//in the corners of his eyes, which shocked her; the Boy-Who-Lived did
//__not__ seem like the sort of person who would burst into tears. Harry
//Potter raised his voice further, as though it were hard for him to speak. “Um,
//Professor McGonagall?”
-- Професорко Макґонеґел? -- тремким голосом озвався Гаррі Поттер. В кутках
його очей стояли сльози, що стало для Анни справжнім шоком: Хлопчик-Що-Вижив
__не скидався__ на людину, якій багато не треба, щоб заревти. Гаррі Поттер
заговорив гучніше, так, ніби це давалося йому із зусиллям. -- Ем, професорко
Макґонеґел?

// 19358
//Professor McGonagall turned away from where she was arguing with the Hufflepuff
//Quidditch team. The Head of Gryffindor’s eyes widened in shock, and then she
//was moving people out of her way, almost running. “Harry!” she said. “Your
//__scar!__”
Професорка Макґонеґел відвернулася від команди гафелпафців, з якими ото
сперечалася. Вихователька Ґрифіндору широко розплющила очі від жаху,
а тоді майже побігла:

-- Гаррі! -- скрикнула вона. -- Твій __шрам__!

// 19359
//Silence was spreading, in a widening circle.
Тиша розливалася все ширше по колу.

// 19360
//“I think,” Harry said, his voice still wavering but louder, “I think he’s back.
//I think I’m seeing - through Voldemort’s mind -”
-- Я думаю, -- досі непевно казав Гаррі, але вже гучніше, -- я гадаю, він
повернувся. Я гадаю, я бачу... через свідомість Волдеморта....

// 19361
//Anna took a step back at You-Know-Who’s name and nearly fell over a bleacher.
//An older boy standing next to her gave a cry of dismay, and then the
//Boy-Who-Lived shrieked even louder.
Анна відступила на крок, почувши ім'я Відомо-Кого, і ледь не перечепилася
спиною через лавку. Старший хлопець поряд із нею відчайдушно заволав, а тоді
Хлопець-Що-Вижив ще гучніше верескнув.

// 19362
//“HE’S KILLING THEM!” screamed Harry Potter.
-- ВІН ЇХ ВБИВАЄ! -- заголосив Гаррі Поттер.

// 19363
//Half the Quidditch stadium turned to look at him.
Добра половина квідичного стадіону розвернулася до нього.

// 19364
//“The ritual!” cried Harry Potter. “Blood of his servants! The blood, the life!
//He summoned them, he took their heads, their blood, the life, to renew his own
//- __THE DARK LORD RISES, VOLDEMORT IS RETURNED!”__
-- Ритуал! -- кричав Гаррі Поттер. -- Кров його прислужників! Кров, життя! Він
прикликав їх, взяв їхні голови, їхню кров, їхнє життя, щоб відновитися...
__ТЕМНИЙ ЛОРД ПОВСТАЄ, ВОЛДЕМОРТ ПОВЕРНУВСЯ!__

// 19365
//Madam Hooch blew a shrill whistle, and the Quidditch brooms that hadn’t already
//stopped in midair began to slow. For herself she wasn’t sure if this was a
//joke; if it was, Boy-Who-Lived or not, he was in more trouble than she could
//even imagine.
Мадам Гуч пронизливо засвистіла, і всі мітли гравців, що ще не зупинилися у
повітрі, почали сповільнювати рух. Вона ще не була певна, чи це раптом не жарт
якийсь; і якщо це жарт, навіть Хлопчику-Що-Вижив стане непереливки.

// 19366
//Professor McGonagall raised her wand into position for a Quieting Charm and
//Harry Potter caught her hand.
Професорка Макґонеґел приготувалася накласти чари тиші, та Гаррі Поттер схопив
її за руку.

// 19367
//“Wait -” Harry Potter gasped, his voice lower, but still loud enough that she
//and the people near her could hear clearly. “He can be stopped - I see his
//mind, his mistake - he can be stopped __now__ - __THE WAY IS STILL
//OPEN! SHE’S FOLLOWING HIM! SHE WHO VOLDEMORT SLEW!__” Harry’s voice rose
//further, as Anna’s own mouth fell open in sudden confusion. ”__RETURN!
//RETURN, RETURN, REVIVE AND STOP HIM! STOP HIM, HERMIONE!__”
-- Чекайте, -- Гаррі Поттер провадив далі сипло, тихіше, але достатньо голосно
для людей поблизу. -- Його можна зупинити -- я читаю його свідомість, я бачу
його помилку... його можна зупинити __зараз__... __ШЛЯХ ДОСІ ВІДКРИТИЙ! ВОНА
ПЕРЕСЛІДУЄ ЙОГО! ВОНА, ЩО ВОЛДЕМОРТ ЇЇ ВБИВ!__ -- голос Гаррі підіймався вгору,
тоді як щелепа Анни відпадала все далі вниз. -- __ПОВЕРТАЙСЯ! ПОВЕРТАЙСЯ,
ПОВЕРТАЙСЯ, ОЖИВАЙ І ЗУПИНИ ЙОГО! ЗУПИНИ ЙОГО, ГЕРМІОНО!__

// 19368
//And then Harry Potter fell silent. He looked around at the people staring at
//him.
А тоді Гаррі Поттер замовкнув. Він подивився довкола, на людей, що на нього
витріщалися.

// 19369
//She’d just about decided that this had to all be a prank in
//__unbelievably__ poor taste, when a distant but sharp CRACK filled the
//air.
Мадам Гуч вже подумала, що це таки якась витівка __неймовірно__ низького штибу,
коли повітря розірвав віддалений ЛЯСКІТ.

// 19370
//Harry Potter swayed, and fell to his knees, even as her heart jumped into her
//throat. An explosion of excited babble rose around them.
Гаррі Поттер захитався, впав на коліна, а її власне серце наче застигло в грудях.
Довкола вибухнув гомін збуджених голосів.

// 19371
//She could still hear the words from Harry Potter’s mouth, as Professor
//McGonagall knelt next to him. “It worked,” Harry Potter gasped aloud, “she got
//him, he’s gone.”
Та вона ще впоралася почути, що сказав Гаррі Поттер, коли професорка Макґонеґел
схилися до нього.

-- Спрацювало, -- гучно віддихався Гаррі Поттер. -- вона дістала його, він
мертвий.

// 19372
//__“What?__” cried Professor McGonagall, then glanced around.
//”__Quiet! Quiet, all of you!__ Harry, what happened?”
-- __Що?__ -- закричала професорка Макґонеґел, тоді роззирнулася довкола.
-- __Тихіше! Замовкніть, усі!__ Гаррі, що сталося?

// 19373
//Harry Potter was speaking rapidly but loudly. “Voldemort - tried to revive - he
//summoned Death Eaters __and he killed them,__ stole their blood and life -
//Hermione’s body was there, I don’t know why, maybe Voldemort was planning to
//use it for something - Voldemort came back, he resurrected himself, but
//Hermione __followed him back__ and she__ destroyed him,__ he’s gone,
//it’s over. It happened in a graveyard near Hogwarts, it’s,” Harry Potter rose
//to his feet, still swaying, “I think it’s in that direction.” Harry Potter
//pointed in the rough direction the CRACK had come from, “I’m not sure how far.
//The sound from there took twenty seconds to get here, so maybe two minutes on a
//broomstick -”
Гаррі Поттер знову заговорив, швидко, але гучно:

-- Волдеморт... спробував відновитися... він скликав Смертежерів __і він їх
повбивав__, вкрав їхню кров та життя... там було тіло Герміони, не знаю, чому,
можливо, Волеморт планував для чогось його використати... Волдеморт повернувся,
воскресив себе, але Герміона __повернулась теж, по його слідах__, і вона
__знищила його__, він мертвий, все закінчено. Це відбулося на цвинтарі біля
Гоґвортсу, це... -- Гаррі Поттер вказав загальний напрямок, з якого пролунав
був страшний ЛЯСКІТ. -- Я не впевнений, чи далеко. Звуку знадобилося приблизно
двадцять секунд, щоб дістатися сюди, тож, певно, приблизно дві хвилини на
мітлі...

// 19374
//With a motion so smooth it looked unconscious, Professor McGonagall shifted
//into a stance and said “__Expecto Patronum__.__” __She addressed the
//glowing cat that then appeared. “Go to Albus, tell him he must come at once -”
Рухом таким плинним, що здавався майже несвідомим, професорка Макґонеґел
змінила позу й викликала патронуса. Вона звернулася до сяючої кішки, що постала
перед ними:

-- Йди до Албуса, скажи йому, щоб негайно прийшов сюди...

// 19375
//“Dumbledore’s gone!” cried Harry Potter. “The Headmaster is gone, Professor
//McGonagall! The Dark Lord trapped him, he reversed some kind of trap the
//Headmaster planned and Dumbledore was caught outside Time, he’s gone!”
-- Дамблдора нема! -- закричав Гаррі Поттер. -- Директора немає, професорко
Макґонеґел! Темний Лорд заманив його у пастку, точніше, використав якусь
пастку, що готував директор проти нього самого, і Дамблдор опинився поза
Часом, його немає!

// 19376
//The horrified babble around them rose in pitch.
Нажахане белькотіння довкола нього підвищилося на октаву.

// 19377
//“Go to Albus!” Professor McGonagall said to her Patronus.
-- Йди до Албуса! -- повторила професорка Макґонеґел свій наказ патронусу.

// 19378
//The moonlit cat only looked at McGonagall sadly, and Anna sucked in her breath
//in sudden horror, feeling like someone had punched her in the stomach. It was
//real, it was all real, this wasn’t a joke.
Місячний кіт лише сумно подивився на Макґонеґел, і Анна судомно вдихнула в
раптовому жасі, так, ніби хтось вдарив її в живіт. Це все правда, це все
дійсність, а не жарт.

// 19379
//“Professor McGonagall, Hermione is __alive!__” Harry Potter raised his
//voice again. “She’s really alive and not an Inferius or anything, and she’s
//still there in the graveyard!”
-- Професорко Макґонеґел, Герміона __жива__! -- знову подав голос Гаррі Поттер.
-- Вона справді жива, і вона не інферій чи щось таке, але вона досі на
цвинтарі!

// 19380
//__“A broomstick!”__ Professor McGonagall shouted. She turned to the
//players hovering motionless over the Quidditch field. “I need a broomstick.
//NOW!”
-- __Мітлу мені!__ -- рявкнула професорка Макґонеґел. Вона розвернулася до
гравців, що нерухомо висіли на полем. -- Мені потрібна мітла. ЗАРАЗ!

// 19381
//Despite everything, Anna raised a hand in mute protest, then caught herself,
//even as the Ravenclaw and Slytherin Seekers came zooming over (with excellent
//strategic sense, since they weren’t actually doing anything).
Не заважаючи ні на що, Анна підняла руку у мовчазному протесті, але вчасно
зупинила себе, коли вже ловці Рейвенклову та Слизерину пролетіли над нею
(чудовий зразок стратегічного мислення, адже вони все одно байдики били).

// 19382
//Harry Potter was already retrieving another broomstick from his pouch, a
//multi-person one.
Гаррі Поттер вже витягав зі свого капшучка ще одну мітлу, на декілька осіб.

// 19383
//Professor McGonagall saw this, and nodded firmly. “You stay here, Mr. Potter,
//unless there is some excellent reason you must be there. I will go at once.”
Професорка Макґонеґел побачила це і суворо кивнула:

-- Залишайтесь тут, містере Поттер, якщо нема якоїсь надприродної причини вам
бути там. Я вирушаю просто зараз.


// 19384
//“You mustn’t!” squeaked Professor Flitwick, who’d shoved his tiny way through
//the crowd, occasionally running under someone’s legs. His eyes were wide, he
//looked as though he wanted to faint. “You have to stay at Hogwarts, Minerva!
//You - you’re the -” Professor Flitwick seemed to be having trouble speaking.
-- Не треба! -- пропищав професор Флитвік, торуючи свій малогабаритний шлях
крізь натовп, час від часу потрапляючи людям під ноги. Очі його були широко
розплющені, він виглядав так, ніби був ладен знепритомніти. -- Ти мусиш
лишатися в Гоґвортсі, Мінерво! Ти... ти... -- професорові Флитвіку, видавалося,
щось заважало говорити.

// 19385
//Professor McGonagall spun around to face Professor Flitwick, and then stopped,
//blood draining from her face.
Професорка Макґонеґел стрімко розвернулася до нього, а тоді зупинилася й
смертельно зблідла.

// 19386
//Then she seized the broomstick from Harry Potter’s hand, and presented it to
//the tiny half-goblin Professor. “Filius,” she said crisply. All the incipient
//panic had disappeared from her voice, she now spoke in her crisp Scottish
//accent as though addressing lessons on Monday. “Look for the graveyard of which
//Mr. Potter spoke, find Miss Granger. Apparate her to St. Mungo’s and then stay
//by her.”
Тоді вона вихопила мітлу з руки Гаррі Поттера й передала її крихітному
професору-напівґобліну.

-- Філіусе, -- чітко заговорила вона. Вся паніка зникла з її голосу, тепер
її відривчастий шотландський акцент ніби зачитував домашнє завдання на
понеділок. -- Подивися на цвинтар, про який казав містер Поттер, знайди міс
Ґрейнджер. Перенеси її до лікарні Святого Мунґа й залишайся з нею.

// 19387
//“I think -” Harry Potter said hoarsely. “I think Transfiguration might have
//been used in combat there - Professor Quirrell tried to fight Voldemort - take
//precautions -”
-- Я гадаю, -- просипів Гаррі Поттер, -- я гадаю, що там в бою могла бути
задіяна трансфігурація -- професор Квірел намагався подолати Волдеморта --
будьте обережні...

// 19388
//Filius Flitwick nodded without halting in getting on the broomstick.
Філіус Флитвік кивнув, уже залізаючи на мітлу.

// 19389
//“Professor Quirrell’s dead!” wailed Harry Potter. The anguish in his voice
//carried clearly. “He’s dead! The Dark Lord killed him! His body -” Harry Potter
//choked up. “It’s there, in the graveyard.”
-- Професор Квірел мертвий! -- заволав Гаррі Поттер. Мука в його голосі була
добре відчутна. -- Він загинув! Темний Лорд його вбив! Його тіло... -- голос
Гаррі Поттера урвався. -- Воно там, на цвинтарі.

// 19390
//She stumbled back again, feeling it like another punch in her gut. Professor
//Quirrell had been - one of her favorite Professors, __ever__, he’d made
//her rethink everything she’d believed about Slytherin, she’d known in some
//distant way that he was probably going to die very soon but to hear that he was
//really, truly dead…
Вона знову відступила назад, так, ніби отримала ще одного удару в живіт.
Професор Квірел був... її __найулюбленішим__ професором, він повністю змінив її
бачення Слизерину, і вона усвідомлювала була, десь у глибині душі, що він,
либонь, вже дуже скоро помре, але почути, що він дійсно, остаточно мертвий...

// 19391
//The Boy-Who-Lived sat down on the bench, as if his legs couldn’t support him
//anymore.
Хлопчик-Що-Вижив присів на лавку, так, ніби не в змозі був триматися на
ногах.

// 19392
//Professor McGonagall turned to the crowd, touching her wand to her throat.
//“QUIDDITCH IS OVER,” her amplified voice boomed out. “GO BACK TO YOUR
//DORMITORIES -”
Професорка Макґонеґел повернулася до натовпу й торкнулася паличкою горла.

-- КВІДИЧ ЗАВЕРШЕНО, -- рознісся луною її голос, із підвищеною гучністю. --
ПОВЕРТАЙТЕСЯ ДО СВОЇХ ГУРТОЖИТКІВ...

// 19393
//“__Don’t!__” screamed Harry Potter.
-- __Ні!__ -- закричав Гаррі Поттер.

// 19394
//Professor McGonagall turned to look at him.
Професорка Макґонеґел повернулася до нього.

// 19395
//Tears were leaking down the Boy-Who-Lived’s cheeks, he looked like the
//interruption had surprised himself as much as it had surprised anyone else. “It
//was Professor Quirrell’s last plot,” Harry Potter said, his voice breaking. The
//Boy-Who-Lived looked at the Quidditch players who had now flown to nearby, as
//though speaking to them directly. “His last plot.”
Сльози струменіли по щоках Хлопчика-Що-Вижив, він виглядав так, ніби його вигук
здивував його самого так само, як і інших.

-- Це був останній план професора Квірела, -- сказав Гаррі Поттер, голос йому
уривався. Хлопчик-Що-Вижив подивився на гравців, що зависнули поруч, так, ніби
звертався безпосередньо до них. -- Його останній план.

// 19396
//Harry Potter was floated off by Professor McGonagall to the infirmary. The
//other Professors ran off to oversee who-knew-what, leaving only Professors
//Sinistra and Hooch behind. At the stadium, rumors ran wild; Anna repeated
//everything she could remember hearing as best she could. Something had happened
//to Dumbledore, some Death Eaters had been summoned and killed (no, Harry Potter
//hadn’t said which ones), Professor Quirrell had gone out to face the Dark Lord
//and died for it, You-Know-Who had returned and died again, Professor Quirrell
//was dead, he was dead.
Професорка Макґонеґел транспортувала Гаррі Поттера до медпункту. Інші професори
розбіглися наглядати хто-зна-за-чим, позаду залишилися тільки професорки
Сіністра та Гуч. Стадіон тим часом повнився чуток; Анна повторила все, що могла
згадати. Щось сталося було з Дамблдором, деяких смертежерів було скликано та
вбито (ні, Гаррі Поттер не перелічив, яких саме), професор Квірел вирушив на бій
із Темним Лордом і загинув у бою, Відомо-Хто воскрес і знову загинув, професор
Квірел був загинув, загинув.

// 19397
//In time most of the students wandered off back to their dormitories, to sleep
//if they could.
Згодом більшість учнів мігрували назад у свої спальні спробувати заснути.

// 19398
//Anna stayed in the stadium, and watched the rest of the game, ignoring her
//body’s need for sleep, and her eyes that often blurred with tears.
Анна залишилась на стадіоні -- додивлятися гру, незважаючи на те, що тіло її
жадало сну, а очі погано бачили крізь сльози.

// 19399
//The Ravenclaw team put up a valiant fight.
Рейвенкловська команда дала блискучий бій.

// 19400
//But there was no Quidditch team anywhere that could’ve defeated the Slytherins
//that day.
Але не було в той день команди, що здатна була здолати слизеринців.

// 19401
//Dawn was tinging the sky when the Slytherins won their final game, the
//Quidditch Cup, and the House Cup.
На горизонті займався світанок, коли слизеринці здобули перемогу у фіналі, в
кубку квідичу і в кубку гуртожитків.

//***

// 19402
//__The next chapter will post on__ **March 8th, 2015** __at__ **12PM
//Pacific (8PM UTC)**__.__

// 19403
//__The current list of__ **HPMOR Wrap Parties** __(on__ **March
//14th** __Pi Day)__

// 19404
//__is in the Author’s Note for 116 at__ **hpmor dot com / notes**__.__
